object={
	name="bush_01_generator_1_0"
	clamp_to_water_level=no
	render_under_water=no
	generated_content=yes
	layer="semidynamic_medium"
	pdxmesh="tree_bush_01_mesh"
	count=554
	transform="1266.216187 0.000000 2755.794922 0.000000 0.967997 0.000000 0.250963 0.153929 0.153929 0.153929
1266.113525 0.000000 2757.005371 0.000000 0.900103 0.000000 -0.435677 0.202870 0.202870 0.202870
1199.917358 0.000000 2804.516357 0.000000 0.920669 0.000000 -0.390344 0.139574 0.139574 0.139574
1197.814819 0.000000 2804.280518 0.000000 0.005938 0.000000 0.999982 0.183118 0.183118 0.183118
1260.760498 0.000000 2806.239502 0.000000 0.174378 0.000000 0.984679 0.133299 0.133299 0.133299
1278.270142 0.000000 2772.165771 0.000000 0.996245 0.000000 -0.086575 0.178643 0.178643 0.178643
1263.917358 0.000000 2804.516357 0.000000 0.191479 0.000000 0.981497 0.144089 0.144089 0.144089
1263.085327 0.000000 2806.562500 0.000000 0.416027 0.000000 0.909352 0.173836 0.173836 0.173836
1235.237061 0.000000 2779.057373 0.000000 0.899311 0.000000 -0.437309 0.202881 0.202881 0.202881
1278.906006 0.000000 2773.544678 0.000000 0.277944 0.000000 0.960597 0.170841 0.170841 0.170841
1234.263672 0.000000 2779.820801 0.000000 0.984297 0.000000 0.176519 0.198870 0.198870 0.198870
1102.875732 0.000000 2868.980713 0.000000 0.934191 0.000000 -0.356773 0.164918 0.164918 0.164918
1117.237427 0.000000 2857.740967 0.000000 0.050616 0.000000 0.998718 0.149806 0.149806 0.149806
1117.684814 0.000000 2858.973389 0.000000 0.210379 0.000000 0.977620 0.185453 0.185453 0.185453
1056.801392 0.000000 2909.018311 0.000000 0.949246 0.000000 0.314534 0.150829 0.150829 0.150829
1054.946045 0.000000 2909.166992 0.000000 0.998255 0.000000 -0.059056 0.161648 0.161648 0.161648
1089.451416 0.000000 2892.878662 0.000000 0.954196 0.000000 -0.299181 0.128401 0.128401 0.128401
1160.404785 0.000000 2844.646729 0.000000 0.987336 0.000000 -0.158644 0.201014 0.201014 0.201014
1188.990479 0.000000 2824.904297 0.000000 0.543655 0.000000 0.839309 0.190947 0.190947 0.190947
1248.618042 0.000000 2827.584473 0.000000 0.528209 0.000000 0.849115 0.148545 0.148545 0.148545
1258.281250 0.000000 2866.430420 0.000000 0.145939 0.000000 0.989294 0.152425 0.152425 0.152425
1259.311401 0.000000 2849.366455 0.000000 0.321488 0.000000 0.946914 0.149578 0.149578 0.149578
1235.881592 0.000000 2862.756348 0.000000 0.755359 0.000000 0.655311 0.175194 0.175194 0.175194
1253.379272 0.000000 2917.589844 0.000000 0.338776 0.000000 0.940867 0.192200 0.192200 0.192200
1307.932739 0.000000 2731.519531 0.000000 0.992534 0.000000 0.121966 0.191967 0.191967 0.191967
1307.790405 0.000000 2730.003418 0.000000 0.975887 0.000000 0.218278 0.191367 0.191367 0.191367
1306.696777 0.000000 2730.996094 0.000000 0.446763 0.000000 0.894653 0.185922 0.185922 0.185922
1049.681030 0.000000 2970.965088 0.000000 0.696510 0.000000 0.717547 0.193267 0.193267 0.193267
1051.528442 0.000000 2971.726807 0.000000 0.978529 0.000000 0.206109 0.153600 0.153600 0.153600
1101.872192 0.000000 2965.590088 0.000000 0.983875 0.000000 0.178857 0.187158 0.187158 0.187158
1190.646362 0.000000 2969.344727 0.000000 0.878947 0.000000 0.476919 0.162651 0.162651 0.162651
1200.914673 0.000000 2954.371094 0.000000 0.969038 0.000000 -0.246912 0.173355 0.173355 0.173355
1158.215332 0.000000 3042.609619 0.000000 0.759962 0.000000 0.649967 0.146759 0.146759 0.146759
1214.948242 0.000000 2995.825928 0.000000 0.981675 0.000000 -0.190565 0.151056 0.151056 0.151056
1212.727539 0.000000 2996.166260 0.000000 0.508192 0.000000 0.861244 0.141930 0.141930 0.141930
1159.260376 0.000000 3040.276367 0.000000 0.950259 0.000000 0.311460 0.179128 0.179128 0.179128
1064.284058 0.000000 3088.622803 0.000000 0.908433 0.000000 -0.418031 0.170942 0.170942 0.170942
1144.742188 0.000000 3080.050049 0.000000 0.624908 0.000000 0.780698 0.149125 0.149125 0.149125
1125.365967 0.000000 3101.855957 0.000000 0.669964 0.000000 0.742394 0.194674 0.194674 0.194674
1124.687378 0.000000 3100.726562 0.000000 0.977845 0.000000 -0.209330 0.201343 0.201343 0.201343
1732.298828 0.000000 2880.117188 0.000000 0.871216 0.000000 0.490901 0.196733 0.196733 0.196733
1704.015625 0.000000 2888.331787 0.000000 0.063986 0.000000 0.997951 0.122672 0.122672 0.122672
1710.043091 0.000000 2886.557861 0.000000 0.220591 0.000000 0.975366 0.191416 0.191416 0.191416
1708.442261 0.000000 2887.215820 0.000000 0.385805 0.000000 0.922581 0.171490 0.171490 0.171490
1711.105347 0.000000 2884.264404 0.000000 0.990052 0.000000 -0.140705 0.200899 0.200899 0.200899
1711.546265 0.000000 2887.050537 0.000000 0.812272 0.000000 -0.583279 0.203965 0.203965 0.203965
1710.601562 0.000000 2887.805664 0.000000 0.486949 0.000000 0.873431 0.193238 0.193238 0.193238
1735.914795 0.000000 2882.540039 0.000000 0.921767 0.000000 0.387745 0.137175 0.137175 0.137175
1743.831299 0.000000 2884.875000 0.000000 0.904889 0.000000 0.425648 0.197201 0.197201 0.197201
1732.948608 0.000000 2880.818115 0.000000 0.431287 0.000000 0.902215 0.192839 0.192839 0.192839
1745.664795 0.000000 2887.359131 0.000000 0.214665 0.000000 0.976688 0.164038 0.164038 0.164038
1738.565063 0.000000 2883.251953 0.000000 0.165673 0.000000 0.986181 0.191060 0.191060 0.191060
1741.612183 0.000000 2883.831787 0.000000 0.966094 0.000000 0.258192 0.198337 0.198337 0.198337
1732.602173 0.000000 2883.308838 0.000000 0.921553 0.000000 0.388253 0.179762 0.179762 0.179762
1742.033691 0.000000 2886.593994 0.000000 0.050686 0.000000 0.998715 0.162601 0.162601 0.162601
1743.854980 0.000000 2887.232910 0.000000 0.924351 0.000000 -0.381544 0.172998 0.172998 0.172998
1745.288208 0.000000 2885.784424 0.000000 0.611796 0.000000 0.791015 0.194191 0.194191 0.194191
1740.241821 0.000000 2882.968018 0.000000 0.607884 0.000000 0.794026 0.194160 0.194160 0.194160
1731.497925 0.000000 2881.460693 0.000000 0.659466 0.000000 0.751735 0.190224 0.190224 0.190224
1741.322266 0.000000 2885.299805 0.000000 0.946115 0.000000 -0.323830 0.202099 0.202099 0.202099
1742.622803 0.000000 2885.414551 0.000000 0.998437 0.000000 0.055894 0.199644 0.199644 0.199644
1744.913574 0.000000 2884.486084 0.000000 0.996483 0.000000 -0.083794 0.200534 0.200534 0.200534
1934.873047 0.000000 2719.297119 0.000000 0.431192 0.000000 0.902260 0.159348 0.159348 0.159348
1929.693359 0.000000 2720.312744 0.000000 0.399890 0.000000 0.916563 0.171037 0.171037 0.171037
1928.131470 0.000000 2720.637695 0.000000 0.107273 0.000000 0.994230 0.169319 0.169319 0.169319
1870.220581 0.000000 2841.299561 0.000000 0.654072 0.000000 0.756433 0.167837 0.167837 0.167837
1866.351440 0.000000 2845.097656 0.000000 0.073314 0.000000 0.997309 0.190467 0.190467 0.190467
1862.424683 0.000000 2844.578857 0.000000 0.586026 0.000000 0.810292 0.160840 0.160840 0.160840
1872.004883 0.000000 2841.686523 0.000000 0.569013 0.000000 0.822329 0.172133 0.172133 0.172133
2296.315674 0.000000 3200.134033 0.000000 0.852235 0.000000 0.523159 0.160168 0.160168 0.160168
2288.647949 0.000000 3203.600830 0.000000 0.966694 0.000000 -0.255935 0.166063 0.166063 0.166063
2289.315186 0.000000 3205.823242 0.000000 0.999949 0.000000 0.010082 0.149532 0.149532 0.149532
2297.129395 0.000000 3201.943604 0.000000 0.149120 0.000000 0.988819 0.155651 0.155651 0.155651
2297.001709 0.000000 3198.557129 0.000000 0.407214 0.000000 0.913333 0.171622 0.171622 0.171622
2239.957764 0.000000 3240.508301 0.000000 0.818113 0.000000 -0.575057 0.142787 0.142787 0.142787
2237.248291 0.000000 3265.611328 0.000000 0.996272 0.000000 0.086266 0.158666 0.158666 0.158666
2202.073975 0.000000 3250.125732 0.000000 0.952478 0.000000 -0.304606 0.201971 0.201971 0.201971
2237.524170 0.000000 3236.679199 0.000000 0.940092 0.000000 -0.340921 0.202215 0.202215 0.202215
2205.237549 0.000000 3253.131592 0.000000 0.690322 0.000000 0.723502 0.178477 0.178477 0.178477
2214.889160 0.000000 3243.049072 0.000000 0.730133 0.000000 0.683306 0.126313 0.126313 0.126313
2214.581055 0.000000 3254.733887 0.000000 0.337111 0.000000 0.941465 0.191112 0.191112 0.191112
2237.638184 0.000000 3239.332520 0.000000 0.657794 0.000000 0.753198 0.148789 0.148789 0.148789
2239.510010 0.000000 3256.827881 0.000000 0.995947 0.000000 0.089945 0.190489 0.190489 0.190489
2204.944580 0.000000 3255.476807 0.000000 0.998598 0.000000 -0.052934 0.167789 0.167789 0.167789
2204.838379 0.000000 3244.676758 0.000000 0.788523 0.000000 0.615005 0.168362 0.168362 0.168362
2207.330566 0.000000 3252.030518 0.000000 0.825718 0.000000 0.564084 0.162663 0.162663 0.162663
2235.815186 0.000000 3238.329102 0.000000 0.831963 0.000000 0.554832 0.151177 0.151177 0.151177
2237.281982 0.000000 3263.564697 0.000000 0.968909 0.000000 0.247418 0.178401 0.178401 0.178401
2203.528320 0.000000 3254.148682 0.000000 0.919549 0.000000 -0.392975 0.160582 0.160582 0.160582
2229.449463 0.000000 3269.500977 0.000000 0.908941 0.000000 0.416926 0.166872 0.166872 0.166872
2218.375244 0.000000 3251.152588 0.000000 0.211095 0.000000 0.977466 0.189746 0.189746 0.189746
2226.132324 0.000000 3239.030518 0.000000 0.944903 0.000000 0.327350 0.197877 0.197877 0.197877
2204.743164 0.000000 3248.222412 0.000000 0.452908 0.000000 0.891557 0.181099 0.181099 0.181099
2238.095947 0.000000 3251.155518 0.000000 0.997162 0.000000 -0.075286 0.200480 0.200480 0.200480
2219.575684 0.000000 3250.339600 0.000000 0.783312 0.000000 0.621629 0.194085 0.194085 0.194085
2238.208984 0.000000 3256.270020 0.000000 0.362139 0.000000 0.932124 0.183738 0.183738 0.183738
2226.572021 0.000000 3244.323975 0.000000 0.991746 0.000000 0.128218 0.199181 0.199181 0.199181
2228.696045 0.000000 3255.713135 0.000000 0.987637 0.000000 -0.156757 0.194809 0.194809 0.194809
2215.743652 0.000000 3255.349854 0.000000 0.890976 0.000000 -0.454051 0.201863 0.201863 0.201863
2237.038818 0.000000 3237.950439 0.000000 0.269358 0.000000 0.963040 0.191736 0.191736 0.191736
2226.304199 0.000000 3245.997070 0.000000 0.588995 0.000000 0.808137 0.194010 0.194010 0.194010
2227.413330 0.000000 3239.159912 0.000000 0.972005 0.000000 0.234959 0.198490 0.198490 0.198490
2203.792725 0.000000 3249.050049 0.000000 0.438543 0.000000 0.898710 0.192890 0.192890 0.192890
2285.516602 0.000000 3234.342773 0.000000 0.999699 0.000000 -0.024551 0.127831 0.127831 0.127831
2288.205322 0.000000 3276.068115 0.000000 0.992497 0.000000 0.122270 0.138952 0.138952 0.138952
2258.127686 0.000000 3232.885498 0.000000 0.819968 0.000000 0.572409 0.159863 0.159863 0.159863
2287.722412 0.000000 3263.928955 0.000000 0.836487 0.000000 0.547987 0.136371 0.136371 0.136371
2295.637939 0.000000 3235.352783 0.000000 0.991529 0.000000 0.129887 0.136686 0.136686 0.136686
2255.273193 0.000000 3241.527832 0.000000 0.067111 0.000000 0.997746 0.118951 0.118951 0.118951
2262.477783 0.000000 3254.502686 0.000000 0.883881 0.000000 -0.467711 0.129710 0.129710 0.129710
2244.032471 0.000000 3251.220947 0.000000 0.764415 0.000000 0.644725 0.185133 0.185133 0.185133
2258.817383 0.000000 3250.053223 0.000000 0.986216 0.000000 -0.165464 0.128407 0.128407 0.128407
2244.763672 0.000000 3255.801514 0.000000 0.919908 0.000000 0.392135 0.154851 0.154851 0.154851
2294.382080 0.000000 3248.937012 0.000000 0.995238 0.000000 -0.097471 0.152293 0.152293 0.152293
2288.647949 0.000000 3260.085205 0.000000 0.114365 0.000000 0.993439 0.142647 0.142647 0.142647
2244.755371 0.000000 3247.481934 0.000000 0.658566 0.000000 0.752523 0.127538 0.127538 0.127538
2270.953613 0.000000 3275.861816 0.000000 0.671966 0.000000 0.740582 0.142337 0.142337 0.142337
2269.392090 0.000000 3264.282715 0.000000 0.963712 0.000000 -0.266946 0.154257 0.154257 0.154257
2240.894775 0.000000 3249.909424 0.000000 0.142002 0.000000 0.989866 0.145988 0.145988 0.145988
2281.065186 0.000000 3271.314941 0.000000 0.895100 0.000000 0.445865 0.188778 0.188778 0.188778
2292.463867 0.000000 3234.691162 0.000000 0.035856 0.000000 0.999357 0.130016 0.130016 0.130016
2300.832764 0.000000 3251.931152 0.000000 0.933685 0.000000 -0.358096 0.188729 0.188729 0.188729
2243.820801 0.000000 3233.414795 0.000000 0.980241 0.000000 0.197805 0.198732 0.198732 0.198732
2265.706787 0.000000 3233.248779 0.000000 0.900020 0.000000 0.435848 0.145224 0.145224 0.145224
2296.639160 0.000000 3224.581787 0.000000 0.860008 0.000000 -0.510280 0.141874 0.141874 0.141874
2246.395264 0.000000 3249.665039 0.000000 0.876469 0.000000 0.481458 0.157662 0.157662 0.157662
2293.427979 0.000000 3237.450684 0.000000 0.541371 0.000000 0.840784 0.141028 0.141028 0.141028
2248.173828 0.000000 3241.875732 0.000000 0.775420 0.000000 0.631446 0.178660 0.178660 0.178660
2247.142822 0.000000 3246.993896 0.000000 0.834995 0.000000 -0.550258 0.147219 0.147219 0.147219
2294.180420 0.000000 3243.459473 0.000000 0.268160 0.000000 0.963374 0.143393 0.143393 0.143393
2283.596436 0.000000 3268.150879 0.000000 0.185694 0.000000 0.982608 0.190118 0.190118 0.190118
2259.253418 0.000000 3267.196045 0.000000 0.761862 0.000000 0.647739 0.150606 0.150606 0.150606
2291.914307 0.000000 3225.397705 0.000000 0.482077 0.000000 0.876129 0.159649 0.159649 0.159649
2263.348877 0.000000 3272.607910 0.000000 0.993655 0.000000 -0.112473 0.161923 0.161923 0.161923
2275.523193 0.000000 3264.255371 0.000000 0.687170 0.000000 0.726497 0.157168 0.157168 0.157168
2289.315186 0.000000 3262.307617 0.000000 0.887676 0.000000 0.460469 0.196954 0.196954 0.196954
2251.263184 0.000000 3256.171631 0.000000 0.731133 0.000000 0.682235 0.172800 0.172800 0.172800
2293.789307 0.000000 3263.053223 0.000000 0.929036 0.000000 0.369989 0.146115 0.146115 0.146115
2296.246338 0.000000 3222.466309 0.000000 0.820313 0.000000 0.571915 0.165359 0.165359 0.165359
2241.654297 0.000000 3233.967529 0.000000 0.660750 0.000000 0.750606 0.146628 0.146628 0.146628
2300.271729 0.000000 3228.122803 0.000000 0.912267 0.000000 0.409596 0.197313 0.197313 0.197313
2276.742188 0.000000 3272.814453 0.000000 0.656169 0.000000 0.754614 0.194556 0.194556 0.194556
2244.483887 0.000000 3249.358154 0.000000 0.586654 0.000000 0.809838 0.193991 0.193991 0.193991
2245.832764 0.000000 3251.475098 0.000000 0.942731 0.000000 -0.333553 0.191405 0.191405 0.191405
2250.780273 0.000000 3254.393311 0.000000 0.942560 0.000000 0.334036 0.166799 0.166799 0.166799
2256.310547 0.000000 3267.204834 0.000000 0.958053 0.000000 0.286590 0.188714 0.188714 0.188714
2265.560059 0.000000 3262.782959 0.000000 0.862583 0.000000 0.505916 0.196072 0.196072 0.196072
2251.147217 0.000000 3257.774902 0.000000 0.573748 0.000000 0.819032 0.171623 0.171623 0.171623
2265.909180 0.000000 3236.695557 0.000000 0.402586 0.000000 0.915382 0.170514 0.170514 0.170514
2294.609131 0.000000 3247.458008 0.000000 1.000000 0.000000 -0.000842 0.191042 0.191042 0.191042
2257.775879 0.000000 3267.182617 0.000000 0.173085 0.000000 0.984907 0.182007 0.182007 0.182007
2241.945557 0.000000 3235.913086 0.000000 0.320616 0.000000 0.947209 0.192078 0.192078 0.192078
2243.093750 0.000000 3249.679443 0.000000 0.582047 0.000000 0.813155 0.193955 0.193955 0.193955
2270.176025 0.000000 3270.767334 0.000000 0.087808 0.000000 0.996137 0.190560 0.190560 0.190560
2282.351562 0.000000 3268.697754 0.000000 0.910703 0.000000 0.413063 0.196184 0.196184 0.196184
2242.597656 0.000000 3233.074463 0.000000 0.689685 0.000000 0.724109 0.194845 0.194845 0.194845
2271.826172 0.000000 3271.185303 0.000000 0.991513 0.000000 -0.130004 0.200830 0.200830 0.200830
2248.415771 0.000000 3246.681641 0.000000 0.894643 0.000000 0.446783 0.197051 0.197051 0.197051
2288.827148 0.000000 3263.447266 0.000000 0.996144 0.000000 0.087728 0.199441 0.199441 0.199441
2301.552002 0.000000 3228.922607 0.000000 0.913038 0.000000 -0.407874 0.202675 0.202675 0.202675
2240.649170 0.000000 3234.524414 0.000000 0.689969 0.000000 0.723839 0.194848 0.194848 0.194848
2300.196533 0.000000 3229.379395 0.000000 0.990492 0.000000 -0.137568 0.200879 0.200879 0.200879
2236.727539 0.000000 3278.588135 0.000000 0.824183 0.000000 -0.566324 0.186133 0.186133 0.186133
2236.201172 0.000000 3296.684326 0.000000 0.623046 0.000000 0.782185 0.194282 0.194282 0.194282
2285.516602 0.000000 3290.827148 0.000000 0.994982 0.000000 -0.100056 0.177034 0.177034 0.177034
2242.396484 0.000000 3277.955811 0.000000 0.375812 0.000000 0.926696 0.122911 0.122911 0.122911
2295.637939 0.000000 3291.837158 0.000000 0.793096 0.000000 0.609096 0.132199 0.132199 0.132199
2288.541992 0.000000 3298.678955 0.000000 0.892235 0.000000 -0.451571 0.130773 0.130773 0.130773
2285.943604 0.000000 3278.448730 0.000000 0.956902 0.000000 0.290413 0.126533 0.126533 0.126533
2251.929443 0.000000 3288.099609 0.000000 0.048261 0.000000 0.998835 0.144463 0.144463 0.144463
2246.330566 0.000000 3288.190674 0.000000 0.853330 0.000000 0.521370 0.125501 0.125501 0.125501
2266.364746 0.000000 3301.655029 0.000000 0.970507 0.000000 0.241074 0.126741 0.126741 0.126741
2301.524170 0.000000 3293.163574 0.000000 0.796119 0.000000 0.605139 0.173368 0.173368 0.173368
2280.015625 0.000000 3283.722412 0.000000 0.060587 0.000000 0.998163 0.151989 0.151989 0.151989
2255.831299 0.000000 3280.265625 0.000000 0.138641 0.000000 0.990343 0.124584 0.124584 0.124584
2292.014648 0.000000 3284.937012 0.000000 0.786186 0.000000 0.617989 0.168890 0.168890 0.168890
2256.939697 0.000000 3292.022461 0.000000 0.002392 0.000000 0.999997 0.129870 0.129870 0.129870
2276.575195 0.000000 3278.482666 0.000000 0.944757 0.000000 0.327772 0.147990 0.147990 0.147990
2296.639160 0.000000 3281.066162 0.000000 0.860662 0.000000 0.509177 0.196599 0.196599 0.196599
2273.365723 0.000000 3286.268555 0.000000 0.997280 0.000000 -0.073710 0.197662 0.197662 0.197662
2253.488037 0.000000 3286.110352 0.000000 0.571887 0.000000 0.820332 0.141198 0.141198 0.141198
2281.650879 0.000000 3285.380371 0.000000 0.950602 0.000000 0.310412 0.151959 0.151959 0.151959
2266.165771 0.000000 3284.351562 0.000000 0.963702 0.000000 -0.266978 0.201721 0.201721 0.201721
2267.966309 0.000000 3285.706787 0.000000 0.997717 0.000000 -0.067528 0.200430 0.200430 0.200430
2253.704834 0.000000 3288.920410 0.000000 0.834943 0.000000 -0.550336 0.203710 0.203710 0.203710
2281.963623 0.000000 3283.623047 0.000000 0.896788 0.000000 0.442461 0.157334 0.157334 0.157334
2254.777344 0.000000 3296.345947 0.000000 0.386542 0.000000 0.922272 0.172573 0.172573 0.172573
2284.147461 0.000000 3291.729248 0.000000 0.972396 0.000000 0.233338 0.175148 0.175148 0.175148
2243.049561 0.000000 3288.364502 0.000000 0.975591 0.000000 -0.219595 0.200281 0.200281 0.200281
2244.635498 0.000000 3288.496582 0.000000 0.983670 0.000000 -0.179980 0.201152 0.201152 0.201152
2271.750977 0.000000 3282.676758 0.000000 0.947361 0.000000 0.320166 0.188500 0.188500 0.188500
2252.289795 0.000000 3289.541016 0.000000 0.963033 0.000000 -0.269384 0.201736 0.201736 0.201736
2266.256592 0.000000 3280.818604 0.000000 0.940593 0.000000 0.339538 0.197795 0.197795 0.197795
2245.597900 0.000000 3289.561279 0.000000 0.072437 0.000000 0.997373 0.190462 0.190462 0.190462
2241.993652 0.000000 3299.543701 0.000000 0.837425 0.000000 -0.546552 0.199687 0.199687 0.199687
2270.425537 0.000000 3282.978027 0.000000 0.542421 0.000000 0.840107 0.184428 0.184428 0.184428
2298.873047 0.000000 3291.842529 0.000000 0.969232 0.000000 -0.246148 0.201583 0.201583 0.201583
2242.597656 0.000000 3289.558838 0.000000 0.913911 0.000000 0.405914 0.196234 0.196234 0.196234
2298.750732 0.000000 3290.581055 0.000000 0.706272 0.000000 0.707941 0.194992 0.194992 0.194992
2335.453613 0.000000 3179.855225 0.000000 0.950016 0.000000 0.312200 0.125886 0.125886 0.125886
2367.957764 0.000000 3184.023926 0.000000 0.989414 0.000000 0.145118 0.171749 0.171749 0.171749
2318.007324 0.000000 3194.015137 0.000000 0.294592 0.000000 0.955623 0.132236 0.132236 0.132236
2352.541992 0.000000 3185.710205 0.000000 0.975425 0.000000 0.220333 0.125715 0.125715 0.125715
2355.456055 0.000000 3213.413330 0.000000 0.083666 0.000000 0.996494 0.130224 0.130224 0.130224
2362.511719 0.000000 3183.635010 0.000000 0.016827 0.000000 0.999858 0.154961 0.154961 0.154961
2354.842529 0.000000 3180.994873 0.000000 0.897411 0.000000 0.441197 0.163414 0.163414 0.163414
2340.045898 0.000000 3168.399902 0.000000 0.893326 0.000000 0.449409 0.146809 0.146809 0.146809
2314.351318 0.000000 3184.003906 0.000000 0.715800 0.000000 0.698306 0.136610 0.136610 0.136610
2330.364746 0.000000 3188.686279 0.000000 0.438069 0.000000 0.898941 0.137776 0.137776 0.137776
2336.426758 0.000000 3175.562744 0.000000 0.831437 0.000000 -0.555619 0.147819 0.147819 0.147819
2305.884521 0.000000 3214.177490 0.000000 0.952732 0.000000 -0.303812 0.171982 0.171982 0.171982
2344.015625 0.000000 3170.753662 0.000000 0.493765 0.000000 0.869596 0.135355 0.135355 0.135355
2349.311035 0.000000 3197.474854 0.000000 0.666251 0.000000 0.745727 0.137394 0.137394 0.137394
2304.156738 0.000000 3218.025146 0.000000 0.922255 0.000000 -0.386582 0.202527 0.202527 0.202527
2351.917480 0.000000 3199.906982 0.000000 0.922408 0.000000 0.386216 0.189178 0.189178 0.189178
2333.020508 0.000000 3175.955322 0.000000 0.694855 0.000000 0.719150 0.144667 0.144667 0.144667
2365.612061 0.000000 3201.884766 0.000000 0.873720 0.000000 0.486429 0.151019 0.151019 0.151019
2339.666992 0.000000 3199.611328 0.000000 0.440640 0.000000 0.897684 0.162105 0.162105 0.162105
2313.278076 0.000000 3213.208496 0.000000 0.998864 0.000000 0.047660 0.189628 0.189628 0.189628
2357.861084 0.000000 3211.191406 0.000000 0.295824 0.000000 0.955243 0.160195 0.160195 0.160195
2316.526855 0.000000 3186.170898 0.000000 0.811536 0.000000 0.584303 0.174613 0.174613 0.174613
2355.016113 0.000000 3183.976074 0.000000 0.153737 0.000000 0.988112 0.170119 0.170119 0.170119
2323.991699 0.000000 3196.352539 0.000000 0.131599 0.000000 0.991303 0.184425 0.184425 0.184425
2311.213623 0.000000 3201.324951 0.000000 0.955657 0.000000 -0.294482 0.179281 0.179281 0.179281
2315.616455 0.000000 3192.466064 0.000000 0.966522 0.000000 0.256584 0.151122 0.151122 0.151122
2365.124756 0.000000 3215.604248 0.000000 0.980162 0.000000 -0.198198 0.167443 0.167443 0.167443
2342.824463 0.000000 3168.362793 0.000000 0.603332 0.000000 0.797490 0.148447 0.148447 0.148447
2367.976562 0.000000 3213.740479 0.000000 0.721941 0.000000 0.691954 0.145941 0.145941 0.145941
2341.463867 0.000000 3170.730469 0.000000 0.539941 0.000000 0.841703 0.167597 0.167597 0.167597
2367.510498 0.000000 3187.861816 0.000000 0.624507 0.000000 0.781020 0.165993 0.165993 0.165993
2356.706299 0.000000 3219.440430 0.000000 0.627121 0.000000 0.778921 0.181252 0.181252 0.181252
2334.816895 0.000000 3177.562744 0.000000 0.024315 0.000000 0.999704 0.169382 0.169382 0.169382
2331.203369 0.000000 3202.442627 0.000000 0.936594 0.000000 -0.350417 0.171682 0.171682 0.171682
2351.085449 0.000000 3201.953125 0.000000 0.999476 0.000000 0.032373 0.189720 0.189720 0.189720
2329.598145 0.000000 3186.756592 0.000000 0.233055 0.000000 0.972464 0.170578 0.170578 0.170578
2352.914795 0.000000 3180.308594 0.000000 0.836550 0.000000 0.547890 0.168265 0.168265 0.168265
2366.970947 0.000000 3185.781006 0.000000 0.973064 0.000000 0.230537 0.171271 0.171271 0.171271
2356.072754 0.000000 3211.628174 0.000000 0.840864 0.000000 -0.541247 0.169986 0.169986 0.169986
2360.708984 0.000000 3183.568604 0.000000 0.607961 0.000000 0.793967 0.164248 0.164248 0.164248
2304.588623 0.000000 3215.427490 0.000000 0.618171 0.000000 0.786044 0.165405 0.165405 0.165405
2334.652344 0.000000 3175.210449 0.000000 0.748432 0.000000 0.663212 0.174039 0.174039 0.174039
2309.351074 0.000000 3201.250977 0.000000 0.981443 0.000000 -0.191752 0.201228 0.201228 0.201228
2363.261963 0.000000 3185.260986 0.000000 0.999640 0.000000 -0.026844 0.178304 0.178304 0.178304
2316.970947 0.000000 3210.110840 0.000000 0.977994 0.000000 0.208633 0.182524 0.182524 0.182524
2317.306641 0.000000 3187.676514 0.000000 0.387513 0.000000 0.921864 0.171500 0.171500 0.171500
2366.675049 0.000000 3214.876221 0.000000 0.102210 0.000000 0.994763 0.158610 0.158610 0.158610
2354.132324 0.000000 3182.546143 0.000000 0.874125 0.000000 -0.485701 0.181027 0.181027 0.181027
2366.383301 0.000000 3184.291504 0.000000 0.869609 0.000000 0.493741 0.169713 0.169713 0.169713
2313.912354 0.000000 3192.227051 0.000000 0.237312 0.000000 0.971434 0.191525 0.191525 0.191525
2342.707031 0.000000 3171.682373 0.000000 0.964119 0.000000 -0.265471 0.179675 0.179675 0.179675
2322.727783 0.000000 3197.282959 0.000000 0.288896 0.000000 0.957360 0.185417 0.185417 0.185417
2317.467041 0.000000 3211.771729 0.000000 0.952594 0.000000 0.304244 0.181945 0.181945 0.181945
2305.626221 0.000000 3218.042236 0.000000 0.627821 0.000000 0.778358 0.194321 0.194321 0.194321
2350.049561 0.000000 3201.038574 0.000000 0.516350 0.000000 0.856378 0.183700 0.183700 0.183700
2321.357910 0.000000 3196.540771 0.000000 0.465272 0.000000 0.885168 0.193081 0.193081 0.193081
2304.860107 0.000000 3218.966553 0.000000 0.914752 0.000000 0.404015 0.197352 0.197352 0.197352
2308.465332 0.000000 3201.914551 0.000000 0.832812 0.000000 -0.553556 0.203735 0.203735 0.203735
2375.979980 0.000000 3205.260254 0.000000 0.719597 0.000000 0.694392 0.172159 0.172159 0.172159
2385.256836 0.000000 3197.839844 0.000000 0.991936 0.000000 -0.126737 0.200809 0.200809 0.200809
2413.386719 0.000000 3217.832031 0.000000 0.993427 0.000000 0.114464 0.185315 0.185315 0.185315
2368.936035 0.000000 3185.734619 0.000000 0.042796 0.000000 0.999084 0.169486 0.169486 0.169486
2383.869873 0.000000 3199.947754 0.000000 0.999999 0.000000 -0.001364 0.173677 0.173677 0.173677
2393.774658 0.000000 3212.824219 0.000000 0.648255 0.000000 0.761423 0.194490 0.194490 0.194490
2370.335449 0.000000 3194.354980 0.000000 0.930499 0.000000 0.366295 0.168275 0.168275 0.168275
2368.043457 0.000000 3187.375977 0.000000 0.983972 0.000000 -0.178323 0.178041 0.178041 0.178041
2392.325195 0.000000 3212.265381 0.000000 0.459941 0.000000 0.887950 0.193043 0.193043 0.193043
2393.064697 0.000000 3213.763672 0.000000 0.912125 0.000000 -0.409913 0.202689 0.202689 0.202689
2311.671631 0.000000 3244.465820 0.000000 0.999983 0.000000 -0.005769 0.193873 0.193873 0.193873
2315.959473 0.000000 3268.100342 0.000000 0.675042 0.000000 0.737779 0.121630 0.121630 0.121630
2348.662354 0.000000 3270.189453 0.000000 0.978184 0.000000 0.207739 0.126880 0.126880 0.126880
2335.825928 0.000000 3227.731689 0.000000 0.177285 0.000000 0.984160 0.122069 0.122069 0.122069
2310.215332 0.000000 3268.547119 0.000000 0.876446 0.000000 -0.481499 0.190107 0.190107 0.190107
2346.009521 0.000000 3274.546143 0.000000 0.920445 0.000000 -0.390872 0.199152 0.199152 0.199152
2305.884521 0.000000 3270.661865 0.000000 0.985304 0.000000 0.170811 0.173278 0.173278 0.173278
2304.163086 0.000000 3254.355957 0.000000 0.387196 0.000000 0.921997 0.144533 0.144533 0.144533
2319.831299 0.000000 3223.781250 0.000000 0.160143 0.000000 0.987094 0.191024 0.191024 0.191024
2317.507080 0.000000 3255.423828 0.000000 0.834088 0.000000 -0.551632 0.203720 0.203720 0.203720
2322.230469 0.000000 3257.645020 0.000000 0.988495 0.000000 -0.151254 0.200967 0.200967 0.200967
2315.406250 0.000000 3252.680176 0.000000 0.994943 0.000000 -0.100444 0.156803 0.156803 0.156803
2327.836426 0.000000 3270.222168 0.000000 0.998593 0.000000 -0.053022 0.141415 0.141415 0.141415
2313.278076 0.000000 3269.692871 0.000000 0.992432 0.000000 0.122794 0.137275 0.137275 0.137275
2314.072266 0.000000 3275.781494 0.000000 0.873433 0.000000 0.486944 0.196762 0.196762 0.196762
2310.056885 0.000000 3264.547119 0.000000 0.937629 0.000000 0.347638 0.187770 0.187770 0.187770
2352.746582 0.000000 3222.846924 0.000000 0.999810 0.000000 -0.019498 0.190034 0.190034 0.190034
2311.437256 0.000000 3274.653076 0.000000 0.999086 0.000000 -0.042747 0.169979 0.169979 0.169979
2340.759766 0.000000 3240.985596 0.000000 0.909248 0.000000 -0.416254 0.186833 0.186833 0.186833
2320.186279 0.000000 3238.760742 0.000000 0.555346 0.000000 0.831619 0.193748 0.193748 0.193748
2329.283936 0.000000 3241.227051 0.000000 0.087161 0.000000 0.996194 0.190556 0.190556 0.190556
2325.235596 0.000000 3239.470459 0.000000 0.749267 0.000000 0.662268 0.172952 0.172952 0.172952
2357.566895 0.000000 3232.071533 0.000000 0.866727 0.000000 -0.498783 0.176556 0.176556 0.176556
2323.443848 0.000000 3269.529053 0.000000 0.503735 0.000000 0.863858 0.164113 0.164113 0.164113
2331.190674 0.000000 3247.918701 0.000000 0.582852 0.000000 0.812578 0.151583 0.151583 0.151583
2320.382568 0.000000 3275.425781 0.000000 0.999840 0.000000 -0.017890 0.200114 0.200114 0.200114
2323.253418 0.000000 3267.196045 0.000000 0.679653 0.000000 0.733534 0.194212 0.194212 0.194212
2327.348877 0.000000 3272.607910 0.000000 0.897180 0.000000 0.441666 0.183838 0.183838 0.183838
2367.273682 0.000000 3231.000488 0.000000 0.257208 0.000000 0.966356 0.178772 0.178772 0.178772
2362.561523 0.000000 3251.368652 0.000000 0.863775 0.000000 0.503878 0.149820 0.149820 0.149820
2340.916016 0.000000 3247.671875 0.000000 0.174258 0.000000 0.984700 0.142399 0.142399 0.142399
2351.436035 0.000000 3254.330811 0.000000 0.536455 0.000000 0.843929 0.163778 0.163778 0.163778
2343.167725 0.000000 3268.079346 0.000000 0.270416 0.000000 0.962743 0.161666 0.161666 0.161666
2329.618408 0.000000 3271.286621 0.000000 0.981618 0.000000 0.190856 0.155347 0.155347 0.155347
2322.979736 0.000000 3259.623291 0.000000 0.693427 0.000000 0.720527 0.173589 0.173589 0.173589
2309.572266 0.000000 3266.540283 0.000000 0.929429 0.000000 0.369001 0.197041 0.197041 0.197041
2319.228516 0.000000 3246.621582 0.000000 0.943414 0.000000 0.331619 0.197848 0.197848 0.197848
2318.368652 0.000000 3275.462891 0.000000 0.152434 0.000000 0.988314 0.190974 0.190974 0.190974
2319.325439 0.000000 3254.617920 0.000000 0.999868 0.000000 0.016233 0.180859 0.180859 0.180859
2308.189941 0.000000 3264.772705 0.000000 0.996129 0.000000 -0.087898 0.193257 0.193257 0.193257
2304.588623 0.000000 3271.911865 0.000000 0.982899 0.000000 -0.184145 0.175257 0.175257 0.175257
2328.422119 0.000000 3249.309570 0.000000 0.239793 0.000000 0.970824 0.172226 0.172226 0.172226
2347.722900 0.000000 3274.932617 0.000000 0.861994 0.000000 -0.506918 0.199966 0.199966 0.199966
2311.260498 0.000000 3266.213867 0.000000 0.962067 0.000000 0.272814 0.198241 0.198241 0.198241
2314.663574 0.000000 3274.194336 0.000000 0.750853 0.000000 0.660469 0.195407 0.195407 0.195407
2323.881592 0.000000 3258.146973 0.000000 0.795234 0.000000 0.606303 0.174457 0.174457 0.174457
2314.416504 0.000000 3251.293457 0.000000 0.999371 0.000000 -0.035460 0.180035 0.180035 0.180035
2364.201172 0.000000 3240.199951 0.000000 0.273787 0.000000 0.961790 0.161148 0.161148 0.161148
2332.899902 0.000000 3271.157959 0.000000 0.096734 0.000000 0.995310 0.171929 0.171929 0.171929
2344.469727 0.000000 3238.874512 0.000000 0.001694 0.000000 0.999999 0.190011 0.190011 0.190011
2321.818115 0.000000 3238.770508 0.000000 0.963987 0.000000 0.265950 0.198286 0.198286 0.198286
2326.025146 0.000000 3261.903320 0.000000 0.982075 0.000000 0.188488 0.197122 0.197122 0.197122
2315.568604 0.000000 3275.562744 0.000000 0.860624 0.000000 0.509241 0.196599 0.196599 0.196599
2323.524902 0.000000 3256.543213 0.000000 0.062776 0.000000 0.998028 0.190400 0.190400 0.190400
2310.267334 0.000000 3244.049316 0.000000 0.216452 0.000000 0.976293 0.185492 0.185492 0.185492
2316.164062 0.000000 3255.118896 0.000000 0.724642 0.000000 0.689126 0.195160 0.195160 0.195160
2319.223389 0.000000 3247.955811 0.000000 0.973742 0.000000 -0.227656 0.201462 0.201462 0.201462
2328.135986 0.000000 3240.023682 0.000000 0.980198 0.000000 0.198020 0.198731 0.198731 0.198731
2343.639160 0.000000 3246.682617 0.000000 0.988231 0.000000 0.152969 0.199022 0.199022 0.199022
2319.939697 0.000000 3274.307373 0.000000 0.910843 0.000000 -0.412752 0.202709 0.202709 0.202709
2330.768555 0.000000 3234.541748 0.000000 0.819447 0.000000 -0.573156 0.203886 0.203886 0.203886
2331.859375 0.000000 3234.754639 0.000000 0.862263 0.000000 0.506460 0.196619 0.196619 0.196619
2375.671631 0.000000 3244.465820 0.000000 0.983203 0.000000 0.182516 0.136453 0.136453 0.136453
2386.127686 0.000000 3232.885498 0.000000 0.251822 0.000000 0.967774 0.149754 0.149754 0.149754
2377.400879 0.000000 3235.728516 0.000000 0.125311 0.000000 0.992117 0.146440 0.146440 0.146440
2399.825928 0.000000 3227.731689 0.000000 0.769161 0.000000 0.639055 0.127652 0.127652 0.127652
2387.007568 0.000000 3237.687744 0.000000 0.942604 0.000000 0.333914 0.154055 0.154055 0.154055
2378.351318 0.000000 3240.488281 0.000000 0.809788 0.000000 -0.586723 0.152565 0.152565 0.152565
2373.119141 0.000000 3236.043701 0.000000 0.675860 0.000000 0.737030 0.128725 0.128725 0.128725
2426.385010 0.000000 3222.201416 0.000000 0.968491 0.000000 -0.249047 0.175626 0.175626 0.175626
2400.617920 0.000000 3222.975098 0.000000 0.585587 0.000000 0.810610 0.172791 0.172791 0.172791
2408.974609 0.000000 3231.130859 0.000000 0.915394 0.000000 -0.402559 0.149850 0.149850 0.149850
2397.020508 0.000000 3232.439697 0.000000 0.582196 0.000000 0.813048 0.130934 0.130934 0.130934
2398.608887 0.000000 3225.148926 0.000000 0.181876 0.000000 0.983322 0.159571 0.159571 0.159571
2406.337891 0.000000 3233.345459 0.000000 0.552488 0.000000 0.833521 0.193726 0.193726 0.193726
2403.200439 0.000000 3232.406250 0.000000 0.879328 0.000000 -0.476216 0.166739 0.166739 0.166739
2397.958740 0.000000 3229.809814 0.000000 0.868553 0.000000 0.495597 0.159783 0.159783 0.159783
2376.614258 0.000000 3233.138184 0.000000 0.996972 0.000000 -0.077760 0.156690 0.156690 0.156690
2375.408936 0.000000 3237.446777 0.000000 0.869615 0.000000 -0.493730 0.169691 0.169691 0.169691
2369.654297 0.000000 3233.967529 0.000000 0.944156 0.000000 0.329499 0.197862 0.197862 0.197862
2409.262451 0.000000 3232.947021 0.000000 0.856379 0.000000 -0.516348 0.203454 0.203454 0.203454
2404.560791 0.000000 3233.665039 0.000000 0.879098 0.000000 0.476641 0.196837 0.196837 0.196837
2399.632568 0.000000 3230.278076 0.000000 0.475429 0.000000 0.879754 0.167725 0.167725 0.167725
2386.442383 0.000000 3234.625977 0.000000 0.817896 0.000000 0.575366 0.174675 0.174675 0.174675
2376.953125 0.000000 3245.540039 0.000000 0.405578 0.000000 0.914060 0.192659 0.192659 0.192659
2368.233887 0.000000 3233.052734 0.000000 0.921515 0.000000 -0.388344 0.202539 0.202539 0.202539
2376.954834 0.000000 3243.327393 0.000000 0.135222 0.000000 0.990815 0.167874 0.167874 0.167874
2426.082764 0.000000 3223.833740 0.000000 0.945172 0.000000 0.326572 0.172385 0.172385 0.172385
2401.699219 0.000000 3233.039551 0.000000 0.497105 0.000000 0.867690 0.193312 0.193312 0.193312
2400.131592 0.000000 3224.728760 0.000000 0.999826 0.000000 -0.018672 0.172091 0.172091 0.172091
2405.106689 0.000000 3232.207275 0.000000 0.927739 0.000000 0.373231 0.197565 0.197565 0.197565
2424.379395 0.000000 3233.990234 0.000000 0.521717 0.000000 0.853119 0.188616 0.188616 0.188616
2393.909180 0.000000 3236.695557 0.000000 0.638041 0.000000 0.770002 0.194405 0.194405 0.194405
2400.240479 0.000000 3233.579346 0.000000 0.845722 0.000000 -0.533624 0.203583 0.203583 0.203583
2392.874268 0.000000 3237.624512 0.000000 0.916520 0.000000 -0.399989 0.202620 0.202620 0.202620
2408.166748 0.000000 3232.215576 0.000000 0.926628 0.000000 0.375980 0.197546 0.197546 0.197546
2406.214844 0.000000 3232.239258 0.000000 0.615717 0.000000 0.787967 0.194223 0.194223 0.194223
2369.343994 0.000000 3232.922852 0.000000 0.436249 0.000000 0.899826 0.192874 0.192874 0.192874
2436.048096 0.000000 3227.959473 0.000000 0.971129 0.000000 -0.238556 0.163146 0.163146 0.163146
2344.832275 0.000000 3279.594971 0.000000 0.136096 0.000000 0.990696 0.172156 0.172156 0.172156
2312.407471 0.000000 3283.906006 0.000000 0.980553 0.000000 0.196254 0.198742 0.198742 0.198742
2341.432373 0.000000 3287.120850 0.000000 0.995893 0.000000 -0.090540 0.200577 0.200577 0.200577
2335.825928 0.000000 3284.216064 0.000000 0.397758 0.000000 0.917490 0.127324 0.127324 0.127324
2340.045898 0.000000 3281.368652 0.000000 0.952493 0.000000 -0.304559 0.175380 0.175380 0.175380
2326.937256 0.000000 3290.520996 0.000000 0.893742 0.000000 0.448580 0.179929 0.179929 0.179929
2329.237549 0.000000 3282.252686 0.000000 0.168925 0.000000 0.985629 0.191081 0.191081 0.191081
2315.786377 0.000000 3281.146729 0.000000 0.696231 0.000000 0.717818 0.142492 0.142492 0.142492
2304.513916 0.000000 3292.174561 0.000000 0.661309 0.000000 0.750114 0.129733 0.129733 0.129733
2309.464844 0.000000 3280.875732 0.000000 0.544243 0.000000 0.838928 0.152978 0.152978 0.152978
2346.673340 0.000000 3276.237549 0.000000 0.990008 0.000000 0.141008 0.138868 0.138868 0.138868
2333.020508 0.000000 3288.924072 0.000000 0.911878 0.000000 0.410461 0.197307 0.197307 0.197307
2312.667480 0.000000 3280.873047 0.000000 0.419703 0.000000 0.907661 0.131205 0.131205 0.131205
2339.200439 0.000000 3288.890625 0.000000 0.589118 0.000000 0.808047 0.139666 0.139666 0.139666
2333.958740 0.000000 3286.294189 0.000000 0.840236 0.000000 0.542221 0.136951 0.136951 0.136951
2305.451416 0.000000 3285.486084 0.000000 0.551202 0.000000 0.834372 0.172012 0.172012 0.172012
2326.077637 0.000000 3293.268311 0.000000 0.290061 0.000000 0.957008 0.145652 0.145652 0.145652
2310.363770 0.000000 3285.606445 0.000000 0.996254 0.000000 0.086470 0.199449 0.199449 0.199449
2341.463867 0.000000 3283.699219 0.000000 0.996014 0.000000 -0.089194 0.157309 0.157309 0.157309
2322.498535 0.000000 3279.911865 0.000000 0.945263 0.000000 -0.326308 0.186830 0.186830 0.186830
2332.928223 0.000000 3293.973877 0.000000 0.880979 0.000000 0.473156 0.196862 0.196862 0.196862
2328.535645 0.000000 3292.448730 0.000000 0.986723 0.000000 0.162410 0.198961 0.198961 0.198961
2351.339111 0.000000 3276.339844 0.000000 0.995888 0.000000 -0.090594 0.154507 0.154507 0.154507
2330.245850 0.000000 3294.605713 0.000000 0.978991 0.000000 -0.203905 0.155069 0.155069 0.155069
2310.070312 0.000000 3283.133789 0.000000 0.977758 0.000000 -0.209738 0.201345 0.201345 0.201345
2342.792969 0.000000 3278.905762 0.000000 0.983447 0.000000 0.181197 0.191042 0.191042 0.191042
2332.979980 0.000000 3291.372803 0.000000 0.955836 0.000000 -0.293899 0.180408 0.180408 0.180408
2308.035400 0.000000 3282.313477 0.000000 0.853081 0.000000 -0.521779 0.188674 0.188674 0.188674
2339.217285 0.000000 3286.932373 0.000000 0.415668 0.000000 0.909516 0.179772 0.179772 0.179772
2331.504150 0.000000 3290.072021 0.000000 0.812981 0.000000 -0.582290 0.203957 0.203957 0.203957
2348.016846 0.000000 3277.842285 0.000000 0.985588 0.000000 -0.169166 0.163907 0.163907 0.163907
2313.693359 0.000000 3285.156494 0.000000 0.456374 0.000000 0.889788 0.193017 0.193017 0.193017
2307.095459 0.000000 3291.543945 0.000000 0.778612 0.000000 0.627505 0.158957 0.158957 0.158957
2341.372314 0.000000 3280.158203 0.000000 0.996201 0.000000 -0.087080 0.174151 0.174151 0.174151
2311.620850 0.000000 3282.322998 0.000000 0.360123 0.000000 0.932905 0.192345 0.192345 0.192345
2328.512695 0.000000 3283.826660 0.000000 0.871908 0.000000 0.489670 0.196742 0.196742 0.196742
2323.350342 0.000000 3278.447510 0.000000 0.443673 0.000000 0.896189 0.178335 0.178335 0.178335
2326.338623 0.000000 3289.076172 0.000000 0.911469 0.000000 0.411369 0.197301 0.197301 0.197301
2328.030273 0.000000 3289.398926 0.000000 0.454312 0.000000 0.890843 0.190840 0.190840 0.190840
2312.131592 0.000000 3285.481445 0.000000 0.957293 0.000000 0.289119 0.198133 0.198133 0.198133
2329.909180 0.000000 3293.179932 0.000000 0.223867 0.000000 0.974620 0.191437 0.191437 0.191437
2311.015381 0.000000 3284.315918 0.000000 0.926309 0.000000 -0.376764 0.202459 0.202459 0.202459
2327.035400 0.000000 3286.530762 0.000000 0.973112 0.000000 -0.230333 0.201480 0.201480 0.201480
2331.237061 0.000000 3293.580566 0.000000 0.608812 0.000000 0.793314 0.194167 0.194167 0.194167
2312.904785 0.000000 3282.373535 0.000000 0.083594 0.000000 0.996500 0.190533 0.190533 0.190533
2340.191406 0.000000 3287.798584 0.000000 0.018016 0.000000 0.999838 0.190115 0.190115 0.190115
2330.768555 0.000000 3291.026123 0.000000 0.337805 0.000000 0.941216 0.192194 0.192194 0.192194
2331.859375 0.000000 3291.239014 0.000000 0.031006 0.000000 0.999519 0.190197 0.190197 0.190197
2368.098633 0.000000 3283.042725 0.000000 0.149212 0.000000 0.988805 0.121953 0.121953 0.121953
4065.210205 0.000000 3264.482666 0.000000 0.849230 0.000000 -0.528023 0.129993 0.129993 0.129993
4073.385498 0.000000 3252.527588 0.000000 0.793040 0.000000 0.609169 0.128908 0.128908 0.128908
4093.248291 0.000000 3265.611328 0.000000 0.998319 0.000000 0.057952 0.136442 0.136442 0.136442
4082.585205 0.000000 3247.503662 0.000000 0.968980 0.000000 0.247138 0.141722 0.141722 0.141722
4088.315674 0.000000 3256.618408 0.000000 0.786460 0.000000 0.617641 0.148603 0.148603 0.148603
4083.402588 0.000000 3273.576660 0.000000 0.969235 0.000000 -0.246137 0.133260 0.133260 0.133260
4079.917480 0.000000 3256.391357 0.000000 0.921895 0.000000 -0.387441 0.174167 0.174167 0.174167
4056.572266 0.000000 3259.073730 0.000000 0.848780 0.000000 -0.528746 0.143680 0.143680 0.143680
4072.198975 0.000000 3250.455322 0.000000 0.319679 0.000000 0.947526 0.163019 0.163019 0.163019
4072.688965 0.000000 3244.009766 0.000000 0.688318 0.000000 0.725409 0.146807 0.146807 0.146807
4082.861328 0.000000 3275.126953 0.000000 0.956070 0.000000 -0.293140 0.176445 0.176445 0.176445
4084.968506 0.000000 3251.356934 0.000000 0.996941 0.000000 0.078161 0.199502 0.199502 0.199502
4081.687988 0.000000 3285.046387 0.000000 0.940896 0.000000 -0.338696 0.156322 0.156322 0.156322
4085.177490 0.000000 3286.614258 0.000000 0.122150 0.000000 0.992512 0.148028 0.148028 0.148028
4034.500488 0.000000 3352.322266 0.000000 0.933704 0.000000 0.358046 0.152266 0.152266 0.152266
4068.575195 0.000000 3334.967041 0.000000 0.493470 0.000000 0.869763 0.193285 0.193285 0.193285
4034.070068 0.000000 3357.399902 0.000000 0.999186 0.000000 -0.040350 0.200257 0.200257 0.200257
4046.777344 0.000000 3352.830322 0.000000 0.003499 0.000000 0.999994 0.169264 0.169264 0.169264
4035.597168 0.000000 3357.684814 0.000000 0.864334 0.000000 0.502919 0.196645 0.196645 0.196645
4807.437500 0.000000 2427.387451 0.000000 0.914468 0.000000 0.404657 0.148702 0.148702 0.148702
4130.932617 0.000000 3217.201904 0.000000 0.869474 0.000000 -0.493980 0.170831 0.170831 0.170831
4129.062500 0.000000 3215.198975 0.000000 0.252331 0.000000 0.967641 0.162639 0.162639 0.162639
4131.689941 0.000000 3214.726562 0.000000 0.816562 0.000000 -0.577257 0.178214 0.178214 0.178214
4128.330078 0.000000 3217.422363 0.000000 0.841324 0.000000 0.540532 0.178213 0.178213 0.178213
4130.144043 0.000000 3214.114502 0.000000 0.989785 0.000000 -0.142569 0.175586 0.175586 0.175586
4119.890625 0.000000 3238.666992 0.000000 0.503298 0.000000 0.864113 0.124572 0.124572 0.124572
4146.789551 0.000000 3231.696777 0.000000 0.992757 0.000000 -0.120142 0.126534 0.126534 0.126534
4141.434082 0.000000 3249.338623 0.000000 0.998965 0.000000 -0.045477 0.200290 0.200290 0.200290
4119.371094 0.000000 3262.623291 0.000000 0.617172 0.000000 0.786828 0.146356 0.146356 0.146356
4123.595215 0.000000 3270.133057 0.000000 0.906648 0.000000 -0.421887 0.157901 0.157901 0.157901
4119.191895 0.000000 3265.500000 0.000000 0.276314 0.000000 0.961067 0.149343 0.149343 0.149343
4116.994629 0.000000 3222.162109 0.000000 0.004792 0.000000 0.999988 0.159157 0.159157 0.159157
4157.738281 0.000000 3247.858643 0.000000 0.772244 0.000000 0.635326 0.143014 0.143014 0.143014
4098.944824 0.000000 3237.005371 0.000000 0.793637 0.000000 0.608392 0.158534 0.158534 0.158534
4128.330078 0.000000 3273.906738 0.000000 0.392469 0.000000 0.919765 0.143482 0.143482 0.143482
4138.219238 0.000000 3265.823975 0.000000 0.889142 0.000000 -0.457631 0.203026 0.203026 0.203026
4143.436035 0.000000 3254.330811 0.000000 0.971474 0.000000 -0.237144 0.194750 0.194750 0.194750
4103.784180 0.000000 3272.925781 0.000000 0.975485 0.000000 0.220064 0.166880 0.166880 0.166880
4157.810547 0.000000 3253.262939 0.000000 0.950619 0.000000 -0.310362 0.202009 0.202009 0.202009
4158.095703 0.000000 3251.155518 0.000000 0.977713 0.000000 -0.209947 0.190067 0.190067 0.190067
4159.974609 0.000000 3251.140869 0.000000 0.872427 0.000000 0.488745 0.185727 0.185727 0.185727
4120.351074 0.000000 3271.739746 0.000000 0.611984 0.000000 0.790870 0.194193 0.194193 0.194193
4127.826172 0.000000 3271.185303 0.000000 0.952837 0.000000 -0.303482 0.201963 0.201963 0.201963
4138.279785 0.000000 3264.466064 0.000000 0.359228 0.000000 0.933250 0.192339 0.192339 0.192339
4097.121582 0.000000 3236.717773 0.000000 0.734806 0.000000 0.678277 0.195255 0.195255 0.195255
4136.188477 0.000000 3256.952393 0.000000 0.802277 0.000000 0.596952 0.195928 0.195928 0.195928
4140.578125 0.000000 3249.996826 0.000000 0.082065 0.000000 0.996627 0.190523 0.190523 0.190523
4161.017578 0.000000 3246.302490 0.000000 0.126790 0.000000 0.991930 0.179585 0.179585 0.179585
4164.763672 0.000000 3255.801514 0.000000 0.666248 0.000000 0.745730 0.148844 0.148844 0.148844
4162.822754 0.000000 3253.577393 0.000000 0.882339 0.000000 -0.470615 0.203119 0.203119 0.203119
4172.375000 0.000000 3274.277100 0.000000 0.948542 0.000000 0.316652 0.150818 0.150818 0.150818
4162.311035 0.000000 3256.220459 0.000000 0.260434 0.000000 0.965492 0.156778 0.156778 0.156778
4165.832520 0.000000 3251.475098 0.000000 0.120045 0.000000 0.992768 0.152827 0.152827 0.152827
4163.597168 0.000000 3244.716064 0.000000 0.998114 0.000000 0.061385 0.199609 0.199609 0.199609
4321.947754 0.000000 3269.083008 0.000000 0.997603 0.000000 0.069202 0.129126 0.129126 0.129126
4317.392090 0.000000 3264.282715 0.000000 0.491339 0.000000 0.870968 0.193270 0.193270 0.193270
4313.916992 0.000000 3264.375488 0.000000 0.969924 0.000000 0.243407 0.165084 0.165084 0.165084
4315.698730 0.000000 3266.108643 0.000000 0.927243 0.000000 -0.374461 0.151974 0.151974 0.151974
4334.671387 0.000000 3266.063965 0.000000 0.922405 0.000000 -0.386225 0.174160 0.174160 0.174160
4334.880859 0.000000 3270.145020 0.000000 0.130384 0.000000 0.991464 0.190832 0.190832 0.190832
4320.607910 0.000000 3258.699951 0.000000 0.275896 0.000000 0.961187 0.173515 0.173515 0.173515
4318.716309 0.000000 3265.847412 0.000000 0.849684 0.000000 -0.527292 0.172749 0.172749 0.172749
4315.739258 0.000000 3263.232666 0.000000 0.980648 0.000000 -0.195781 0.167994 0.167994 0.167994
4323.619629 0.000000 3261.516357 0.000000 0.942482 0.000000 0.334257 0.197830 0.197830 0.197830
4312.891602 0.000000 3265.964600 0.000000 0.967170 0.000000 0.254131 0.165026 0.165026 0.165026
4329.936523 0.000000 3272.705811 0.000000 0.790978 0.000000 0.611845 0.174418 0.174418 0.174418
4317.264648 0.000000 3266.390625 0.000000 0.892958 0.000000 0.450141 0.177159 0.177159 0.177159
4320.284180 0.000000 3261.798096 0.000000 0.974884 0.000000 -0.222715 0.201430 0.201430 0.201430
4323.804199 0.000000 3262.910889 0.000000 0.293974 0.000000 0.955814 0.184912 0.184912 0.184912
4332.614746 0.000000 3268.865967 0.000000 0.857288 0.000000 -0.514837 0.203443 0.203443 0.203443
4323.658203 0.000000 3260.164795 0.000000 0.971108 0.000000 -0.238639 0.201534 0.201534 0.201534
4316.472656 0.000000 3265.125488 0.000000 0.581918 0.000000 0.813248 0.193954 0.193954 0.193954
4127.453613 0.000000 3292.823975 0.000000 0.912235 0.000000 0.409667 0.197313 0.197313 0.197313
4119.890625 0.000000 3295.151367 0.000000 0.988670 0.000000 0.150106 0.131021 0.131021 0.131021
4157.292480 0.000000 3288.652832 0.000000 0.865294 0.000000 -0.501265 0.129866 0.129866 0.129866
4103.914551 0.000000 3277.930664 0.000000 0.968960 0.000000 0.247217 0.162840 0.162840 0.162840
4118.937012 0.000000 3290.520996 0.000000 0.987898 0.000000 0.155104 0.127098 0.127098 0.127098
4125.530273 0.000000 3303.386230 0.000000 0.244904 0.000000 0.969547 0.166354 0.166354 0.166354
4121.661133 0.000000 3279.159912 0.000000 0.984628 0.000000 0.174665 0.185512 0.185512 0.185512
4150.385254 0.000000 3280.002686 0.000000 0.986818 0.000000 -0.161836 0.150354 0.150354 0.150354
4116.821777 0.000000 3307.204834 0.000000 0.886103 0.000000 -0.463488 0.203068 0.203068 0.203068
4121.598145 0.000000 3299.725342 0.000000 0.783434 0.000000 0.621475 0.195731 0.195731 0.195731
4143.882812 0.000000 3281.117432 0.000000 0.884141 0.000000 -0.467219 0.176926 0.176926 0.176926
4119.366211 0.000000 3278.746338 0.000000 0.658450 0.000000 0.752625 0.152608 0.152608 0.152608
4102.054199 0.000000 3277.692383 0.000000 0.407383 0.000000 0.913258 0.158131 0.158131 0.158131
4099.050781 0.000000 3279.488037 0.000000 0.993497 0.000000 -0.113856 0.191730 0.191730 0.191730
4120.470703 0.000000 3298.841797 0.000000 0.846445 0.000000 -0.532476 0.203575 0.203575 0.203575
4121.036621 0.000000 3301.028564 0.000000 0.111496 0.000000 0.993765 0.190711 0.190711 0.190711
4162.396484 0.000000 3277.955811 0.000000 0.998987 0.000000 0.045007 0.126429 0.126429 0.126429
4169.400879 0.000000 3292.212891 0.000000 0.983491 0.000000 0.180958 0.126991 0.126991 0.126991
4174.875488 0.000000 3320.855713 0.000000 0.700419 0.000000 0.713732 0.158901 0.158901 0.158901
4213.428223 0.000000 3293.935059 0.000000 0.530728 0.000000 0.847542 0.154524 0.154524 0.154524
4165.729492 0.000000 3318.122559 0.000000 0.224623 0.000000 0.974446 0.169992 0.169992 0.169992
4161.726074 0.000000 3318.998291 0.000000 0.825678 0.000000 -0.564142 0.181550 0.181550 0.181550
4165.041016 0.000000 3319.870361 0.000000 0.904428 0.000000 0.426625 0.175099 0.175099 0.175099
4203.132812 0.000000 3291.460693 0.000000 0.981394 0.000000 0.192003 0.198770 0.198770 0.198770
4202.440430 0.000000 3348.787109 0.000000 0.507237 0.000000 0.861807 0.167927 0.167927 0.167927
4203.175293 0.000000 3350.875488 0.000000 0.847275 0.000000 -0.531154 0.203565 0.203565 0.203565
4255.786621 0.000000 3309.815186 0.000000 0.489735 0.000000 0.871871 0.193258 0.193258 0.193258
4254.521973 0.000000 3309.539551 0.000000 0.784590 0.000000 0.620014 0.195743 0.195743 0.195743
4336.541992 0.000000 3298.678955 0.000000 0.998366 0.000000 -0.057143 0.143117 0.143117 0.143117
4333.375000 0.000000 3301.015381 0.000000 0.997762 0.000000 0.066859 0.154852 0.154852 0.154852
4300.721191 0.000000 3314.418701 0.000000 0.282944 0.000000 0.959136 0.162811 0.162811 0.162811
4310.077637 0.000000 3293.268311 0.000000 0.901118 0.000000 -0.433575 0.201150 0.201150 0.201150
4302.401855 0.000000 3317.789551 0.000000 0.282377 0.000000 0.959304 0.176240 0.176240 0.176240
4331.311523 0.000000 3301.241455 0.000000 0.779323 0.000000 0.626623 0.195689 0.195689 0.195689
4338.709961 0.000000 3290.183594 0.000000 0.907720 0.000000 0.419576 0.197244 0.197244 0.197244
4350.854492 0.000000 3302.677246 0.000000 0.749448 0.000000 0.662063 0.170764 0.170764 0.170764
4345.814453 0.000000 3294.936279 0.000000 0.536251 0.000000 0.844058 0.187096 0.187096 0.187096
4309.729980 0.000000 3291.683838 0.000000 0.954041 0.000000 0.299677 0.171432 0.171432 0.171432
4311.560547 0.000000 3293.619629 0.000000 0.895431 0.000000 0.445199 0.195407 0.195407 0.195407
4311.062012 0.000000 3292.215332 0.000000 0.961234 0.000000 0.275735 0.196556 0.196556 0.196556
4316.436523 0.000000 3292.696533 0.000000 0.980664 0.000000 0.195698 0.198746 0.198746 0.198746
4317.510254 0.000000 3290.156738 0.000000 0.923077 0.000000 0.384616 0.197487 0.197487 0.197487
4254.953613 0.000000 3388.830566 0.000000 0.814445 0.000000 0.580241 0.177387 0.177387 0.177387
4251.595215 0.000000 3383.101807 0.000000 0.873887 0.000000 -0.486129 0.199247 0.199247 0.199247
4245.934570 0.000000 3387.390137 0.000000 0.882242 0.000000 -0.470796 0.183776 0.183776 0.183776
4247.348633 0.000000 3385.576660 0.000000 0.958088 0.000000 -0.286473 0.157748 0.157748 0.157748
4244.141113 0.000000 3386.510010 0.000000 0.863651 0.000000 0.504090 0.177909 0.177909 0.177909
4250.529785 0.000000 3387.984863 0.000000 0.932350 0.000000 0.361558 0.164427 0.164427 0.164427
4253.418457 0.000000 3382.575684 0.000000 0.171741 0.000000 0.985142 0.158446 0.158446 0.158446
4390.230957 0.000000 3258.138428 0.000000 0.602562 0.000000 0.798072 0.128868 0.128868 0.128868
4368.382324 0.000000 3275.425781 0.000000 0.982280 0.000000 -0.187420 0.145969 0.145969 0.145969
4379.673340 0.000000 3272.382812 0.000000 0.246111 0.000000 0.969242 0.184070 0.184070 0.184070
4392.284180 0.000000 3258.075928 0.000000 0.999817 0.000000 0.019151 0.183082 0.183082 0.183082
4379.159668 0.000000 3273.737793 0.000000 0.974096 0.000000 -0.226134 0.193552 0.193552 0.193552
4378.378418 0.000000 3270.283203 0.000000 0.209180 0.000000 0.977877 0.191342 0.191342 0.191342
4371.362793 0.000000 3304.081543 0.000000 0.077977 0.000000 0.996955 0.146208 0.146208 0.146208
4370.834473 0.000000 3302.683105 0.000000 0.714666 0.000000 0.699466 0.193429 0.193429 0.193429
4353.144043 0.000000 3301.548096 0.000000 0.387271 0.000000 0.921966 0.192532 0.192532 0.192532
4353.148926 0.000000 3300.242920 0.000000 0.386650 0.000000 0.922227 0.192527 0.192527 0.192527
4252.793945 0.000000 3391.904297 0.000000 0.999569 0.000000 0.029361 0.140485 0.140485 0.140485
4247.491699 0.000000 3389.694092 0.000000 0.858006 0.000000 -0.513640 0.143031 0.143031 0.143031
4246.937012 0.000000 3403.489746 0.000000 0.848988 0.000000 -0.528412 0.158502 0.158502 0.158502
4256.618164 0.000000 3392.428223 0.000000 0.867204 0.000000 -0.497954 0.162313 0.162313 0.162313
4242.190430 0.000000 3398.584717 0.000000 0.704887 0.000000 0.709320 0.164395 0.164395 0.164395
4252.431641 0.000000 3396.570312 0.000000 0.979358 0.000000 -0.202135 0.201296 0.201296 0.201296
4241.664551 0.000000 3395.718506 0.000000 0.917829 0.000000 -0.396976 0.196924 0.196924 0.196924
4249.706543 0.000000 3402.701904 0.000000 0.999644 0.000000 -0.026665 0.169892 0.169892 0.169892
4253.958984 0.000000 3399.262939 0.000000 0.459956 0.000000 0.887942 0.176280 0.176280 0.176280
4248.077637 0.000000 3398.458984 0.000000 0.810474 0.000000 0.585775 0.142757 0.142757 0.142757
4247.366211 0.000000 3391.715088 0.000000 0.390273 0.000000 0.920699 0.181226 0.181226 0.181226
4241.145996 0.000000 3391.616699 0.000000 0.922721 0.000000 0.385468 0.197481 0.197481 0.197481
4240.790527 0.000000 3397.217773 0.000000 0.916101 0.000000 0.400947 0.197374 0.197374 0.197374
4246.020996 0.000000 3390.382568 0.000000 0.670460 0.000000 0.741945 0.183226 0.183226 0.183226
4246.014160 0.000000 3394.596680 0.000000 0.456338 0.000000 0.889807 0.178960 0.178960 0.178960
4257.739258 0.000000 3391.586426 0.000000 0.991395 0.000000 0.130905 0.199164 0.199164 0.199164
4252.834961 0.000000 3397.738281 0.000000 0.949522 0.000000 0.313701 0.197969 0.197969 0.197969
"}
object={
	name="bush_01_generator_1_1"
	clamp_to_water_level=no
	render_under_water=no
	generated_content=yes
	layer="semidynamic_medium"
	pdxmesh="tree_bush_02_mesh"
	count=258
	transform="1020.832764 0.000000 2969.509277 0.000000 0.145779 0.000000 -0.989317 0.199699 0.199699 0.199699
1267.213989 0.000000 2757.507324 0.000000 0.503100 0.000000 -0.864228 0.206644 0.206644 0.206644
1148.832764 0.000000 2856.540527 0.000000 0.172909 0.000000 -0.984938 0.206553 0.206553 0.206553
1102.604980 0.000000 2871.795654 0.000000 0.094797 0.000000 -0.995497 0.168924 0.168924 0.168924
1149.382446 0.000000 2854.520996 0.000000 0.590108 0.000000 -0.807325 0.168478 0.168478 0.168478
1149.810303 0.000000 2857.872314 0.000000 0.642505 0.000000 -0.766281 0.203255 0.203255 0.203255
1055.758545 0.000000 2910.862793 0.000000 0.716171 0.000000 -0.697925 0.163590 0.163590 0.163590
1091.049561 0.000000 2892.973877 0.000000 0.571031 0.000000 -0.820929 0.206131 0.206131 0.206131
1158.424683 0.000000 2844.578857 0.000000 0.034943 0.000000 -0.999389 0.148666 0.148666 0.148666
1190.686279 0.000000 2824.524414 0.000000 0.225543 0.000000 -0.974233 0.160649 0.160649 0.160649
1158.382080 0.000000 2861.218750 0.000000 0.557196 0.000000 -0.830381 0.191795 0.191795 0.191795
1260.128052 0.000000 2851.660156 0.000000 0.504431 0.000000 -0.863452 0.143544 0.143544 0.143544
1246.946045 0.000000 2852.682617 0.000000 0.215825 0.000000 -0.976432 0.178229 0.178229 0.178229
1253.645630 0.000000 2916.482910 0.000000 0.625725 0.000000 -0.780044 0.205696 0.205696 0.205696
1213.512329 0.000000 2993.697998 0.000000 0.102548 0.000000 -0.994728 0.145428 0.145428 0.145428
1214.270142 0.000000 2998.103271 0.000000 0.169058 0.000000 -0.985606 0.138109 0.138109 0.138109
1227.929565 0.000000 3005.677734 0.000000 0.744504 0.000000 -0.667618 0.144461 0.144461 0.144461
1066.678101 0.000000 3088.331299 0.000000 0.438060 0.000000 -0.898946 0.170564 0.170564 0.170564
1143.822754 0.000000 3081.449463 0.000000 0.559974 0.000000 -0.828510 0.191775 0.191775 0.191775
1730.552734 0.000000 2880.294922 0.000000 0.433572 0.000000 -0.901119 0.202503 0.202503 0.202503
1708.194824 0.000000 2892.780518 0.000000 0.698229 0.000000 -0.715875 0.199909 0.199909 0.199909
1712.746582 0.000000 2883.940674 0.000000 0.705966 0.000000 -0.708246 0.194099 0.194099 0.194099
1711.883057 0.000000 2885.726807 0.000000 0.647121 0.000000 -0.762387 0.205519 0.205519 0.205519
1712.748413 0.000000 2882.115479 0.000000 0.020631 0.000000 -0.999787 0.198699 0.198699 0.198699
1709.674561 0.000000 2893.706543 0.000000 0.116884 0.000000 -0.993146 0.203979 0.203979 0.203979
1749.668701 0.000000 2890.491943 0.000000 0.715278 0.000000 -0.698840 0.188279 0.188279 0.188279
1739.786255 0.000000 2885.756104 0.000000 0.330784 0.000000 -0.943707 0.140316 0.140316 0.140316
1740.654785 0.000000 2884.407471 0.000000 0.010872 0.000000 -0.999941 0.209931 0.209931 0.209931
1863.408936 0.000000 2842.056152 0.000000 0.744684 0.000000 -0.667418 0.148473 0.148473 0.148473
2286.782471 0.000000 3205.189209 0.000000 0.400179 0.000000 -0.916437 0.166716 0.166716 0.166716
2297.993408 0.000000 3199.720947 0.000000 0.697301 0.000000 -0.716779 0.182683 0.182683 0.182683
2232.551025 0.000000 3252.468506 0.000000 0.523468 0.000000 -0.852045 0.131878 0.131878 0.131878
2211.764893 0.000000 3245.456543 0.000000 0.536989 0.000000 -0.843589 0.157250 0.157250 0.157250
2214.535645 0.000000 3249.117432 0.000000 0.345861 0.000000 -0.938286 0.150722 0.150722 0.150722
2229.013428 0.000000 3254.255615 0.000000 0.527324 0.000000 -0.849664 0.200102 0.200102 0.200102
2204.947998 0.000000 3249.681152 0.000000 0.052798 0.000000 -0.998605 0.196743 0.196743 0.196743
2214.646240 0.000000 3251.766602 0.000000 0.621332 0.000000 -0.783548 0.174036 0.174036 0.174036
2220.051758 0.000000 3251.703613 0.000000 0.425420 0.000000 -0.904996 0.150904 0.150904 0.150904
2229.005371 0.000000 3271.804688 0.000000 0.570664 0.000000 -0.821184 0.167448 0.167448 0.167448
2231.405518 0.000000 3254.462402 0.000000 0.603878 0.000000 -0.797077 0.198376 0.198376 0.198376
2203.444092 0.000000 3251.874268 0.000000 0.169019 0.000000 -0.985613 0.208919 0.208919 0.208919
2228.072754 0.000000 3268.112549 0.000000 0.717306 0.000000 -0.696759 0.173339 0.173339 0.173339
2205.614258 0.000000 3251.337402 0.000000 0.573924 0.000000 -0.818909 0.205531 0.205531 0.205531
2218.442139 0.000000 3247.660156 0.000000 0.683061 0.000000 -0.730362 0.175322 0.175322 0.175322
2216.687744 0.000000 3242.110107 0.000000 0.373909 0.000000 -0.927465 0.198258 0.198258 0.198258
2230.904297 0.000000 3255.917725 0.000000 0.349027 0.000000 -0.937113 0.200166 0.200166 0.200166
2203.529297 0.000000 3250.295410 0.000000 0.388404 0.000000 -0.921489 0.207461 0.207461 0.207461
2239.974609 0.000000 3251.140869 0.000000 0.153241 0.000000 -0.988189 0.209021 0.209021 0.209021
2303.957764 0.000000 3240.508301 0.000000 0.573515 0.000000 -0.819195 0.131634 0.131634 0.131634
2281.385498 0.000000 3252.527588 0.000000 0.294835 0.000000 -0.955548 0.143976 0.143976 0.143976
2292.365479 0.000000 3258.875732 0.000000 0.133031 0.000000 -0.991112 0.173413 0.173413 0.173413
2252.552734 0.000000 3245.803467 0.000000 0.496196 0.000000 -0.868211 0.159219 0.159219 0.159219
2256.971924 0.000000 3268.786377 0.000000 0.108576 0.000000 -0.994088 0.145988 0.145988 0.145988
2250.351318 0.000000 3240.488281 0.000000 0.264846 0.000000 -0.964291 0.159867 0.159867 0.159867
2294.173828 0.000000 3225.793701 0.000000 0.154203 0.000000 -0.988039 0.141685 0.141685 0.141685
2240.513916 0.000000 3235.690186 0.000000 0.421205 0.000000 -0.906965 0.207232 0.207232 0.207232
2291.634277 0.000000 3262.337158 0.000000 0.303864 0.000000 -0.952715 0.145100 0.145100 0.145100
2287.917480 0.000000 3256.391357 0.000000 0.275329 0.000000 -0.961350 0.145232 0.145232 0.145232
2268.380127 0.000000 3274.459717 0.000000 0.532813 0.000000 -0.846233 0.161322 0.161322 0.161322
2242.822754 0.000000 3253.577393 0.000000 0.705128 0.000000 -0.709080 0.179175 0.179175 0.179175
2242.627686 0.000000 3248.316650 0.000000 0.735835 0.000000 -0.677161 0.204736 0.204736 0.204736
2289.262695 0.000000 3274.170410 0.000000 0.134540 0.000000 -0.990908 0.159345 0.159345 0.159345
2283.060303 0.000000 3253.742920 0.000000 0.129656 0.000000 -0.991559 0.168744 0.168744 0.168744
2293.101318 0.000000 3264.934814 0.000000 0.470810 0.000000 -0.882235 0.206879 0.206879 0.206879
2290.317871 0.000000 3224.062500 0.000000 0.634415 0.000000 -0.772992 0.169914 0.169914 0.169914
2295.431885 0.000000 3268.693115 0.000000 0.019818 0.000000 -0.999804 0.209874 0.209874 0.209874
2289.324707 0.000000 3255.206543 0.000000 0.589455 0.000000 -0.807801 0.169059 0.169059 0.169059
2243.095459 0.000000 3235.059570 0.000000 0.740735 0.000000 -0.671798 0.162834 0.162834 0.162834
2248.404785 0.000000 3240.037354 0.000000 0.330456 0.000000 -0.943821 0.189807 0.189807 0.189807
2270.924561 0.000000 3258.914307 0.000000 0.808766 0.000000 -0.588130 0.172574 0.172574 0.172574
2303.210693 0.000000 3254.211182 0.000000 0.387851 0.000000 -0.921722 0.196423 0.196423 0.196423
2268.899902 0.000000 3271.157959 0.000000 0.586017 0.000000 -0.810299 0.188125 0.188125 0.188125
2294.485352 0.000000 3245.023682 0.000000 0.343757 0.000000 -0.939059 0.178667 0.178667 0.178667
2269.264404 0.000000 3266.390625 0.000000 0.689638 0.000000 -0.724154 0.179295 0.179295 0.179295
2295.130127 0.000000 3246.202637 0.000000 0.368772 0.000000 -0.929520 0.198292 0.198292 0.198292
2301.505859 0.000000 3227.685791 0.000000 0.221906 0.000000 -0.975068 0.208575 0.208575 0.208575
2230.180420 0.000000 3299.943848 0.000000 0.741767 0.000000 -0.670657 0.176013 0.176013 0.176013
2237.255859 0.000000 3297.183594 0.000000 0.800072 0.000000 -0.599904 0.204096 0.204096 0.204096
2249.400879 0.000000 3292.212891 0.000000 0.392181 0.000000 -0.919888 0.130736 0.130736 0.130736
2302.270020 0.000000 3280.525146 0.000000 0.506577 0.000000 -0.862195 0.164369 0.164369 0.164369
2288.918701 0.000000 3291.079834 0.000000 0.438184 0.000000 -0.898885 0.207112 0.207112 0.207112
2240.936035 0.000000 3298.703369 0.000000 0.728052 0.000000 -0.685522 0.200793 0.200793 0.200793
2248.173828 0.000000 3298.360107 0.000000 0.025353 0.000000 -0.999679 0.173984 0.173984 0.173984
2287.339111 0.000000 3276.339844 0.000000 0.354485 0.000000 -0.935062 0.193149 0.193149 0.193149
2267.677979 0.000000 3281.107910 0.000000 0.303732 0.000000 -0.952758 0.208035 0.208035 0.208035
2240.712402 0.000000 3294.314697 0.000000 0.723060 0.000000 -0.690785 0.201986 0.201986 0.201986
2297.677979 0.000000 3291.215332 0.000000 0.071237 0.000000 -0.997459 0.181959 0.181959 0.181959
2250.704590 0.000000 3298.836182 0.000000 0.134675 0.000000 -0.990890 0.175162 0.175162 0.175162
2303.416748 0.000000 3283.318848 0.000000 0.262836 0.000000 -0.964841 0.187885 0.187885 0.187885
2273.853027 0.000000 3287.858398 0.000000 0.742807 0.000000 -0.669506 0.201803 0.201803 0.201803
2265.045166 0.000000 3287.985596 0.000000 0.135074 0.000000 -0.990835 0.182190 0.182190 0.182190
2287.286621 0.000000 3277.867188 0.000000 0.490951 0.000000 -0.871187 0.192256 0.192256 0.192256
2297.981445 0.000000 3281.721191 0.000000 0.510831 0.000000 -0.859681 0.206587 0.206587 0.206587
2267.442383 0.000000 3284.516602 0.000000 0.270494 0.000000 -0.962722 0.208256 0.208256 0.208256
2266.770996 0.000000 3285.694336 0.000000 0.651347 0.000000 -0.758780 0.205484 0.205484 0.205484
2313.203857 0.000000 3198.825684 0.000000 0.565532 0.000000 -0.824726 0.161705 0.161705 0.161705
2321.256836 0.000000 3197.839844 0.000000 0.728846 0.000000 -0.684678 0.204801 0.204801 0.204801
2313.063721 0.000000 3193.586914 0.000000 0.689790 0.000000 -0.724010 0.205154 0.205154 0.205154
2327.293701 0.000000 3186.689697 0.000000 0.536993 0.000000 -0.843587 0.153782 0.153782 0.153782
2308.957520 0.000000 3202.972168 0.000000 0.236975 0.000000 -0.971516 0.152416 0.152416 0.152416
2365.032959 0.000000 3185.312988 0.000000 0.182819 0.000000 -0.983147 0.153844 0.153844 0.153844
2331.635498 0.000000 3186.175293 0.000000 0.027251 0.000000 -0.999629 0.153403 0.153403 0.153403
2314.329590 0.000000 3187.829590 0.000000 0.258166 0.000000 -0.966101 0.172156 0.172156 0.172156
2360.346436 0.000000 3185.325928 0.000000 0.655832 0.000000 -0.754907 0.183003 0.183003 0.183003
2352.587891 0.000000 3183.378174 0.000000 0.637682 0.000000 -0.770300 0.183138 0.183138 0.183138
2353.129150 0.000000 3213.531006 0.000000 0.297078 0.000000 -0.954853 0.167280 0.167280 0.167280
2327.885254 0.000000 3188.905029 0.000000 0.802356 0.000000 -0.596845 0.148052 0.148052 0.148052
2310.952881 0.000000 3198.735352 0.000000 0.599646 0.000000 -0.800265 0.183412 0.183412 0.183412
2351.436035 0.000000 3197.846436 0.000000 0.476819 0.000000 -0.879001 0.184240 0.184240 0.184240
2366.038330 0.000000 3187.108154 0.000000 0.305384 0.000000 -0.952229 0.177724 0.177724 0.177724
2361.773926 0.000000 3184.913818 0.000000 0.488753 0.000000 -0.872422 0.184163 0.184163 0.184163
2316.996094 0.000000 3192.956787 0.000000 0.157827 0.000000 -0.987467 0.208991 0.208991 0.208991
2378.072266 0.000000 3219.297119 0.000000 0.608774 0.000000 -0.793343 0.174699 0.174699 0.174699
2383.325439 0.000000 3198.133545 0.000000 0.608937 0.000000 -0.793218 0.178734 0.178734 0.178734
2385.357910 0.000000 3196.540771 0.000000 0.584087 0.000000 -0.811691 0.206029 0.206029 0.206029
2308.458496 0.000000 3274.075439 0.000000 0.728794 0.000000 -0.684733 0.158334 0.158334 0.158334
2345.563477 0.000000 3246.100342 0.000000 0.519831 0.000000 -0.854269 0.139415 0.139415 0.139415
2353.519043 0.000000 3225.938965 0.000000 0.710068 0.000000 -0.704133 0.127462 0.127462 0.127462
2327.890625 0.000000 3238.666992 0.000000 0.455445 0.000000 -0.890264 0.139732 0.139732 0.139732
2342.893555 0.000000 3239.056641 0.000000 0.130973 0.000000 -0.991386 0.131240 0.131240 0.131240
2339.991211 0.000000 3235.335938 0.000000 0.222527 0.000000 -0.974926 0.133205 0.133205 0.133205
2331.131592 0.000000 3235.730469 0.000000 0.140859 0.000000 -0.990030 0.209100 0.209100 0.209100
2342.535645 0.000000 3249.117432 0.000000 0.657686 0.000000 -0.753292 0.193922 0.193922 0.193922
2351.917480 0.000000 3256.391357 0.000000 0.649036 0.000000 -0.760757 0.153696 0.153696 0.153696
2329.680908 0.000000 3253.386963 0.000000 0.320529 0.000000 -0.947239 0.156670 0.156670 0.156670
2345.967773 0.000000 3249.427246 0.000000 0.101813 0.000000 -0.994804 0.141326 0.141326 0.141326
2365.032959 0.000000 3241.797363 0.000000 0.246690 0.000000 -0.969094 0.175137 0.175137 0.175137
2304.042236 0.000000 3219.616699 0.000000 0.756378 0.000000 -0.654135 0.204539 0.204539 0.204539
2328.795410 0.000000 3247.521484 0.000000 0.601377 0.000000 -0.798966 0.187437 0.187437 0.187437
2342.469482 0.000000 3246.203369 0.000000 0.249492 0.000000 -0.968377 0.208395 0.208395 0.208395
2348.128174 0.000000 3247.050781 0.000000 0.183069 0.000000 -0.983100 0.146238 0.146238 0.146238
2364.013184 0.000000 3234.474121 0.000000 0.657328 0.000000 -0.753605 0.165153 0.165153 0.165153
2316.375244 0.000000 3274.277100 0.000000 0.503852 0.000000 -0.863790 0.169594 0.169594 0.169594
2356.657715 0.000000 3219.645508 0.000000 0.618808 0.000000 -0.785543 0.191920 0.191920 0.191920
2326.911865 0.000000 3260.598877 0.000000 0.646938 0.000000 -0.762542 0.203794 0.203794 0.203794
2332.161133 0.000000 3268.221436 0.000000 0.555305 0.000000 -0.831647 0.183143 0.183143 0.183143
2320.905273 0.000000 3273.508789 0.000000 0.383437 0.000000 -0.923567 0.166810 0.166810 0.166810
2333.418457 0.000000 3269.606934 0.000000 0.061666 0.000000 -0.998097 0.186122 0.186122 0.186122
2329.034668 0.000000 3251.555908 0.000000 0.517950 0.000000 -0.855411 0.206534 0.206534 0.206534
2356.080566 0.000000 3232.802979 0.000000 0.314046 0.000000 -0.949408 0.180587 0.180587 0.180587
2324.574951 0.000000 3238.113525 0.000000 0.748757 0.000000 -0.662845 0.181114 0.181114 0.181114
2310.595947 0.000000 3245.608398 0.000000 0.295099 0.000000 -0.955467 0.201681 0.201681 0.201681
2329.742432 0.000000 3248.660645 0.000000 0.779795 0.000000 -0.626035 0.183704 0.183704 0.183704
2319.104980 0.000000 3222.511963 0.000000 0.139608 0.000000 -0.990207 0.209108 0.209108 0.209108
2342.782471 0.000000 3247.619141 0.000000 0.317092 0.000000 -0.948395 0.207946 0.207946 0.207946
2323.301758 0.000000 3239.178223 0.000000 0.196988 0.000000 -0.980406 0.208738 0.208738 0.208738
2311.386719 0.000000 3264.824951 0.000000 0.189501 0.000000 -0.981881 0.198259 0.198259 0.198259
2310.966064 0.000000 3267.479248 0.000000 0.392988 0.000000 -0.919544 0.207429 0.207429 0.207429
2356.617188 0.000000 3272.966309 0.000000 0.247778 0.000000 -0.968817 0.208406 0.208406 0.208406
2321.432129 0.000000 3274.740234 0.000000 0.394755 0.000000 -0.918786 0.207417 0.207417 0.207417
2405.432373 0.000000 3230.636475 0.000000 0.218872 0.000000 -0.975754 0.130299 0.130299 0.130299
2394.122314 0.000000 3230.417725 0.000000 0.116121 0.000000 -0.993235 0.145368 0.145368 0.145368
2400.426758 0.000000 3232.047119 0.000000 0.516891 0.000000 -0.856051 0.206542 0.206542 0.206542
2384.939697 0.000000 3235.538086 0.000000 0.306860 0.000000 -0.951755 0.151495 0.151495 0.151495
2401.491699 0.000000 3225.504639 0.000000 0.608304 0.000000 -0.793704 0.177008 0.177008 0.177008
2411.095459 0.000000 3233.927979 0.000000 0.665033 0.000000 -0.746814 0.204793 0.204793 0.204793
2374.474854 0.000000 3234.199951 0.000000 0.017332 0.000000 -0.999850 0.163443 0.163443 0.163443
2398.725830 0.000000 3223.201904 0.000000 0.772028 0.000000 -0.635589 0.176332 0.176332 0.176332
2378.704590 0.000000 3242.351807 0.000000 0.483995 0.000000 -0.875071 0.206784 0.206784 0.206784
2398.652344 0.000000 3231.694824 0.000000 0.546820 0.000000 -0.837251 0.179155 0.179155 0.179155
2407.789551 0.000000 3233.546875 0.000000 0.621387 0.000000 -0.783504 0.205731 0.205731 0.205731
2304.098633 0.000000 3283.042725 0.000000 0.651328 0.000000 -0.758796 0.199153 0.199153 0.199153
2311.914795 0.000000 3277.930664 0.000000 0.611741 0.000000 -0.791058 0.131441 0.131441 0.131441
2331.131592 0.000000 3292.214844 0.000000 0.538237 0.000000 -0.842794 0.206382 0.206382 0.206382
2329.706787 0.000000 3289.733154 0.000000 0.276124 0.000000 -0.961122 0.205886 0.205886 0.205886
2327.407959 0.000000 3287.931885 0.000000 0.776991 0.000000 -0.629512 0.204335 0.204335 0.204335
2342.824463 0.000000 3281.331543 0.000000 0.203664 0.000000 -0.979041 0.191157 0.191157 0.191157
2349.143311 0.000000 3276.395996 0.000000 0.728558 0.000000 -0.684984 0.166941 0.166941 0.166941
2305.654297 0.000000 3290.451904 0.000000 0.358074 0.000000 -0.933693 0.175093 0.175093 0.175093
2335.632568 0.000000 3286.762451 0.000000 0.247200 0.000000 -0.968964 0.207242 0.207242 0.207242
2304.016357 0.000000 3284.746338 0.000000 0.052277 0.000000 -0.998633 0.186175 0.186175 0.186175
2333.380859 0.000000 3295.491455 0.000000 0.027020 0.000000 -0.999635 0.209828 0.209828 0.209828
2329.632568 0.000000 3291.311279 0.000000 0.435585 0.000000 -0.900147 0.207131 0.207131 0.207131
2333.938965 0.000000 3292.627197 0.000000 0.485371 0.000000 -0.874308 0.206774 0.206774 0.206774
2328.231201 0.000000 3291.102539 0.000000 0.127414 0.000000 -0.991850 0.209187 0.209187 0.209187
2332.436768 0.000000 3292.696533 0.000000 0.265144 0.000000 -0.964209 0.208292 0.208292 0.208292
2305.323486 0.000000 3282.151123 0.000000 0.414126 0.000000 -0.910219 0.200895 0.200895 0.200895
2313.386230 0.000000 3283.364258 0.000000 0.663723 0.000000 -0.747978 0.205380 0.205380 0.205380
4085.993896 0.000000 3240.895508 0.000000 0.187351 0.000000 -0.982293 0.147388 0.147388 0.147388
4083.759033 0.000000 3250.974121 0.000000 0.679727 0.000000 -0.733465 0.139703 0.139703 0.139703
4057.917236 0.000000 3264.375488 0.000000 0.801837 0.000000 -0.597543 0.138338 0.138338 0.138338
4084.316895 0.000000 3248.735352 0.000000 0.713916 0.000000 -0.700231 0.164754 0.164754 0.164754
4085.385498 0.000000 3250.216553 0.000000 0.338385 0.000000 -0.941008 0.207802 0.207802 0.207802
4094.871094 0.000000 3263.119873 0.000000 0.735121 0.000000 -0.677936 0.188111 0.188111 0.188111
4082.318359 0.000000 3276.299561 0.000000 0.522373 0.000000 -0.852717 0.162540 0.162540 0.162540
4035.837158 0.000000 3356.140137 0.000000 0.799289 0.000000 -0.600947 0.204104 0.204104 0.204104
4048.939697 0.000000 3348.506836 0.000000 0.263622 0.000000 -0.964626 0.166875 0.166875 0.166875
4048.186279 0.000000 3351.729492 0.000000 0.782451 0.000000 -0.622712 0.150492 0.150492 0.150492
4044.617676 0.000000 3349.225342 0.000000 0.788738 0.000000 -0.614730 0.181333 0.181333 0.181333
4069.606445 0.000000 3335.497559 0.000000 0.065775 0.000000 -0.997835 0.209581 0.209581 0.209581
4159.586426 0.000000 3216.559570 0.000000 0.757702 0.000000 -0.652600 0.170152 0.170152 0.170152
4157.125000 0.000000 3215.604248 0.000000 0.313716 0.000000 -0.949517 0.154957 0.154957 0.154957
4116.089355 0.000000 3264.426270 0.000000 0.351871 0.000000 -0.936049 0.161747 0.161747 0.161747
4098.500488 0.000000 3239.353516 0.000000 0.230521 0.000000 -0.973067 0.148358 0.148358 0.148358
4102.215332 0.000000 3268.547119 0.000000 0.527191 0.000000 -0.849747 0.131860 0.131860 0.131860
4130.932617 0.000000 3273.686279 0.000000 0.009228 0.000000 -0.999957 0.144665 0.144665 0.144665
4154.385254 0.000000 3222.201416 0.000000 0.708327 0.000000 -0.705885 0.139530 0.139530 0.139530
4155.529785 0.000000 3220.256348 0.000000 0.274231 0.000000 -0.961664 0.171485 0.171485 0.171485
4156.180664 0.000000 3253.711914 0.000000 0.097174 0.000000 -0.995267 0.209380 0.209380 0.209380
4102.073242 0.000000 3273.396973 0.000000 0.774099 0.000000 -0.633065 0.171735 0.171735 0.171735
4153.206055 0.000000 3229.235840 0.000000 0.191256 0.000000 -0.981540 0.181874 0.181874 0.181874
4126.176270 0.000000 3270.767334 0.000000 0.247366 0.000000 -0.968922 0.208409 0.208409 0.208409
4139.276855 0.000000 3265.095947 0.000000 0.047332 0.000000 -0.998879 0.209699 0.209699 0.209699
4156.552246 0.000000 3220.918701 0.000000 0.782435 0.000000 -0.622732 0.204280 0.204280 0.204280
4135.291504 0.000000 3258.614990 0.000000 0.517392 0.000000 -0.855748 0.206538 0.206538 0.206538
4164.032715 0.000000 3251.220947 0.000000 0.530868 0.000000 -0.847454 0.165381 0.165381 0.165381
4162.069824 0.000000 3244.431152 0.000000 0.100082 0.000000 -0.994979 0.209362 0.209362 0.209362
4164.789062 0.000000 3253.466309 0.000000 0.670238 0.000000 -0.742147 0.177142 0.177142 0.177142
4162.875977 0.000000 3252.196045 0.000000 0.533551 0.000000 -0.845768 0.206417 0.206417 0.206417
4318.060547 0.000000 3267.764160 0.000000 0.372066 0.000000 -0.928206 0.190130 0.190130 0.190130
4322.735840 0.000000 3259.262451 0.000000 0.358828 0.000000 -0.933404 0.167527 0.167527 0.167527
4329.064941 0.000000 3271.314941 0.000000 0.482759 0.000000 -0.875753 0.155239 0.155239 0.155239
4311.191895 0.000000 3265.500000 0.000000 0.057327 0.000000 -0.998355 0.160309 0.160309 0.160309
4321.910645 0.000000 3261.932129 0.000000 0.614550 0.000000 -0.788878 0.205787 0.205787 0.205787
4320.544434 0.000000 3266.940918 0.000000 0.391697 0.000000 -0.920094 0.145846 0.145846 0.145846
4319.328613 0.000000 3269.931152 0.000000 0.268723 0.000000 -0.963218 0.168015 0.168015 0.168015
4319.373535 0.000000 3263.042480 0.000000 0.675915 0.000000 -0.736980 0.174800 0.174800 0.174800
4337.314941 0.000000 3262.307617 0.000000 0.380250 0.000000 -0.924884 0.178453 0.178453 0.178453
4333.747070 0.000000 3268.301025 0.000000 0.157732 0.000000 -0.987482 0.208992 0.208992 0.208992
4321.128418 0.000000 3260.372559 0.000000 0.035899 0.000000 -0.999355 0.209771 0.209771 0.209771
4312.204102 0.000000 3264.136963 0.000000 0.107269 0.000000 -0.994230 0.174137 0.174137 0.174137
4322.377441 0.000000 3263.336670 0.000000 0.660199 0.000000 -0.751091 0.197930 0.197930 0.197930
4322.454102 0.000000 3260.630615 0.000000 0.711851 0.000000 -0.702331 0.204957 0.204957 0.204957
4334.797363 0.000000 3271.412598 0.000000 0.431465 0.000000 -0.902130 0.207160 0.207160 0.207160
4333.871094 0.000000 3269.492676 0.000000 0.748794 0.000000 -0.662803 0.204613 0.204613 0.204613
4124.793945 0.000000 3278.935547 0.000000 0.490976 0.000000 -0.871173 0.129136 0.129136 0.129136
4142.042969 0.000000 3281.948486 0.000000 0.178024 0.000000 -0.984026 0.181949 0.181949 0.181949
4121.283691 0.000000 3297.711426 0.000000 0.547067 0.000000 -0.837089 0.156614 0.156614 0.156614
4100.035156 0.000000 3282.313477 0.000000 0.564228 0.000000 -0.825619 0.166910 0.166910 0.166910
4102.912598 0.000000 3276.095459 0.000000 0.300038 0.000000 -0.953927 0.170761 0.170761 0.170761
4120.429199 0.000000 3300.027344 0.000000 0.208596 0.000000 -0.978002 0.208662 0.208662 0.208662
4160.009766 0.000000 3318.286377 0.000000 0.576388 0.000000 -0.817176 0.183575 0.183575 0.183575
4208.918945 0.000000 3291.079834 0.000000 0.332496 0.000000 -0.943105 0.207260 0.207260 0.207260
4168.076660 0.000000 3320.147217 0.000000 0.012609 0.000000 -0.999920 0.162291 0.162291 0.162291
4200.256348 0.000000 3349.425781 0.000000 0.734855 0.000000 -0.678225 0.204745 0.204745 0.204745
4228.763672 0.000000 3312.285889 0.000000 0.785872 0.000000 -0.618390 0.195663 0.195663 0.195663
4231.213379 0.000000 3314.293701 0.000000 0.606574 0.000000 -0.795027 0.166641 0.166641 0.166641
4255.330566 0.000000 3308.514893 0.000000 0.785870 0.000000 -0.618392 0.204244 0.204244 0.204244
4303.130859 0.000000 3315.465576 0.000000 0.410915 0.000000 -0.911674 0.207304 0.207304 0.207304
4299.941895 0.000000 3317.897705 0.000000 0.068486 0.000000 -0.997652 0.149688 0.149688 0.149688
4339.016113 0.000000 3296.944824 0.000000 0.094050 0.000000 -0.995568 0.209400 0.209400 0.209400
4341.566895 0.000000 3288.555908 0.000000 0.612466 0.000000 -0.790497 0.141814 0.141814 0.141814
4342.302246 0.000000 3290.381104 0.000000 0.674231 0.000000 -0.738521 0.184588 0.184588 0.184588
4301.340332 0.000000 3316.320557 0.000000 0.611922 0.000000 -0.790918 0.205231 0.205231 0.205231
4309.229004 0.000000 3290.186035 0.000000 0.598840 0.000000 -0.800869 0.178227 0.178227 0.178227
4330.742676 0.000000 3300.283447 0.000000 0.316046 0.000000 -0.948744 0.207953 0.207953 0.207953
4252.899902 0.000000 3384.126709 0.000000 0.221926 0.000000 -0.975064 0.208575 0.208575 0.208575
4247.599609 0.000000 3387.133301 0.000000 0.105315 0.000000 -0.994439 0.189979 0.189979 0.189979
4370.579102 0.000000 3274.798340 0.000000 0.796692 0.000000 -0.604386 0.135516 0.135516 0.135516
4391.591309 0.000000 3261.445312 0.000000 0.383680 0.000000 -0.923466 0.145303 0.145303 0.145303
4379.631348 0.000000 3275.459473 0.000000 0.317181 0.000000 -0.948365 0.207945 0.207945 0.207945
4375.885254 0.000000 3301.873779 0.000000 0.691434 0.000000 -0.722440 0.182729 0.182729 0.182729
4374.351074 0.000000 3294.834229 0.000000 0.457661 0.000000 -0.889127 0.191900 0.191900 0.191900
4242.283691 0.000000 3390.195312 0.000000 0.608927 0.000000 -0.793226 0.134339 0.134339 0.134339
4245.668945 0.000000 3398.851318 0.000000 0.786163 0.000000 -0.618019 0.141310 0.141310 0.141310
4254.961914 0.000000 3390.023926 0.000000 0.414706 0.000000 -0.909955 0.166054 0.166054 0.166054
4257.491699 0.000000 3394.957764 0.000000 0.456639 0.000000 -0.889652 0.206981 0.206981 0.206981
4242.498535 0.000000 3392.880615 0.000000 0.199510 0.000000 -0.979896 0.158441 0.158441 0.158441
4251.678223 0.000000 3394.076660 0.000000 0.226289 0.000000 -0.974060 0.164734 0.164734 0.164734
4257.049316 0.000000 3390.312744 0.000000 0.608057 0.000000 -0.793893 0.205839 0.205839 0.205839
4251.504395 0.000000 3403.040771 0.000000 0.351695 0.000000 -0.936115 0.169312 0.169312 0.169312
4249.304688 0.000000 3390.056152 0.000000 0.585577 0.000000 -0.810617 0.175432 0.175432 0.175432
4243.935547 0.000000 3398.821045 0.000000 0.336033 0.000000 -0.941850 0.175219 0.175219 0.175219
4241.288086 0.000000 3394.143799 0.000000 0.750662 0.000000 -0.660686 0.198864 0.198864 0.198864
4256.131348 0.000000 3394.181885 0.000000 0.248183 0.000000 -0.968713 0.208403 0.208403 0.208403
4247.673828 0.000000 3395.018555 0.000000 0.582774 0.000000 -0.812634 0.191034 0.191034 0.191034
4241.011230 0.000000 3390.399658 0.000000 0.374717 0.000000 -0.927139 0.207555 0.207555 0.207555
"}
