object={
	name="bush_02_generator_2_0"
	clamp_to_water_level=no
	render_under_water=no
	generated_content=yes
	layer="semidynamic_high"
	pdxmesh="tree_bush_03_mesh"
	count=415
	transform="911.130920 0.000000 2581.168701 0.000000 0.286929 0.000000 0.957952 0.122528 0.122528 0.122528
948.365417 0.000000 2581.063232 0.000000 0.827654 0.000000 0.561238 0.125308 0.125308 0.125308
905.866150 0.000000 2580.869141 0.000000 0.920165 0.000000 -0.391530 0.147523 0.147523 0.147523
906.072266 0.000000 2597.968994 0.000000 0.973266 0.000000 -0.229680 0.101584 0.101584 0.101584
908.721313 0.000000 2580.121826 0.000000 0.118036 0.000000 0.993009 0.133581 0.133581 0.133581
908.375183 0.000000 2596.464600 0.000000 0.406064 0.000000 0.913844 0.123045 0.123045 0.123045
910.401917 0.000000 2583.492676 0.000000 0.204273 0.000000 0.978914 0.115750 0.115750 0.115750
951.044800 0.000000 2580.885254 0.000000 0.533644 0.000000 0.845709 0.099774 0.099774 0.099774
907.263184 0.000000 2578.359131 0.000000 0.898639 0.000000 -0.438689 0.159130 0.159130 0.159130
905.807922 0.000000 2582.964111 0.000000 0.708144 0.000000 0.706068 0.139292 0.139292 0.139292
904.076843 0.000000 2585.850342 0.000000 0.263672 0.000000 0.964612 0.113838 0.113838 0.113838
907.557495 0.000000 2581.744629 0.000000 0.852903 0.000000 0.522069 0.125498 0.125498 0.125498
904.859436 0.000000 2579.283936 0.000000 0.950294 0.000000 0.311354 0.131435 0.131435 0.131435
910.389832 0.000000 2579.581299 0.000000 0.735815 0.000000 0.677183 0.130176 0.130176 0.130176
948.122803 0.000000 2579.461914 0.000000 0.149905 0.000000 0.988700 0.112328 0.112328 0.112328
907.147278 0.000000 2579.962402 0.000000 0.076564 0.000000 0.997065 0.149402 0.149402 0.149402
904.627686 0.000000 2581.821289 0.000000 0.996837 0.000000 0.079467 0.145289 0.145289 0.145289
908.607788 0.000000 2578.732422 0.000000 0.473847 0.000000 0.880607 0.170420 0.170420 0.170420
902.251770 0.000000 2580.937256 0.000000 0.576737 0.000000 0.816930 0.137966 0.137966 0.137966
909.796753 0.000000 2580.809814 0.000000 0.766856 0.000000 0.641819 0.136949 0.136949 0.136949
904.396423 0.000000 2580.577637 0.000000 0.911720 0.000000 0.410813 0.143695 0.143695 0.143695
982.477783 0.000000 2576.690186 0.000000 0.128948 0.000000 0.991651 0.109042 0.109042 0.109042
964.763550 0.000000 2577.989014 0.000000 0.774826 0.000000 0.632175 0.124949 0.124949 0.124949
982.628418 0.000000 2571.823975 0.000000 0.356664 0.000000 0.934233 0.122827 0.122827 0.122827
1010.798096 0.000000 2578.478027 0.000000 0.438470 0.000000 0.898746 0.114545 0.114545 0.114545
980.984863 0.000000 2578.994873 0.000000 0.631747 0.000000 0.775175 0.124125 0.124125 0.124125
1013.633789 0.000000 2578.854004 0.000000 0.966501 0.000000 0.256663 0.103896 0.103896 0.103896
983.935669 0.000000 2578.852051 0.000000 0.002707 0.000000 0.999996 0.120291 0.120291 0.120291
982.981567 0.000000 2570.021484 0.000000 0.973936 0.000000 -0.226822 0.128661 0.128661 0.128661
965.351074 0.000000 2579.922852 0.000000 0.900182 0.000000 0.435513 0.118721 0.118721 0.118721
982.696167 0.000000 2578.111572 0.000000 0.999986 0.000000 -0.005236 0.126632 0.126632 0.126632
908.978455 0.000000 2599.017334 0.000000 0.166868 0.000000 0.985979 0.118815 0.118815 0.118815
947.455933 0.000000 2648.569580 0.000000 0.924233 0.000000 -0.381830 0.101247 0.101247 0.101247
948.365417 0.000000 2637.547607 0.000000 0.958516 0.000000 0.285037 0.126556 0.126556 0.126556
944.024109 0.000000 2650.816162 0.000000 0.068974 0.000000 0.997618 0.121625 0.121625 0.121625
951.060730 0.000000 2639.880859 0.000000 0.882029 0.000000 -0.471195 0.101562 0.101562 0.101562
947.402527 0.000000 2652.248535 0.000000 0.935191 0.000000 -0.354143 0.103702 0.103702 0.103702
911.671448 0.000000 2599.810303 0.000000 0.855624 0.000000 -0.517598 0.112275 0.112275 0.112275
949.633789 0.000000 2635.338379 0.000000 0.884294 0.000000 -0.466931 0.110364 0.110364 0.110364
951.044800 0.000000 2637.369629 0.000000 0.949427 0.000000 0.313988 0.103697 0.103697 0.103697
945.129272 0.000000 2648.687256 0.000000 0.869415 0.000000 -0.494083 0.105346 0.105346 0.105346
945.262695 0.000000 2652.842285 0.000000 0.944309 0.000000 -0.329060 0.111542 0.111542 0.111542
946.394226 0.000000 2650.403076 0.000000 0.968645 0.000000 0.248447 0.113928 0.113928 0.113928
918.937195 0.000000 2669.192871 0.000000 0.964706 0.000000 0.263329 0.099985 0.099985 0.099985
923.131531 0.000000 2670.886719 0.000000 0.165972 0.000000 0.986130 0.095531 0.095531 0.095531
943.663208 0.000000 2664.777588 0.000000 0.499283 0.000000 0.866439 0.104516 0.104516 0.104516
940.194824 0.000000 2666.843018 0.000000 0.890133 0.000000 -0.455700 0.129655 0.129655 0.129655
959.510010 0.000000 2691.984131 0.000000 0.980095 0.000000 0.198527 0.112445 0.112445 0.112445
923.504211 0.000000 2668.743896 0.000000 0.979685 0.000000 -0.200542 0.113893 0.113893 0.113893
921.632507 0.000000 2669.983154 0.000000 0.913609 0.000000 -0.406594 0.129434 0.129434 0.129434
920.030273 0.000000 2668.070801 0.000000 0.173655 0.000000 0.984807 0.122054 0.122054 0.122054
979.991577 0.000000 2687.993164 0.000000 0.719506 0.000000 0.694487 0.117505 0.117505 0.117505
980.822021 0.000000 2685.876709 0.000000 0.824843 0.000000 0.565362 0.111550 0.111550 0.111550
978.362793 0.000000 2687.402100 0.000000 0.957851 0.000000 -0.287266 0.121565 0.121565 0.121565
1057.210327 0.000000 2586.670166 0.000000 0.751845 0.000000 0.659340 0.131373 0.131373 0.131373
1057.947754 0.000000 2591.270508 0.000000 0.044110 0.000000 0.999027 0.106067 0.106067 0.106067
1053.392090 0.000000 2586.470215 0.000000 0.996137 0.000000 -0.087813 0.100280 0.100280 0.100280
1057.910522 0.000000 2584.119629 0.000000 0.769828 0.000000 0.638251 0.097797 0.097797 0.097797
1056.544556 0.000000 2589.128418 0.000000 0.166758 0.000000 0.985998 0.138617 0.138617 0.138617
1058.508057 0.000000 2588.362549 0.000000 0.984683 0.000000 -0.174353 0.122810 0.122810 0.122810
1054.716187 0.000000 2588.034912 0.000000 0.799588 0.000000 0.600549 0.114137 0.114137 0.114137
1058.838013 0.000000 2589.888184 0.000000 0.321819 0.000000 0.946801 0.117296 0.117296 0.117296
1055.740845 0.000000 2586.765381 0.000000 0.402999 0.000000 0.915200 0.125729 0.125729 0.125729
1076.463989 0.000000 2613.363037 0.000000 0.897407 0.000000 -0.441205 0.144367 0.144367 0.144367
1079.819336 0.000000 2617.112061 0.000000 0.593666 0.000000 0.804712 0.098382 0.098382 0.098382
1076.078369 0.000000 2614.951904 0.000000 0.498444 0.000000 0.866922 0.144585 0.144585 0.144585
1078.998291 0.000000 2615.583496 0.000000 0.752721 0.000000 0.658340 0.153275 0.153275 0.153275
1077.096558 0.000000 2612.191650 0.000000 0.998136 0.000000 0.061022 0.142020 0.142020 0.142020
1118.236938 0.000000 2650.811035 0.000000 0.992860 0.000000 -0.119289 0.100381 0.100381 0.100381
1092.032593 0.000000 2629.892822 0.000000 0.976590 0.000000 0.215110 0.112941 0.112941 0.112941
1132.662354 0.000000 2648.861328 0.000000 0.882090 0.000000 -0.471080 0.120053 0.120053 0.120053
1132.760498 0.000000 2636.786377 0.000000 0.547042 0.000000 0.837105 0.120985 0.120985 0.120985
1130.009521 0.000000 2653.218018 0.000000 0.240490 0.000000 0.970652 0.095773 0.095773 0.095773
1122.932617 0.000000 2652.358154 0.000000 0.833329 0.000000 -0.552778 0.118128 0.118128 0.118128
1141.993896 0.000000 2619.567383 0.000000 0.995862 0.000000 0.090883 0.109486 0.109486 0.109486
1092.763550 0.000000 2634.473389 0.000000 0.975287 0.000000 0.220940 0.124600 0.124600 0.124600
1088.163086 0.000000 2633.027832 0.000000 0.884817 0.000000 0.465939 0.098457 0.098457 0.098457
1136.648071 0.000000 2638.757080 0.000000 0.273048 0.000000 0.962000 0.099909 0.099909 0.099909
1135.868652 0.000000 2646.692139 0.000000 0.987009 0.000000 -0.160664 0.128387 0.128387 0.128387
1132.412598 0.000000 2640.554932 0.000000 0.950450 0.000000 -0.310877 0.101006 0.101006 0.101006
1129.204712 0.000000 2634.842529 0.000000 0.825254 0.000000 -0.564762 0.105050 0.105050 0.105050
1090.822754 0.000000 2632.249268 0.000000 0.963489 0.000000 -0.267748 0.138439 0.138439 0.138439
1090.575806 0.000000 2639.408203 0.000000 0.210174 0.000000 0.977664 0.116310 0.116310 0.116310
1090.310791 0.000000 2634.892334 0.000000 0.060807 0.000000 0.998150 0.156256 0.156256 0.156256
1142.180420 0.000000 2622.131348 0.000000 0.433596 0.000000 0.901108 0.099399 0.099399 0.099399
1134.880859 0.000000 2648.816895 0.000000 0.635472 0.000000 0.772124 0.114888 0.114888 0.114888
1135.085327 0.000000 2637.109375 0.000000 0.589782 0.000000 0.807562 0.115214 0.115214 0.115214
1133.747070 0.000000 2646.972900 0.000000 0.205529 0.000000 0.978651 0.122186 0.122186 0.122186
1130.678101 0.000000 2636.456299 0.000000 0.308336 0.000000 0.951277 0.122619 0.122619 0.122619
1128.284058 0.000000 2636.747803 0.000000 0.960073 0.000000 -0.279749 0.109664 0.109664 0.109664
1128.389160 0.000000 2651.911621 0.000000 0.687729 0.000000 0.725968 0.124428 0.124428 0.124428
1092.788818 0.000000 2632.138184 0.000000 0.768246 0.000000 0.640155 0.138055 0.138055 0.138055
1140.393188 0.000000 2620.674805 0.000000 0.584554 0.000000 0.811355 0.123340 0.123340 0.123340
1118.288208 0.000000 2652.743652 0.000000 0.923656 0.000000 0.383223 0.117834 0.117834 0.117834
1121.680054 0.000000 2654.108887 0.000000 0.451464 0.000000 0.892289 0.172981 0.172981 0.172981
1092.484009 0.000000 2628.030029 0.000000 0.964678 0.000000 -0.263433 0.114691 0.114691 0.114691
1128.388306 0.000000 2648.282959 0.000000 0.834179 0.000000 -0.551493 0.116411 0.116411 0.116411
1093.832764 0.000000 2630.146973 0.000000 0.318703 0.000000 0.947854 0.157095 0.157095 0.157095
1088.850586 0.000000 2638.845947 0.000000 0.967078 0.000000 -0.254478 0.120870 0.120870 0.120870
1091.329712 0.000000 2633.709473 0.000000 0.890857 0.000000 0.454284 0.135195 0.135195 0.135195
1142.848755 0.000000 2620.793945 0.000000 0.135094 0.000000 0.990833 0.121895 0.121895 0.121895
1093.854248 0.000000 2633.034424 0.000000 0.877324 0.000000 0.479898 0.138927 0.138927 0.138927
1090.875854 0.000000 2630.867920 0.000000 0.997608 0.000000 -0.069123 0.149348 0.149348 0.149348
1121.632324 0.000000 2652.090576 0.000000 0.642692 0.000000 0.766124 0.144880 0.144880 0.144880
1090.176270 0.000000 2636.214600 0.000000 0.064194 0.000000 0.997937 0.161608 0.161608 0.161608
1120.520752 0.000000 2653.734131 0.000000 0.136587 0.000000 0.990628 0.142219 0.142219 0.142219
1093.747314 0.000000 2631.252197 0.000000 0.999989 0.000000 0.004717 0.163561 0.163561 0.163561
1090.422119 0.000000 2637.279541 0.000000 0.019630 0.000000 0.999807 0.161367 0.161367 0.161367
1118.961914 0.000000 2655.727051 0.000000 0.976162 0.000000 0.217044 0.114602 0.114602 0.114602
1124.575317 0.000000 2657.154541 0.000000 0.984654 0.000000 -0.174518 0.104784 0.104784 0.104784
1122.937256 0.000000 2656.550293 0.000000 0.996676 0.000000 0.081471 0.148074 0.148074 0.148074
1120.052002 0.000000 2654.787842 0.000000 0.996318 0.000000 -0.085731 0.179762 0.179762 0.179762
1121.739258 0.000000 2657.289551 0.000000 0.969842 0.000000 -0.243734 0.149623 0.149623 0.149623
1121.743164 0.000000 2655.004150 0.000000 0.973877 0.000000 -0.227078 0.180579 0.180579 0.180579
1215.957886 0.000000 2619.180176 0.000000 0.898403 0.000000 -0.439172 0.118781 0.118781 0.118781
1178.364746 0.000000 2623.842529 0.000000 0.963825 0.000000 -0.266537 0.122048 0.122048 0.122048
1181.530396 0.000000 2625.573730 0.000000 0.985472 0.000000 -0.169835 0.104768 0.104768 0.104768
1179.635498 0.000000 2621.331543 0.000000 0.974816 0.000000 0.223010 0.105681 0.105681 0.105681
1180.838379 0.000000 2623.348633 0.000000 0.931604 0.000000 0.363475 0.126219 0.126219 0.126219
1214.970947 0.000000 2620.937256 0.000000 0.381526 0.000000 0.924358 0.113231 0.113231 0.113231
1223.671631 0.000000 2623.137695 0.000000 0.997294 0.000000 0.073510 0.107311 0.107311 0.107311
1218.500488 0.000000 2618.025391 0.000000 0.999896 0.000000 -0.014440 0.100046 0.100046 0.100046
1219.837158 0.000000 2621.843262 0.000000 0.610954 0.000000 0.791666 0.097364 0.097364 0.097364
1222.424683 0.000000 2618.641357 0.000000 0.411818 0.000000 0.911266 0.102559 0.102559 0.102559
1216.936157 0.000000 2620.890869 0.000000 0.993056 0.000000 0.117641 0.127252 0.127252 0.127252
1224.173828 0.000000 2620.547607 0.000000 0.652125 0.000000 0.758112 0.121508 0.121508 0.121508
1224.954834 0.000000 2621.999268 0.000000 0.912442 0.000000 0.409206 0.123253 0.123253 0.123253
1261.516602 0.000000 2669.499023 0.000000 0.964710 0.000000 -0.263315 0.100848 0.100848 0.100848
1256.763306 0.000000 2669.887695 0.000000 0.443153 0.000000 0.896446 0.096461 0.096461 0.096461
1256.015625 0.000000 2662.394287 0.000000 0.047288 0.000000 0.998881 0.121537 0.121537 0.121537
1256.974609 0.000000 2666.287109 0.000000 0.072669 0.000000 0.997356 0.098699 0.098699 0.098699
1258.288330 0.000000 2677.913330 0.000000 0.892303 0.000000 0.451438 0.125827 0.125827 0.125827
1254.824463 0.000000 2660.003418 0.000000 0.816601 0.000000 -0.577203 0.102815 0.102815 0.102815
1261.942993 0.000000 2676.706543 0.000000 0.877132 0.000000 -0.480249 0.103017 0.103017 0.103017
1259.095459 0.000000 2669.084229 0.000000 0.982667 0.000000 0.185381 0.100799 0.100799 0.100799
1272.742188 0.000000 2684.659424 0.000000 0.237780 0.000000 0.971319 0.107299 0.107299 0.107299
1257.650879 0.000000 2664.052246 0.000000 0.929443 0.000000 -0.368967 0.121330 0.121330 0.121330
1272.096558 0.000000 2682.409668 0.000000 0.288107 0.000000 0.957598 0.122533 0.122533 0.122533
1256.688843 0.000000 2679.166016 0.000000 0.925575 0.000000 0.378564 0.106234 0.106234 0.106234
1257.963501 0.000000 2662.294922 0.000000 0.814311 0.000000 -0.580429 0.130249 0.130249 0.130249
1273.864868 0.000000 2683.356934 0.000000 0.146151 0.000000 0.989262 0.121941 0.121941 0.121941
1258.439941 0.000000 2666.989502 0.000000 0.975738 0.000000 0.218944 0.126834 0.126834 0.126834
1259.954346 0.000000 2678.471680 0.000000 0.486454 0.000000 0.873706 0.116374 0.116374 0.116374
1289.203857 0.000000 2690.466309 0.000000 0.874264 0.000000 0.485451 0.098387 0.098387 0.098387
1283.505249 0.000000 2698.191895 0.000000 0.405944 0.000000 0.913898 0.104156 0.104156 0.104156
1284.763550 0.000000 2690.957764 0.000000 0.854805 0.000000 -0.518949 0.116271 0.116271 0.116271
1293.506958 0.000000 2690.580078 0.000000 0.096078 0.000000 0.995374 0.112659 0.112659 0.112659
1289.866211 0.000000 2693.837891 0.000000 0.918586 0.000000 0.395220 0.107278 0.107278 0.107278
1280.009766 0.000000 2696.958252 0.000000 0.947331 0.000000 -0.320255 0.119434 0.119434 0.119434
1286.724243 0.000000 2688.273193 0.000000 0.717972 0.000000 0.696072 0.109299 0.109299 0.109299
1287.213501 0.000000 2692.965576 0.000000 0.414304 0.000000 0.910138 0.098789 0.098789 0.098789
1282.575806 0.000000 2695.892578 0.000000 0.176787 0.000000 0.984249 0.103329 0.103329 0.103329
1294.389282 0.000000 2688.150391 0.000000 0.899371 0.000000 0.437185 0.101044 0.101044 0.101044
1281.118530 0.000000 2699.495850 0.000000 0.300869 0.000000 0.953665 0.098392 0.098392 0.098392
1286.953003 0.000000 2690.375977 0.000000 0.839628 0.000000 -0.543162 0.130066 0.130066 0.130066
1289.807861 0.000000 2695.932861 0.000000 0.822424 0.000000 0.568875 0.104392 0.104392 0.104392
1291.557495 0.000000 2694.713379 0.000000 0.997244 0.000000 0.074185 0.127429 0.127429 0.127429
1294.389893 0.000000 2692.550049 0.000000 0.828470 0.000000 0.560033 0.113772 0.113772 0.113772
1291.147339 0.000000 2692.931152 0.000000 0.253962 0.000000 0.967214 0.114873 0.114873 0.114873
952.065735 0.000000 2736.612549 0.000000 0.291818 0.000000 0.956474 0.122549 0.122549 0.122549
950.382080 0.000000 2740.577637 0.000000 0.999785 0.000000 -0.020753 0.117164 0.117164 0.117164
949.861084 0.000000 2759.316406 0.000000 0.939722 0.000000 -0.341939 0.102527 0.102527 0.102527
954.637390 0.000000 2738.183594 0.000000 0.992415 0.000000 -0.122932 0.100392 0.100392 0.100392
952.742126 0.000000 2741.143799 0.000000 0.710539 0.000000 0.703657 0.102705 0.102705 0.102705
953.072571 0.000000 2761.367188 0.000000 0.900006 0.000000 0.435877 0.110988 0.110988 0.110988
951.867737 0.000000 2758.481689 0.000000 0.999449 0.000000 0.033184 0.127596 0.127596 0.127596
951.431946 0.000000 2760.333740 0.000000 0.913872 0.000000 -0.406002 0.123754 0.123754 0.123754
953.864929 0.000000 2739.841309 0.000000 0.259813 0.000000 0.965659 0.121339 0.121339 0.121339
953.728394 0.000000 2736.644775 0.000000 0.851187 0.000000 0.524862 0.125485 0.125485 0.125485
950.485352 0.000000 2736.664307 0.000000 0.999998 0.000000 0.002112 0.122681 0.122681 0.122681
950.609131 0.000000 2739.098633 0.000000 0.997232 0.000000 -0.074357 0.128034 0.128034 0.128034
953.198608 0.000000 2737.985352 0.000000 0.992007 0.000000 0.126184 0.127217 0.127217 0.127217
962.500488 0.000000 2730.994141 0.000000 0.919778 0.000000 0.392439 0.098716 0.098716 0.098716
963.837219 0.000000 2734.812012 0.000000 0.998531 0.000000 -0.054181 0.117289 0.117289 0.117289
987.678040 0.000000 2716.264160 0.000000 0.137445 0.000000 0.990509 0.121905 0.121905 0.121905
964.248779 0.000000 2732.549805 0.000000 0.919856 0.000000 0.392257 0.119456 0.119456 0.119456
986.957520 0.000000 2717.876709 0.000000 0.895211 0.000000 0.445643 0.125853 0.125853 0.125853
954.305237 0.000000 2811.715820 0.000000 0.648216 0.000000 0.761457 0.118764 0.118764 0.118764
929.910461 0.000000 2810.057129 0.000000 0.991638 0.000000 -0.129051 0.128257 0.128257 0.128257
956.008179 0.000000 2810.011475 0.000000 0.899312 0.000000 0.437307 0.115952 0.115952 0.115952
926.716248 0.000000 2813.972412 0.000000 0.853690 0.000000 0.520782 0.104036 0.104036 0.104036
957.282043 0.000000 2811.689697 0.000000 0.261902 0.000000 0.965094 0.112757 0.112757 0.112757
956.454834 0.000000 2808.073486 0.000000 0.470490 0.000000 0.882405 0.119550 0.119550 0.119550
964.048035 0.000000 2776.084473 0.000000 0.978387 0.000000 -0.206781 0.108840 0.108840 0.108840
965.464844 0.000000 2772.516357 0.000000 0.928648 0.000000 0.370961 0.100727 0.100727 0.100727
966.363708 0.000000 2777.247070 0.000000 0.515806 0.000000 0.856705 0.106750 0.106750 0.106750
966.070251 0.000000 2774.774414 0.000000 0.032384 0.000000 0.999476 0.121476 0.121476 0.121476
967.015381 0.000000 2775.956543 0.000000 0.944454 0.000000 0.328645 0.126370 0.126370 0.126370
940.376709 0.000000 2870.486328 0.000000 0.648647 0.000000 0.761090 0.099698 0.099698 0.099698
938.219299 0.000000 2870.433350 0.000000 0.996075 0.000000 -0.088512 0.128091 0.128091 0.128091
939.407104 0.000000 2868.446777 0.000000 0.816263 0.000000 0.577680 0.118636 0.118636 0.118636
969.400879 0.000000 2840.337891 0.000000 0.431126 0.000000 0.902292 0.096419 0.096419 0.096419
990.530090 0.000000 2847.678711 0.000000 0.999857 0.000000 -0.016881 0.100054 0.100054 0.100054
965.119202 0.000000 2840.653076 0.000000 0.444971 0.000000 0.895545 0.110249 0.110249 0.110249
990.952576 0.000000 2843.730957 0.000000 0.961397 0.000000 -0.275167 0.100887 0.100887 0.100887
987.635559 0.000000 2847.269043 0.000000 0.953889 0.000000 -0.300159 0.101819 0.101819 0.101819
976.186279 0.000000 2843.370117 0.000000 0.291501 0.000000 0.956571 0.122547 0.122547 0.122547
988.928284 0.000000 2842.098877 0.000000 0.730798 0.000000 0.682594 0.113740 0.113740 0.113740
966.474854 0.000000 2838.809326 0.000000 0.999264 0.000000 -0.038368 0.124522 0.124522 0.124522
974.777466 0.000000 2844.470947 0.000000 0.849307 0.000000 -0.527900 0.129992 0.129992 0.129992
967.699585 0.000000 2840.073730 0.000000 0.999942 0.000000 0.010780 0.127687 0.127687 0.127687
986.869202 0.000000 2845.667725 0.000000 0.822647 0.000000 0.568552 0.125272 0.125272 0.125272
974.469421 0.000000 2842.877197 0.000000 0.277380 0.000000 0.960760 0.122487 0.122487 0.122487
977.818054 0.000000 2843.379883 0.000000 0.031584 0.000000 0.999501 0.121473 0.121473 0.121473
988.286133 0.000000 2845.904297 0.000000 0.900058 0.000000 -0.435770 0.129564 0.129564 0.129564
924.793762 0.000000 2883.544922 0.000000 0.004678 0.000000 0.999989 0.095281 0.095281 0.095281
919.491882 0.000000 2881.334717 0.000000 0.319805 0.000000 0.947483 0.096036 0.096036 0.096036
922.987244 0.000000 2880.791992 0.000000 0.032897 0.000000 0.999459 0.118282 0.118282 0.118282
921.661133 0.000000 2883.769287 0.000000 0.827493 0.000000 -0.561476 0.127301 0.127301 0.127301
921.304749 0.000000 2881.696777 0.000000 0.279545 0.000000 0.960132 0.122496 0.122496 0.122496
925.325623 0.000000 2885.178223 0.000000 0.949695 0.000000 -0.313176 0.129026 0.129026 0.129026
923.133850 0.000000 2884.233398 0.000000 0.408797 0.000000 0.912625 0.117660 0.117660 0.117660
1215.586426 0.000000 2990.622070 0.000000 0.828597 0.000000 0.559845 0.106628 0.106628 0.106628
1206.864258 0.000000 2992.186035 0.000000 0.935395 0.000000 0.353604 0.098850 0.098850 0.098850
1211.981689 0.000000 2992.406738 0.000000 0.868773 0.000000 0.495210 0.115156 0.115156 0.115156
1209.384521 0.000000 2993.439209 0.000000 0.880608 0.000000 -0.473846 0.105839 0.105839 0.105839
1214.390747 0.000000 2992.947998 0.000000 0.965542 0.000000 0.260247 0.131105 0.131105 0.131105
1218.552734 0.000000 2993.263672 0.000000 0.858565 0.000000 -0.512705 0.137897 0.137897 0.137897
1218.268921 0.000000 2990.621338 0.000000 0.175575 0.000000 0.984466 0.105466 0.105466 0.105466
1208.065796 0.000000 3019.034424 0.000000 0.980880 0.000000 -0.194611 0.109925 0.109925 0.109925
1206.173828 0.000000 2999.856201 0.000000 0.815714 0.000000 -0.578455 0.101963 0.101963 0.101963
1205.993896 0.000000 3014.958008 0.000000 0.892385 0.000000 -0.451274 0.101490 0.101490 0.101490
1214.624390 0.000000 3002.491943 0.000000 0.973816 0.000000 0.227338 0.108446 0.108446 0.108446
1211.100830 0.000000 3003.764648 0.000000 0.985033 0.000000 0.172367 0.099449 0.099449 0.099449
1210.504395 0.000000 3017.430664 0.000000 0.410141 0.000000 0.912022 0.110649 0.110649 0.110649
1208.639160 0.000000 2998.644287 0.000000 0.658781 0.000000 0.752335 0.097289 0.097289 0.097289
1209.460693 0.000000 2993.775146 0.000000 0.813315 0.000000 0.581823 0.102142 0.102142 0.102142
1213.251953 0.000000 3000.486328 0.000000 0.652813 0.000000 0.757519 0.111159 0.111159 0.111159
1206.180420 0.000000 3017.521973 0.000000 0.855644 0.000000 -0.517564 0.103156 0.103156 0.103156
1215.416748 0.000000 3000.896973 0.000000 0.897194 0.000000 0.441637 0.123111 0.123111 0.123111
1210.082642 0.000000 2997.896240 0.000000 0.996024 0.000000 0.089086 0.118430 0.118430 0.118430
1215.423340 0.000000 2997.147217 0.000000 0.901363 0.000000 -0.433064 0.151144 0.151144 0.151144
1212.926270 0.000000 2997.514893 0.000000 0.824038 0.000000 0.566534 0.131327 0.131327 0.131327
1214.025391 0.000000 2996.800049 0.000000 0.925979 0.000000 -0.377574 0.150856 0.150856 0.150856
1224.407593 0.000000 3001.484131 0.000000 0.931742 0.000000 0.363122 0.098817 0.098817 0.098817
1220.047974 0.000000 3002.021973 0.000000 0.845072 0.000000 -0.534652 0.101796 0.101796 0.101796
1221.464844 0.000000 2998.453857 0.000000 0.883691 0.000000 -0.468070 0.108093 0.108093 0.108093
1217.451538 0.000000 3003.064209 0.000000 0.874915 0.000000 0.484276 0.105832 0.105832 0.105832
1219.050659 0.000000 2997.066162 0.000000 0.997067 0.000000 0.076537 0.142509 0.142509 0.142509
1219.497925 0.000000 2994.429443 0.000000 0.768088 0.000000 0.640344 0.152845 0.152845 0.152845
1219.915771 0.000000 2998.284912 0.000000 0.683071 0.000000 0.730352 0.120583 0.120583 0.120583
1219.610840 0.000000 2995.653564 0.000000 0.517412 0.000000 0.855736 0.151193 0.151193 0.151193
1217.375488 0.000000 2996.063965 0.000000 0.417454 0.000000 0.908698 0.149010 0.149010 0.149010
5542.893555 0.000000 1205.619263 0.000000 0.971572 0.000000 0.236742 0.099239 0.099239 0.099239
5538.735840 0.000000 1225.824951 0.000000 0.864656 0.000000 0.502365 0.101905 0.101905 0.101905
5545.676758 0.000000 1204.238892 0.000000 0.997979 0.000000 0.063551 0.104550 0.104550 0.104550
5540.952637 0.000000 1226.648804 0.000000 0.978925 0.000000 0.204219 0.139139 0.139139 0.139139
5539.619629 0.000000 1228.078735 0.000000 0.999854 0.000000 0.017109 0.131021 0.131021 0.131021
5538.377441 0.000000 1229.899048 0.000000 0.993837 0.000000 -0.110848 0.131556 0.131556 0.131556
5539.658203 0.000000 1226.727173 0.000000 0.762518 0.000000 0.646967 0.179090 0.179090 0.179090
5481.563477 0.000000 1269.147217 0.000000 0.545099 0.000000 0.838371 0.096835 0.096835 0.096835
5495.638184 0.000000 1258.399658 0.000000 0.891186 0.000000 0.453637 0.115884 0.115884 0.115884
5476.276367 0.000000 1275.902954 0.000000 0.613757 0.000000 0.789495 0.141983 0.141983 0.141983
5465.505859 0.000000 1296.427979 0.000000 0.923546 0.000000 0.383488 0.107875 0.107875 0.107875
5478.535645 0.000000 1272.164307 0.000000 0.953670 0.000000 -0.300855 0.126711 0.126711 0.126711
5450.072266 0.000000 1298.828247 0.000000 0.846278 0.000000 -0.532741 0.101788 0.101788 0.101788
5478.646484 0.000000 1274.813477 0.000000 0.861853 0.000000 -0.507159 0.106536 0.106536 0.106536
5493.428223 0.000000 1260.497437 0.000000 0.204614 0.000000 0.978843 0.100747 0.100747 0.100747
5480.179688 0.000000 1270.840942 0.000000 0.413705 0.000000 0.910411 0.103645 0.103645 0.103645
5460.141113 0.000000 1296.588013 0.000000 0.844196 0.000000 -0.536034 0.114063 0.114063 0.114063
5493.929688 0.000000 1258.726929 0.000000 0.995736 0.000000 -0.092252 0.138220 0.138220 0.138220
5492.078125 0.000000 1259.326904 0.000000 0.309697 0.000000 0.950835 0.132306 0.132306 0.132306
5463.599609 0.000000 1297.211426 0.000000 0.242205 0.000000 0.970225 0.148631 0.148631 0.148631
5481.205566 0.000000 1299.112549 0.000000 0.276557 0.000000 0.960998 0.124095 0.124095 0.124095
5462.249023 0.000000 1299.023438 0.000000 0.997800 0.000000 0.066302 0.161563 0.161563 0.161563
5448.362793 0.000000 1298.441284 0.000000 0.917353 0.000000 -0.398075 0.167420 0.167420 0.167420
5447.914551 0.000000 1300.977539 0.000000 0.960484 0.000000 0.278335 0.099102 0.099102 0.099102
5482.673340 0.000000 1299.284546 0.000000 0.988673 0.000000 0.150083 0.120986 0.120986 0.120986
5448.667480 0.000000 1303.919800 0.000000 0.980537 0.000000 -0.196332 0.100629 0.100629 0.100629
5460.805176 0.000000 1299.208130 0.000000 0.125395 0.000000 0.992107 0.140562 0.140562 0.140562
5492.706543 0.000000 1355.455933 0.000000 0.977775 0.000000 0.209657 0.117413 0.117413 0.117413
5446.936035 0.000000 1302.716431 0.000000 0.984989 0.000000 0.172614 0.120340 0.120340 0.120340
5494.588867 0.000000 1352.323730 0.000000 0.956564 0.000000 0.291521 0.130413 0.130413 0.130413
5493.188965 0.000000 1353.553345 0.000000 0.847557 0.000000 0.530704 0.156821 0.156821 0.156821
5448.364746 0.000000 1299.597412 0.000000 0.357096 0.000000 0.934067 0.158924 0.158924 0.158924
5484.898438 0.000000 1355.001465 0.000000 0.159153 0.000000 0.987254 0.173360 0.173360 0.173360
5462.342773 0.000000 1299.286133 0.000000 0.985602 0.000000 -0.169084 0.162780 0.162780 0.162780
5491.744141 0.000000 1355.200806 0.000000 0.497807 0.000000 0.867288 0.193317 0.193317 0.193317
5526.478027 0.000000 1334.033936 0.000000 0.858885 0.000000 0.512169 0.098288 0.098288 0.098288
5531.443848 0.000000 1331.405640 0.000000 0.870671 0.000000 -0.491866 0.147473 0.147473 0.147473
5530.203125 0.000000 1331.746460 0.000000 0.962442 0.000000 0.271487 0.143828 0.143828 0.143828
5528.817383 0.000000 1332.174194 0.000000 0.954510 0.000000 0.298180 0.173660 0.173660 0.173660
5529.272461 0.000000 1333.893799 0.000000 0.989200 0.000000 -0.146573 0.176171 0.176171 0.176171
5529.665527 0.000000 1330.513550 0.000000 0.980837 0.000000 0.194829 0.198752 0.198752 0.198752
5432.315430 0.000000 1392.634033 0.000000 0.112358 0.000000 0.993668 0.102570 0.102570 0.102570
5429.013672 0.000000 1390.271362 0.000000 0.046898 0.000000 0.998900 0.110341 0.110341 0.110341
5437.125000 0.000000 1408.104248 0.000000 0.561298 0.000000 0.827614 0.129739 0.129739 0.129739
5435.000977 0.000000 1393.426025 0.000000 0.399457 0.000000 0.916752 0.096308 0.096308 0.096308
5431.405273 0.000000 1390.478149 0.000000 0.991054 0.000000 -0.133463 0.119836 0.119836 0.119836
5437.535645 0.000000 1409.800537 0.000000 0.271017 0.000000 0.962575 0.128369 0.128369 0.128369
5421.494141 0.000000 1397.265381 0.000000 0.949489 0.000000 0.313800 0.174123 0.174123 0.174123
5420.436035 0.000000 1396.780762 0.000000 0.769733 0.000000 0.638366 0.172033 0.172033 0.172033
5489.519043 0.000000 1361.954590 0.000000 0.900991 0.000000 0.433837 0.112653 0.112653 0.112653
5488.746582 0.000000 1358.862671 0.000000 0.949595 0.000000 0.313480 0.151943 0.151943 0.151943
5492.657715 0.000000 1355.661133 0.000000 0.942669 0.000000 0.333730 0.116927 0.116927 0.116927
5490.425293 0.000000 1357.779419 0.000000 0.186139 0.000000 0.982523 0.130675 0.130675 0.130675
5489.364258 0.000000 1357.914307 0.000000 0.919748 0.000000 -0.392508 0.178736 0.178736 0.178736
5489.862305 0.000000 1356.826782 0.000000 0.999023 0.000000 0.044199 0.176222 0.176222 0.176222
5387.786133 0.000000 1417.162354 0.000000 0.999352 0.000000 -0.035996 0.101517 0.101517 0.101517
5422.042969 0.000000 1417.963989 0.000000 0.129246 0.000000 0.991613 0.104767 0.104767 0.104767
5386.564941 0.000000 1414.658325 0.000000 0.609077 0.000000 0.793111 0.137061 0.137061 0.137061
5409.049316 0.000000 1413.359619 0.000000 0.177671 0.000000 0.984090 0.100655 0.100655 0.100655
5410.934570 0.000000 1415.678589 0.000000 0.419549 0.000000 0.907733 0.170079 0.170079 0.170079
5423.882812 0.000000 1417.133057 0.000000 0.630566 0.000000 0.776136 0.106698 0.106698 0.106698
5393.145996 0.000000 1414.663574 0.000000 0.982399 0.000000 0.186792 0.156481 0.156481 0.156481
5387.316406 0.000000 1413.026367 0.000000 0.999239 0.000000 -0.039001 0.135743 0.135743 0.135743
5387.583984 0.000000 1415.666992 0.000000 0.884497 0.000000 0.466545 0.138995 0.138995 0.138995
5390.623047 0.000000 1416.820679 0.000000 0.755893 0.000000 0.654695 0.144539 0.144539 0.144539
5392.913574 0.000000 1415.892334 0.000000 0.968076 0.000000 0.250657 0.156153 0.156153 0.156153
5425.364258 0.000000 1414.398682 0.000000 0.007478 0.000000 0.999972 0.165027 0.165027 0.165027
5424.528320 0.000000 1417.981812 0.000000 0.685931 0.000000 0.727667 0.165890 0.165890 0.165890
5424.027344 0.000000 1416.116089 0.000000 0.861757 0.000000 0.507322 0.167424 0.167424 0.167424
5408.829590 0.000000 1414.301636 0.000000 0.976916 0.000000 -0.213623 0.201371 0.201371 0.201371
5385.240723 0.000000 1412.839111 0.000000 0.910297 0.000000 -0.413955 0.198742 0.198742 0.198742
4668.112793 0.000000 2408.018799 0.000000 0.519402 0.000000 0.854530 0.145243 0.145243 0.145243
4670.208984 0.000000 2409.004395 0.000000 0.996155 0.000000 0.087613 0.157542 0.157542 0.157542
4671.246094 0.000000 2408.353271 0.000000 0.246749 0.000000 0.969079 0.151338 0.151338 0.151338
4687.272949 0.000000 2394.262207 0.000000 0.833276 0.000000 0.552858 0.098135 0.098135 0.098135
4684.552734 0.000000 2398.537842 0.000000 0.824255 0.000000 -0.566219 0.143881 0.143881 0.143881
4686.979980 0.000000 2397.183838 0.000000 0.164632 0.000000 0.986355 0.128439 0.128439 0.128439
4685.872070 0.000000 2400.746338 0.000000 0.753959 0.000000 0.656921 0.122080 0.122080 0.122080
4685.306641 0.000000 2396.895264 0.000000 0.833412 0.000000 -0.552653 0.127829 0.127829 0.127829
4684.904785 0.000000 2399.826172 0.000000 0.895989 0.000000 0.444076 0.139109 0.139109 0.139109
4792.065918 0.000000 2397.706299 0.000000 0.010024 0.000000 0.999950 0.117659 0.117659 0.117659
4799.487305 0.000000 2402.571533 0.000000 0.962981 0.000000 0.269570 0.110516 0.110516 0.110516
4797.212891 0.000000 2397.735596 0.000000 0.428245 0.000000 0.903663 0.108021 0.108021 0.108021
4794.504395 0.000000 2396.102539 0.000000 0.630597 0.000000 0.776110 0.123030 0.123030 0.123030
4799.163574 0.000000 2405.018311 0.000000 0.141408 0.000000 0.989951 0.098393 0.098393 0.098393
4795.429199 0.000000 2397.656250 0.000000 0.054218 0.000000 0.998529 0.120499 0.120499 0.120499
4793.728516 0.000000 2397.738525 0.000000 0.981303 0.000000 0.192471 0.123046 0.123046 0.123046
4811.959473 0.000000 2420.834717 0.000000 0.921820 0.000000 0.387618 0.101775 0.101775 0.101775
4801.017578 0.000000 2399.036865 0.000000 0.992981 0.000000 0.118271 0.100460 0.100460 0.100460
4817.256836 0.000000 2407.058594 0.000000 0.999982 0.000000 0.006063 0.109783 0.109783 0.109783
4826.709961 0.000000 2409.383789 0.000000 0.550827 0.000000 0.834620 0.096857 0.096857 0.096857
4829.392090 0.000000 2417.017090 0.000000 0.424500 0.000000 0.905428 0.096396 0.096396 0.096396
4800.894531 0.000000 2402.643799 0.000000 0.136054 0.000000 0.990701 0.095702 0.095702 0.095702
4824.572266 0.000000 2411.808105 0.000000 0.267939 0.000000 0.963436 0.102577 0.102577 0.102577
4816.716797 0.000000 2404.441650 0.000000 0.950137 0.000000 0.311834 0.100932 0.100932 0.100932
4814.650879 0.000000 2422.684570 0.000000 0.860060 0.000000 -0.510192 0.103698 0.103698 0.103698
4829.291016 0.000000 2414.686279 0.000000 0.423598 0.000000 0.905850 0.100982 0.100982 0.100982
4827.203125 0.000000 2411.661377 0.000000 0.746240 0.000000 0.665678 0.119297 0.119297 0.119297
4819.576660 0.000000 2407.795410 0.000000 0.940912 0.000000 0.338652 0.130205 0.130205 0.130205
4803.099121 0.000000 2399.045410 0.000000 0.136519 0.000000 0.990637 0.126179 0.126179 0.126179
4815.590332 0.000000 2424.440186 0.000000 0.817213 0.000000 -0.576335 0.123374 0.123374 0.123374
4827.739258 0.000000 2415.967041 0.000000 0.437290 0.000000 0.899320 0.109137 0.109137 0.109137
4810.618164 0.000000 2423.787109 0.000000 0.999631 0.000000 0.027150 0.131539 0.131539 0.131539
4818.728027 0.000000 2406.501709 0.000000 0.102706 0.000000 0.994712 0.125501 0.125501 0.125501
4837.432617 0.000000 2439.855225 0.000000 0.083286 0.000000 0.996526 0.143565 0.143565 0.143565
4840.763184 0.000000 2443.950195 0.000000 0.972779 0.000000 0.231736 0.101202 0.101202 0.101202
4848.918945 0.000000 2443.814209 0.000000 0.628505 0.000000 0.777806 0.097163 0.097163 0.097163
4835.104004 0.000000 2437.370117 0.000000 0.999405 0.000000 0.034479 0.099890 0.099890 0.099890
4837.463867 0.000000 2436.433594 0.000000 0.777112 0.000000 0.629362 0.101396 0.101396 0.101396
4839.465820 0.000000 2438.713867 0.000000 0.986049 0.000000 0.166455 0.156585 0.156585 0.156585
4847.135742 0.000000 2444.884277 0.000000 0.968914 0.000000 -0.247397 0.116324 0.116324 0.116324
4835.217285 0.000000 2439.666748 0.000000 0.225761 0.000000 0.974183 0.120125 0.120125 0.120125
4842.439941 0.000000 2441.052002 0.000000 0.857149 0.000000 0.515068 0.136543 0.136543 0.136543
4844.311035 0.000000 2442.417236 0.000000 0.997401 0.000000 0.072054 0.132468 0.132468 0.132468
4838.074219 0.000000 2438.674805 0.000000 0.739890 0.000000 0.672728 0.153725 0.153725 0.153725
4840.166504 0.000000 2441.434326 0.000000 0.887311 0.000000 -0.461171 0.147881 0.147881 0.147881
4840.696289 0.000000 2439.075684 0.000000 0.988526 0.000000 -0.151052 0.180700 0.180700 0.180700
4838.709473 0.000000 2439.635742 0.000000 0.148209 0.000000 0.988956 0.150297 0.150297 0.150297
4836.323242 0.000000 2439.328857 0.000000 0.874454 0.000000 0.485108 0.148271 0.148271 0.148271
4839.854004 0.000000 2439.876709 0.000000 0.139037 0.000000 0.990287 0.150251 0.150251 0.150251
4143.447754 0.000000 3288.779541 0.000000 0.175380 0.000000 0.984501 0.099576 0.099576 0.099576
4159.976562 0.000000 3326.709229 0.000000 0.361679 0.000000 0.932303 0.096447 0.096447 0.096447
4144.162598 0.000000 3289.957031 0.000000 0.808330 0.000000 0.588730 0.161955 0.161955 0.161955
4145.758301 0.000000 3288.345215 0.000000 0.916964 0.000000 -0.398971 0.167425 0.167425 0.167425
4175.130859 0.000000 3315.465576 0.000000 0.774756 0.000000 0.632261 0.132072 0.132072 0.132072
4171.941895 0.000000 3317.897705 0.000000 0.753652 0.000000 0.657274 0.135216 0.135216 0.135216
4164.957520 0.000000 3315.940918 0.000000 0.867991 0.000000 -0.496580 0.113329 0.113329 0.113329
4170.072266 0.000000 3332.265869 0.000000 0.932175 0.000000 0.362009 0.126779 0.126779 0.126779
4167.213379 0.000000 3314.293701 0.000000 0.091741 0.000000 0.995783 0.095559 0.095559 0.095559
4174.401855 0.000000 3317.789551 0.000000 0.221140 0.000000 0.975242 0.112064 0.112064 0.112064
4162.944824 0.000000 3293.489746 0.000000 0.933770 0.000000 -0.357875 0.118451 0.118451 0.118451
4176.382324 0.000000 3331.910156 0.000000 0.976096 0.000000 0.217341 0.120165 0.120165 0.120165
4162.026855 0.000000 3324.719971 0.000000 0.688218 0.000000 0.725504 0.133163 0.133163 0.133163
4160.712402 0.000000 3294.314697 0.000000 0.767621 0.000000 0.640904 0.111755 0.111755 0.111755
4166.997070 0.000000 3316.350586 0.000000 0.069502 0.000000 0.997582 0.147233 0.147233 0.147233
4180.141113 0.000000 3330.025635 0.000000 0.485098 0.000000 0.874460 0.103919 0.103919 0.103919
4171.557617 0.000000 3316.041504 0.000000 0.836189 0.000000 0.548442 0.135818 0.135818 0.135818
4160.517090 0.000000 3325.870850 0.000000 0.988853 0.000000 -0.148893 0.168867 0.168867 0.168867
4164.140625 0.000000 3317.661621 0.000000 0.652648 0.000000 0.757661 0.175456 0.175456 0.175456
4163.051758 0.000000 3325.946289 0.000000 0.987262 0.000000 -0.159103 0.137390 0.137390 0.137390
4164.846680 0.000000 3291.000977 0.000000 0.899278 0.000000 -0.437377 0.135823 0.135823 0.135823
4171.568848 0.000000 3332.047119 0.000000 0.785830 0.000000 0.618443 0.125569 0.125569 0.125569
4165.597656 0.000000 3289.561279 0.000000 0.431349 0.000000 0.902185 0.164210 0.164210 0.164210
4169.022461 0.000000 3319.160889 0.000000 0.912865 0.000000 0.408261 0.143156 0.143156 0.143156
4173.796875 0.000000 3315.106689 0.000000 0.998525 0.000000 -0.054297 0.181826 0.181826 0.181826
4166.988770 0.000000 3317.553955 0.000000 0.973207 0.000000 -0.229930 0.155764 0.155764 0.155764
4161.121582 0.000000 3293.202148 0.000000 0.492297 0.000000 0.870427 0.149966 0.149966 0.149966
4160.743652 0.000000 3327.014404 0.000000 0.821584 0.000000 0.570088 0.154933 0.154933 0.154933
4161.670898 0.000000 3326.014404 0.000000 0.760119 0.000000 0.649784 0.154426 0.154426 0.154426
4167.968750 0.000000 3317.046875 0.000000 0.292695 0.000000 0.956206 0.148353 0.148353 0.148353
4172.499512 0.000000 3315.476562 0.000000 0.969568 0.000000 0.244824 0.180084 0.180084 0.180084
4170.690430 0.000000 3322.455566 0.000000 0.676567 0.000000 0.736381 0.194731 0.194731 0.194731
4167.570801 0.000000 3319.189697 0.000000 0.980592 0.000000 0.196058 0.198744 0.198744 0.198744
4176.360840 0.000000 3322.638428 0.000000 0.730511 0.000000 0.682901 0.195214 0.195214 0.195214
4164.888184 0.000000 3317.026855 0.000000 0.228079 0.000000 0.973643 0.172694 0.172694 0.172694
4166.644531 0.000000 3318.521240 0.000000 0.860919 0.000000 0.508743 0.196602 0.196602 0.196602
4173.517090 0.000000 3317.362549 0.000000 0.499082 0.000000 0.866555 0.193327 0.193327 0.193327
4174.662598 0.000000 3330.981934 0.000000 0.992397 0.000000 -0.123080 0.185038 0.185038 0.185038
4177.055176 0.000000 3323.183594 0.000000 0.922876 0.000000 -0.385096 0.202517 0.202517 0.202517
4161.198730 0.000000 3328.969238 0.000000 0.262191 0.000000 0.965016 0.191689 0.191689 0.191689
4180.569336 0.000000 3337.964600 0.000000 0.409659 0.000000 0.912239 0.128458 0.128458 0.128458
4178.283691 0.000000 3333.710938 0.000000 0.120128 0.000000 0.992758 0.129315 0.129315 0.129315
4168.667480 0.000000 3337.357422 0.000000 0.998430 0.000000 0.056005 0.161057 0.161057 0.161057
4180.994629 0.000000 3335.130859 0.000000 0.546009 0.000000 0.837780 0.101992 0.101992 0.101992
4173.612305 0.000000 3335.706787 0.000000 0.870120 0.000000 0.492840 0.101390 0.101390 0.101390
4171.316406 0.000000 3333.495117 0.000000 0.334055 0.000000 0.942554 0.123268 0.123268 0.123268
4180.029785 0.000000 3336.504883 0.000000 0.998991 0.000000 -0.044918 0.133524 0.133524 0.133524
4174.213379 0.000000 3334.282959 0.000000 0.909379 0.000000 0.415969 0.124882 0.124882 0.124882
4168.364746 0.000000 3333.034912 0.000000 0.516856 0.000000 0.856072 0.179369 0.179369 0.179369
4179.337891 0.000000 3332.737061 0.000000 0.919318 0.000000 -0.393516 0.137320 0.137320 0.137320
4180.179199 0.000000 3333.855225 0.000000 0.907746 0.000000 0.419521 0.193929 0.193929 0.193929
4178.265625 0.000000 3335.286865 0.000000 0.380919 0.000000 0.924608 0.163372 0.163372 0.163372
4178.243652 0.000000 3337.346680 0.000000 0.132111 0.000000 0.991235 0.190844 0.190844 0.190844
4179.228027 0.000000 3337.115723 0.000000 0.942892 0.000000 -0.333100 0.202162 0.202162 0.202162
4181.098145 0.000000 3333.521484 0.000000 0.582670 0.000000 0.812709 0.190700 0.190700 0.190700
4179.719238 0.000000 3337.844727 0.000000 0.921829 0.000000 0.387597 0.197466 0.197466 0.197466
"}
object={
	name="bush_02_generator_2_1"
	clamp_to_water_level=no
	render_under_water=no
	generated_content=yes
	layer="semidynamic_high"
	pdxmesh="tree_bush_04_mesh"
	count=172
	transform="903.979919 0.000000 2583.932129 0.000000 0.346930 0.000000 -0.937891 0.153044 0.153044 0.153044
910.953247 0.000000 2595.768555 0.000000 0.417110 0.000000 -0.908856 0.103630 0.103630 0.103630
907.941956 0.000000 2583.600830 0.000000 0.465322 0.000000 -0.885141 0.106068 0.106068 0.106068
900.957458 0.000000 2581.644043 0.000000 0.690099 0.000000 -0.723715 0.104587 0.104587 0.104587
946.798096 0.000000 2578.478027 0.000000 0.177354 0.000000 -0.984147 0.108820 0.108820 0.108820
903.213562 0.000000 2579.996826 0.000000 0.480221 0.000000 -0.877147 0.115281 0.115281 0.115281
949.633789 0.000000 2578.854004 0.000000 0.197596 0.000000 -0.980284 0.122785 0.122785 0.122785
911.869934 0.000000 2578.619629 0.000000 0.484231 0.000000 -0.874940 0.137855 0.137855 0.137855
902.997009 0.000000 2582.053711 0.000000 0.524982 0.000000 -0.851113 0.152114 0.152114 0.152114
910.368774 0.000000 2597.650391 0.000000 0.778065 0.000000 -0.628184 0.115612 0.115612 0.115612
911.325439 0.000000 2576.805420 0.000000 0.780550 0.000000 -0.625094 0.129332 0.129332 0.129332
909.340454 0.000000 2582.023682 0.000000 0.296966 0.000000 -0.954888 0.124149 0.124149 0.124149
906.780396 0.000000 2576.580811 0.000000 0.466571 0.000000 -0.884484 0.143156 0.143156 0.143156
908.164124 0.000000 2577.306396 0.000000 0.069939 0.000000 -0.997551 0.177857 0.177857 0.177857
906.112854 0.000000 2578.953613 0.000000 0.613852 0.000000 -0.789421 0.161406 0.161406 0.161406
902.988892 0.000000 2583.257080 0.000000 0.442541 0.000000 -0.896748 0.152556 0.152556 0.152556
909.677002 0.000000 2578.790771 0.000000 0.750415 0.000000 -0.660967 0.180527 0.180527 0.180527
1012.365417 0.000000 2581.063232 0.000000 0.594806 0.000000 -0.803869 0.113068 0.113068 0.113068
981.208252 0.000000 2581.676025 0.000000 0.169957 0.000000 -0.985452 0.104456 0.104456 0.104456
967.213562 0.000000 2579.996826 0.000000 0.484623 0.000000 -0.874723 0.111788 0.111788 0.111788
1009.424500 0.000000 2580.213379 0.000000 0.633778 0.000000 -0.773515 0.106559 0.106559 0.106559
966.952942 0.000000 2577.407227 0.000000 0.447587 0.000000 -0.894241 0.117152 0.117152 0.117152
984.422180 0.000000 2571.497070 0.000000 0.793208 0.000000 -0.608951 0.117239 0.117239 0.117239
1010.908386 0.000000 2580.562744 0.000000 0.216792 0.000000 -0.976218 0.133229 0.133229 0.133229
946.798096 0.000000 2634.962402 0.000000 0.112682 0.000000 -0.993631 0.104641 0.104641 0.104641
921.706726 0.000000 2668.405029 0.000000 0.735625 0.000000 -0.677389 0.130757 0.130757 0.130757
943.447937 0.000000 2667.451416 0.000000 0.126427 0.000000 -0.991976 0.112507 0.112507 0.112507
941.585205 0.000000 2665.198730 0.000000 0.241576 0.000000 -0.970382 0.133126 0.133126 0.133126
939.072021 0.000000 2665.344238 0.000000 0.483517 0.000000 -0.875335 0.114689 0.114689 0.114689
941.674561 0.000000 2667.769043 0.000000 0.063358 0.000000 -0.997991 0.133860 0.133860 0.133860
961.319092 0.000000 2693.654053 0.000000 0.192398 0.000000 -0.981317 0.133330 0.133330 0.133330
978.817444 0.000000 2685.209473 0.000000 0.545923 0.000000 -0.837836 0.131770 0.131770 0.131770
960.525940 0.000000 2692.068604 0.000000 0.763699 0.000000 -0.645573 0.130584 0.130584 0.130584
1054.060669 0.000000 2589.951660 0.000000 0.493629 0.000000 -0.869672 0.120438 0.120438 0.120438
1055.373413 0.000000 2585.229980 0.000000 0.216563 0.000000 -0.976269 0.108688 0.108688 0.108688
1079.637939 0.000000 2614.024658 0.000000 0.316768 0.000000 -0.948503 0.163097 0.163097 0.163097
1078.302368 0.000000 2612.568604 0.000000 0.630404 0.000000 -0.776267 0.146322 0.146322 0.146322
1077.929565 0.000000 2614.352051 0.000000 0.111299 0.000000 -0.993787 0.156528 0.156528 0.156528
1089.319092 0.000000 2637.169678 0.000000 0.395752 0.000000 -0.918357 0.146407 0.146407 0.146407
1118.953613 0.000000 2654.533691 0.000000 0.423401 0.000000 -0.905942 0.119570 0.119570 0.119570
1132.376709 0.000000 2644.548828 0.000000 0.548527 0.000000 -0.836133 0.103152 0.103152 0.103152
1129.065186 0.000000 2649.986816 0.000000 0.374876 0.000000 -0.927075 0.118602 0.118602 0.118602
1094.724243 0.000000 2631.788818 0.000000 0.658596 0.000000 -0.752497 0.104725 0.104725 0.104725
1121.062500 0.000000 2650.355225 0.000000 0.329619 0.000000 -0.944114 0.111791 0.111791 0.111791
1131.601562 0.000000 2651.181396 0.000000 0.371165 0.000000 -0.928567 0.113384 0.113384 0.113384
1131.659790 0.000000 2634.460938 0.000000 0.747781 0.000000 -0.663946 0.121512 0.121512 0.121512
1120.330200 0.000000 2652.578613 0.000000 0.680488 0.000000 -0.732759 0.152920 0.152920 0.152920
1137.129272 0.000000 2648.687256 0.000000 0.491845 0.000000 -0.870683 0.105969 0.105969 0.105969
1091.385010 0.000000 2636.715820 0.000000 0.542644 0.000000 -0.839963 0.175136 0.175136 0.175136
1133.537720 0.000000 2638.670898 0.000000 0.797863 0.000000 -0.602838 0.120070 0.120070 0.120070
1093.351074 0.000000 2636.407227 0.000000 0.785526 0.000000 -0.618828 0.114997 0.114997 0.114997
1088.526001 0.000000 2635.584229 0.000000 0.439234 0.000000 -0.898373 0.124727 0.124727 0.124727
1129.936401 0.000000 2651.377686 0.000000 0.418471 0.000000 -0.908230 0.132362 0.132362 0.132362
1091.621094 0.000000 2635.369141 0.000000 0.083207 0.000000 -0.996532 0.171918 0.171918 0.171918
1092.693359 0.000000 2630.921631 0.000000 0.670871 0.000000 -0.741574 0.167936 0.167936 0.167936
1121.049316 0.000000 2656.015869 0.000000 0.230108 0.000000 -0.973165 0.154785 0.154785 0.154785
1123.792847 0.000000 2655.742188 0.000000 0.115838 0.000000 -0.993268 0.171746 0.171746 0.171746
1222.028809 0.000000 2621.210938 0.000000 0.239970 0.000000 -0.970780 0.133132 0.133132 0.133132
1216.597412 0.000000 2618.748535 0.000000 0.226881 0.000000 -0.973922 0.132603 0.132603 0.132603
1260.083374 0.000000 2674.826660 0.000000 0.551188 0.000000 -0.834381 0.103142 0.103142 0.103142
1261.374878 0.000000 2679.687256 0.000000 0.437495 0.000000 -0.899221 0.103559 0.103559 0.103559
1260.194824 0.000000 2666.843018 0.000000 0.254342 0.000000 -0.967114 0.114395 0.114395 0.114395
1259.311401 0.000000 2679.913330 0.000000 0.801392 0.000000 -0.598140 0.122906 0.122906 0.122906
1259.961060 0.000000 2676.867920 0.000000 0.013338 0.000000 -0.999911 0.134063 0.134063 0.134063
1259.072021 0.000000 2665.344238 0.000000 0.360782 0.000000 -0.932650 0.125055 0.125055 0.125055
1292.721313 0.000000 2693.090576 0.000000 0.332007 0.000000 -0.943277 0.136817 0.136817 0.136817
1295.869995 0.000000 2691.588379 0.000000 0.461005 0.000000 -0.887398 0.132170 0.132170 0.132170
1281.725952 0.000000 2697.670166 0.000000 0.754088 0.000000 -0.656773 0.120903 0.120903 0.120903
1293.340454 0.000000 2694.992432 0.000000 0.714096 0.000000 -0.700047 0.117681 0.117681 0.117681
1286.382080 0.000000 2691.765625 0.000000 0.573342 0.000000 -0.819316 0.131635 0.131635 0.131635
951.107971 0.000000 2756.451416 0.000000 0.046224 0.000000 -0.998931 0.104853 0.104853 0.104853
953.910522 0.000000 2759.200928 0.000000 0.606133 0.000000 -0.795364 0.120514 0.120514 0.120514
952.096619 0.000000 2738.894043 0.000000 0.137922 0.000000 -0.990443 0.132384 0.132384 0.132384
985.237610 0.000000 2717.408936 0.000000 0.109015 0.000000 -0.994040 0.133674 0.133674 0.133674
986.165771 0.000000 2719.507812 0.000000 0.451989 0.000000 -0.892024 0.128732 0.128732 0.128732
962.681274 0.000000 2733.468506 0.000000 0.266091 0.000000 -0.963948 0.133023 0.133023 0.133023
984.512573 0.000000 2718.982910 0.000000 0.192959 0.000000 -0.981207 0.133328 0.133328 0.133328
954.544495 0.000000 2808.157471 0.000000 0.528234 0.000000 -0.849099 0.131855 0.131855 0.131855
929.210327 0.000000 2812.607666 0.000000 0.004279 0.000000 -0.999991 0.114691 0.114691 0.114691
927.334412 0.000000 2808.719727 0.000000 0.646219 0.000000 -0.763152 0.104203 0.104203 0.104203
927.373413 0.000000 2811.167480 0.000000 0.524413 0.000000 -0.851464 0.125511 0.125511 0.125511
957.975830 0.000000 2808.420166 0.000000 0.716894 0.000000 -0.697182 0.126850 0.126850 0.126850
937.260620 0.000000 2868.440918 0.000000 0.546684 0.000000 -0.837339 0.109805 0.109805 0.109805
987.932800 0.000000 2844.488281 0.000000 0.297362 0.000000 -0.954765 0.132890 0.132890 0.132890
985.283936 0.000000 2845.836426 0.000000 0.481418 0.000000 -0.876491 0.122807 0.122807 0.122807
986.245850 0.000000 2842.730713 0.000000 0.285385 0.000000 -0.958413 0.125361 0.125361 0.125361
991.888611 0.000000 2845.762939 0.000000 0.718305 0.000000 -0.695729 0.115363 0.115363 0.115363
989.739319 0.000000 2845.681885 0.000000 0.019481 0.000000 -0.999810 0.134038 0.134038 0.134038
985.349731 0.000000 2844.169434 0.000000 0.205679 0.000000 -0.978619 0.123923 0.123923 0.123923
976.278503 0.000000 2844.937988 0.000000 0.729284 0.000000 -0.684211 0.130795 0.130795 0.130795
923.678040 0.000000 2885.717285 0.000000 0.421384 0.000000 -0.906882 0.126544 0.126544 0.126544
923.119934 0.000000 2882.651855 0.000000 0.506456 0.000000 -0.862266 0.144691 0.144691 0.144691
1220.458618 0.000000 2991.653564 0.000000 0.326126 0.000000 -0.945326 0.104234 0.104234 0.104234
1216.255005 0.000000 2984.328369 0.000000 0.620149 0.000000 -0.784484 0.102871 0.102871 0.102871
1225.640991 0.000000 2990.375244 0.000000 0.614421 0.000000 -0.788978 0.102894 0.102894 0.102894
1217.884644 0.000000 2988.239990 0.000000 0.649619 0.000000 -0.760260 0.102749 0.102749 0.102749
1223.437256 0.000000 2992.231201 0.000000 0.808044 0.000000 -0.589122 0.102005 0.102005 0.102005
1217.626221 0.000000 2992.104736 0.000000 0.521388 0.000000 -0.853320 0.144035 0.144035 0.144035
1206.816772 0.000000 2994.922607 0.000000 0.408594 0.000000 -0.912716 0.103660 0.103660 0.103660
1213.212891 0.000000 3019.063721 0.000000 0.167066 0.000000 -0.985946 0.104466 0.104466 0.104466
1211.739136 0.000000 2998.178467 0.000000 0.142423 0.000000 -0.989806 0.114795 0.114795 0.114795
1211.429321 0.000000 3018.984375 0.000000 0.515467 0.000000 -0.856909 0.144066 0.144066 0.144066
1213.818970 0.000000 2995.037109 0.000000 0.542602 0.000000 -0.839990 0.143346 0.143346 0.143346
1217.451416 0.000000 3005.847412 0.000000 0.136223 0.000000 -0.990678 0.104565 0.104565 0.104565
1220.948608 0.000000 2993.786865 0.000000 0.778986 0.000000 -0.627041 0.119613 0.119613 0.119613
1217.323608 0.000000 2999.729248 0.000000 0.727486 0.000000 -0.686123 0.139985 0.139985 0.139985
5538.454102 0.000000 1227.193115 0.000000 0.586959 0.000000 -0.809617 0.188695 0.188695 0.188695
5544.319824 0.000000 1207.719849 0.000000 0.678525 0.000000 -0.734578 0.193754 0.193754 0.193754
5545.991211 0.000000 1206.650757 0.000000 0.663949 0.000000 -0.747778 0.193872 0.193872 0.193872
5461.934570 0.000000 1297.468262 0.000000 0.301212 0.000000 -0.953557 0.116556 0.116556 0.116556
5476.550293 0.000000 1273.450317 0.000000 0.104516 0.000000 -0.994523 0.118446 0.118446 0.118446
5464.641113 0.000000 1298.380737 0.000000 0.602454 0.000000 -0.798153 0.108997 0.108997 0.108997
5460.440918 0.000000 1298.162842 0.000000 0.765431 0.000000 -0.643518 0.150618 0.150618 0.150618
5477.210449 0.000000 1274.737793 0.000000 0.639956 0.000000 -0.768411 0.150297 0.150297 0.150297
5482.913086 0.000000 1296.656494 0.000000 0.722877 0.000000 -0.690976 0.193380 0.193380 0.193380
5463.398438 0.000000 1298.456543 0.000000 0.649739 0.000000 -0.760158 0.166355 0.166355 0.166355
5494.864258 0.000000 1354.139282 0.000000 0.190738 0.000000 -0.981641 0.108775 0.108775 0.108775
5445.464844 0.000000 1303.922607 0.000000 0.646385 0.000000 -0.763012 0.119746 0.119746 0.119746
5444.948730 0.000000 1299.255737 0.000000 0.789160 0.000000 -0.614188 0.103535 0.103535 0.103535
5450.564941 0.000000 1301.689575 0.000000 0.476512 0.000000 -0.879168 0.112979 0.112979 0.112979
5449.795410 0.000000 1299.165039 0.000000 0.523763 0.000000 -0.851864 0.170629 0.170629 0.170629
5444.602051 0.000000 1301.746460 0.000000 0.603219 0.000000 -0.797576 0.133792 0.133792 0.133792
5489.262695 0.000000 1353.701660 0.000000 0.808268 0.000000 -0.588815 0.108004 0.108004 0.108004
5492.617188 0.000000 1352.497681 0.000000 0.532813 0.000000 -0.846233 0.164791 0.164791 0.164791
5530.074219 0.000000 1329.657104 0.000000 0.187137 0.000000 -0.982334 0.104401 0.104401 0.104401
5528.141602 0.000000 1331.173340 0.000000 0.770753 0.000000 -0.637134 0.204398 0.204398 0.204398
5423.722656 0.000000 1399.944702 0.000000 0.296719 0.000000 -0.954965 0.104041 0.104041 0.104041
5420.760254 0.000000 1394.130127 0.000000 0.606625 0.000000 -0.794988 0.137810 0.137810 0.137810
5422.782227 0.000000 1397.689087 0.000000 0.112904 0.000000 -0.993606 0.116071 0.116071 0.116071
5423.085449 0.000000 1394.453125 0.000000 0.568033 0.000000 -0.823006 0.146098 0.146098 0.146098
5421.465820 0.000000 1399.920898 0.000000 0.378509 0.000000 -0.925598 0.113937 0.113937 0.113937
5421.537598 0.000000 1396.014648 0.000000 0.715936 0.000000 -0.698166 0.180238 0.180238 0.180238
5436.104492 0.000000 1409.278687 0.000000 0.366394 0.000000 -0.930460 0.138989 0.138989 0.138989
5437.190430 0.000000 1411.047119 0.000000 0.547722 0.000000 -0.836660 0.154877 0.154877 0.154877
5486.042969 0.000000 1361.479614 0.000000 0.158325 0.000000 -0.987387 0.106543 0.106543 0.106543
5487.339355 0.000000 1355.870972 0.000000 0.211393 0.000000 -0.977401 0.104614 0.104614 0.104614
5491.663574 0.000000 1356.793457 0.000000 0.649451 0.000000 -0.760403 0.140454 0.140454 0.140454
5484.736816 0.000000 1358.447021 0.000000 0.476676 0.000000 -0.879079 0.153534 0.153534 0.153534
5383.914551 0.000000 1413.946289 0.000000 0.677993 0.000000 -0.735068 0.102628 0.102628 0.102628
5391.831543 0.000000 1416.281250 0.000000 0.414109 0.000000 -0.910227 0.153284 0.153284 0.153284
5425.067871 0.000000 1416.638306 0.000000 0.563525 0.000000 -0.826099 0.175578 0.175578 0.175578
5411.494629 0.000000 1414.807861 0.000000 0.626440 0.000000 -0.779470 0.181491 0.181491 0.181491
4671.509766 0.000000 2409.562256 0.000000 0.551606 0.000000 -0.834105 0.162944 0.162944 0.162944
4686.007324 0.000000 2403.233887 0.000000 0.446368 0.000000 -0.894849 0.103527 0.103527 0.103527
4689.436523 0.000000 2396.212891 0.000000 0.748667 0.000000 -0.662946 0.102307 0.102307 0.102307
4792.710938 0.000000 2396.175293 0.000000 0.298512 0.000000 -0.954406 0.128805 0.128805 0.128805
4826.979980 0.000000 2414.176514 0.000000 0.205948 0.000000 -0.978563 0.118076 0.118076 0.118076
4823.935547 0.000000 2409.398926 0.000000 0.611791 0.000000 -0.791019 0.107228 0.107228 0.107228
4811.049316 0.000000 2422.224609 0.000000 0.369371 0.000000 -0.929282 0.136650 0.136650 0.136650
4814.057129 0.000000 2424.179688 0.000000 0.796564 0.000000 -0.604554 0.123509 0.123509 0.123509
4840.974609 0.000000 2440.349609 0.000000 0.429487 0.000000 -0.903073 0.150883 0.150883 0.150883
4833.365723 0.000000 2439.002930 0.000000 0.727579 0.000000 -0.686024 0.110151 0.110151 0.110151
4836.749023 0.000000 2438.197510 0.000000 0.382900 0.000000 -0.923790 0.156350 0.156350 0.156350
4847.029785 0.000000 2443.071533 0.000000 0.140950 0.000000 -0.990017 0.154043 0.154043 0.154043
4841.849121 0.000000 2439.500244 0.000000 0.302887 0.000000 -0.953027 0.187062 0.187062 0.187062
4159.586426 0.000000 3329.528320 0.000000 0.414281 0.000000 -0.910149 0.108576 0.108576 0.108576
4145.237305 0.000000 3289.300293 0.000000 0.090979 0.000000 -0.995853 0.173050 0.173050 0.173050
4159.022461 0.000000 3288.541748 0.000000 0.780151 0.000000 -0.625592 0.194002 0.194002 0.194002
4181.934570 0.000000 3330.905762 0.000000 0.180917 0.000000 -0.983498 0.112318 0.112318 0.112318
4175.799805 0.000000 3319.157471 0.000000 0.407600 0.000000 -0.913161 0.149252 0.149252 0.149252
4164.635742 0.000000 3288.496582 0.000000 0.663438 0.000000 -0.748231 0.174891 0.174891 0.174891
4160.328125 0.000000 3324.562012 0.000000 0.381318 0.000000 -0.924444 0.174378 0.174378 0.174378
4174.365723 0.000000 3319.091064 0.000000 0.672810 0.000000 -0.739815 0.147794 0.147794 0.147794
4165.933594 0.000000 3316.930420 0.000000 0.649661 0.000000 -0.760224 0.185351 0.185351 0.185351
4173.689453 0.000000 3326.915039 0.000000 0.375034 0.000000 -0.927011 0.193018 0.193018 0.193018
4175.381836 0.000000 3331.660400 0.000000 0.508078 0.000000 -0.861311 0.190403 0.190403 0.190403
4172.685059 0.000000 3317.569824 0.000000 0.192850 0.000000 -0.981228 0.208765 0.208765 0.208765
4179.350098 0.000000 3334.931885 0.000000 0.078340 0.000000 -0.996927 0.177812 0.177812 0.177812
4181.555664 0.000000 3336.663086 0.000000 0.007106 0.000000 -0.999975 0.139970 0.139970 0.139970
4175.104980 0.000000 3335.480713 0.000000 0.411851 0.000000 -0.911251 0.131230 0.131230 0.131230
4169.352539 0.000000 3334.187744 0.000000 0.088353 0.000000 -0.996089 0.197704 0.197704 0.197704
4169.798340 0.000000 3337.951660 0.000000 0.132444 0.000000 -0.991190 0.168730 0.168730 0.168730
4168.070801 0.000000 3336.370850 0.000000 0.328847 0.000000 -0.944383 0.167691 0.167691 0.167691
"}
