﻿object={
	name="cypress_mediterranean_dense_generator_1_0"
	clamp_to_water_level=no
	render_under_water=no
	generated_content=yes
	layer="semidynamic"
	pdxmesh="tree_cypress_mediterranean_02_mesh"
	count=362
	transform="3796.968506 0.000000 2650.406250 0.000000 0.979227 0.000000 0.202766 0.206008 0.206008 0.206008
3813.982422 0.000000 2648.542969 0.000000 0.855005 0.000000 0.518619 0.289587 0.289587 0.289587
3818.009521 0.000000 2653.218018 0.000000 0.786296 0.000000 0.617850 0.259108 0.259108 0.259108
3801.505615 0.000000 2652.052979 0.000000 0.698219 0.000000 0.715884 0.284761 0.284761 0.284761
3810.932617 0.000000 2652.358154 0.000000 0.997766 0.000000 -0.066800 0.301229 0.301229 0.301229
3813.098633 0.000000 2641.152344 0.000000 0.938986 0.000000 0.343955 0.293333 0.293333 0.293333
3809.947754 0.000000 2647.754883 0.000000 0.891881 0.000000 -0.452271 0.308963 0.308963 0.308963
3812.620605 0.000000 2644.989746 0.000000 0.952716 0.000000 -0.303864 0.284394 0.284394 0.284394
3806.953613 0.000000 2654.533691 0.000000 0.764192 0.000000 0.644989 0.279754 0.279754 0.279754
3794.579102 0.000000 2653.470215 0.000000 0.985250 0.000000 -0.171119 0.250417 0.250417 0.250417
3817.065186 0.000000 2649.986816 0.000000 0.041439 0.000000 0.999141 0.270792 0.270792 0.270792
3799.836426 0.000000 2648.894043 0.000000 0.837955 0.000000 0.545739 0.254000 0.254000 0.254000
3797.934570 0.000000 2653.093262 0.000000 0.921278 0.000000 -0.388905 0.307524 0.307524 0.307524
3804.380127 0.000000 2653.131592 0.000000 0.959071 0.000000 -0.283167 0.280024 0.280024 0.280024
3815.299805 0.000000 2644.660645 0.000000 0.807882 0.000000 0.589344 0.288364 0.288364 0.288364
3815.591309 0.000000 2640.117188 0.000000 0.960716 0.000000 0.277535 0.243625 0.243625 0.243625
3809.910400 0.000000 2640.604004 0.000000 0.761128 0.000000 0.648602 0.223205 0.223205 0.223205
3795.443848 0.000000 2648.200928 0.000000 0.842576 0.000000 -0.538577 0.307977 0.307977 0.307977
3819.601562 0.000000 2651.181396 0.000000 0.905315 0.000000 0.424741 0.260033 0.260033 0.260033
3780.384766 0.000000 2649.053955 0.000000 0.995426 0.000000 -0.095536 0.253508 0.253508 0.253508
3807.328613 0.000000 2648.603027 0.000000 0.072648 0.000000 0.997358 0.271389 0.271389 0.271389
3828.706299 0.000000 2654.596680 0.000000 0.453342 0.000000 0.891337 0.266507 0.266507 0.266507
3805.290771 0.000000 2640.623779 0.000000 0.041303 0.000000 0.999147 0.270789 0.270789 0.270789
3819.596436 0.000000 2646.822754 0.000000 0.995564 0.000000 -0.094083 0.301800 0.301800 0.301800
3812.144287 0.000000 2647.242676 0.000000 0.726994 0.000000 0.686644 0.286650 0.286650 0.286650
3803.673340 0.000000 2651.054688 0.000000 0.989062 0.000000 0.147500 0.290305 0.290305 0.290305
3818.219238 0.000000 2644.495850 0.000000 0.471303 0.000000 0.881972 0.235168 0.235168 0.235168
3815.778320 0.000000 2654.116211 0.000000 0.117193 0.000000 0.993109 0.232395 0.232395 0.232395
3812.342041 0.000000 2653.949951 0.000000 0.999738 0.000000 -0.022868 0.278485 0.278485 0.278485
3800.641113 0.000000 2654.005859 0.000000 0.495841 0.000000 0.868413 0.259357 0.259357 0.259357
3816.283936 0.000000 2636.747803 0.000000 0.723596 0.000000 0.690224 0.281828 0.281828 0.281828
3818.638916 0.000000 2648.713867 0.000000 0.896200 0.000000 0.443650 0.285226 0.285226 0.285226
3796.141357 0.000000 2652.213135 0.000000 0.995703 0.000000 -0.092607 0.301747 0.301747 0.301747
3791.590576 0.000000 2650.377686 0.000000 0.933267 0.000000 0.359183 0.259361 0.259361 0.259361
3786.234863 0.000000 2645.727051 0.000000 0.938281 0.000000 -0.345874 0.257703 0.257703 0.257703
3799.416992 0.000000 2646.214111 0.000000 0.520001 0.000000 0.854165 0.280674 0.280674 0.280674
3804.161133 0.000000 2646.893311 0.000000 0.919029 0.000000 -0.394189 0.262994 0.262994 0.262994
3792.905273 0.000000 2652.180664 0.000000 0.258836 0.000000 0.965921 0.275000 0.275000 0.275000
3804.719971 0.000000 2638.790283 0.000000 0.997838 0.000000 -0.065722 0.286449 0.286449 0.286449
3805.418457 0.000000 2648.278809 0.000000 0.936442 0.000000 0.350821 0.293154 0.293154 0.293154
3812.099365 0.000000 2636.599121 0.000000 0.617261 0.000000 0.786759 0.253362 0.253362 0.253362
3813.294678 0.000000 2643.237305 0.000000 0.996474 0.000000 -0.083902 0.301529 0.301529 0.301529
3819.722900 0.000000 2653.604492 0.000000 0.318202 0.000000 0.948023 0.251293 0.251293 0.251293
3809.128418 0.000000 2639.044434 0.000000 0.908048 0.000000 -0.418867 0.303888 0.303888 0.303888
3789.317139 0.000000 2651.508545 0.000000 0.421634 0.000000 0.906766 0.276144 0.276144 0.276144
3795.343506 0.000000 2649.882324 0.000000 0.186376 0.000000 0.982479 0.274830 0.274830 0.274830
3808.293457 0.000000 2647.288818 0.000000 0.286191 0.000000 0.958173 0.275543 0.275543 0.275543
3813.577148 0.000000 2646.449707 0.000000 0.894742 0.000000 -0.446584 0.308165 0.308165 0.308165
3804.899902 0.000000 2649.829834 0.000000 0.040942 0.000000 0.999162 0.270782 0.270782 0.270782
3796.441162 0.000000 2653.787842 0.000000 0.369300 0.000000 0.929310 0.277537 0.277537 0.277537
3813.365967 0.000000 2649.980957 0.000000 0.898171 0.000000 -0.439645 0.308694 0.308694 0.308694
3794.010498 0.000000 2648.814209 0.000000 0.261534 0.000000 0.965194 0.276139 0.276139 0.276139
3810.144043 0.000000 2649.270752 0.000000 0.557468 0.000000 0.830199 0.281294 0.281294 0.281294
3805.034424 0.000000 2651.765137 0.000000 0.970631 0.000000 0.240574 0.291476 0.291476 0.291476
3807.732910 0.000000 2651.098145 0.000000 0.422227 0.000000 0.906490 0.278325 0.278325 0.278325
3810.393066 0.000000 2650.982910 0.000000 0.458700 0.000000 0.888591 0.279101 0.279101 0.279101
3816.727783 0.000000 2641.094971 0.000000 0.956406 0.000000 -0.292041 0.305660 0.305660 0.305660
3810.377441 0.000000 2642.008545 0.000000 0.908424 0.000000 -0.418049 0.307914 0.307914 0.307914
3798.889893 0.000000 2647.543213 0.000000 0.643402 0.000000 0.765528 0.283545 0.283545 0.283545
3805.209717 0.000000 2654.242432 0.000000 0.214004 0.000000 0.976833 0.274119 0.274119 0.274119
3806.176025 0.000000 2649.439209 0.000000 0.967801 0.000000 0.251717 0.295140 0.295140 0.295140
3804.793701 0.000000 2657.607422 0.000000 0.534858 0.000000 0.844942 0.280778 0.280778 0.280778
3816.832275 0.000000 2658.266846 0.000000 0.343258 0.000000 0.939241 0.243867 0.243867 0.243867
3825.519043 0.000000 2661.095215 0.000000 0.909340 0.000000 0.416053 0.292094 0.292094 0.292094
3810.900879 0.000000 2654.830322 0.000000 0.894458 0.000000 0.447153 0.291146 0.291146 0.291146
3820.063232 0.000000 2663.754639 0.000000 0.255997 0.000000 0.966677 0.274944 0.274944 0.274944
3794.283447 0.000000 2655.898438 0.000000 0.877671 0.000000 -0.479263 0.267114 0.267114 0.267114
3830.173828 0.000000 2660.949951 0.000000 0.120066 0.000000 0.992766 0.268618 0.268618 0.268618
3808.617920 0.000000 2658.131348 0.000000 0.841333 0.000000 -0.540518 0.226607 0.226607 0.226607
3814.686279 0.000000 2655.071289 0.000000 0.411978 0.000000 0.911194 0.235908 0.235908 0.235908
3818.673340 0.000000 2654.909424 0.000000 0.889917 0.000000 0.456122 0.277598 0.277598 0.277598
3823.663086 0.000000 2664.777588 0.000000 0.690639 0.000000 0.723200 0.236684 0.236684 0.236684
3822.042969 0.000000 2660.620361 0.000000 0.385856 0.000000 0.922559 0.277566 0.277566 0.277566
3828.003906 0.000000 2658.093262 0.000000 0.484894 0.000000 0.874573 0.232338 0.232338 0.232338
3804.431641 0.000000 2662.273438 0.000000 0.752129 0.000000 0.659016 0.261998 0.261998 0.261998
3828.014648 0.000000 2663.608887 0.000000 0.875957 0.000000 -0.482389 0.309614 0.309614 0.309614
3811.104248 0.000000 2663.307617 0.000000 0.959028 0.000000 0.283312 0.277213 0.277213 0.277213
3818.835938 0.000000 2660.771973 0.000000 0.632355 0.000000 0.774679 0.283075 0.283075 0.283075
3820.194824 0.000000 2666.843018 0.000000 0.976128 0.000000 -0.217197 0.271586 0.271586 0.271586
3824.746582 0.000000 2658.003174 0.000000 0.970605 0.000000 -0.240679 0.304642 0.304642 0.304642
3806.961914 0.000000 2655.727051 0.000000 0.999996 0.000000 -0.002981 0.291084 0.291084 0.291084
3796.994385 0.000000 2657.318359 0.000000 0.947492 0.000000 0.319779 0.275562 0.275562 0.275562
3806.608887 0.000000 2660.305176 0.000000 0.844287 0.000000 -0.535892 0.310124 0.310124 0.310124
3811.200439 0.000000 2667.562500 0.000000 0.861110 0.000000 0.508419 0.289814 0.289814 0.289814
3829.566895 0.000000 2667.227783 0.000000 0.631779 0.000000 0.775149 0.283757 0.283757 0.283757
3832.639160 0.000000 2659.738037 0.000000 0.999649 0.000000 -0.026499 0.239212 0.239212 0.239212
3798.782471 0.000000 2662.069092 0.000000 0.274306 0.000000 0.961642 0.241511 0.241511 0.241511
3799.068359 0.000000 2659.276855 0.000000 0.157323 0.000000 0.987547 0.273017 0.273017 0.273017
3832.473389 0.000000 2662.896484 0.000000 0.888701 0.000000 -0.458487 0.303442 0.303442 0.303442
3809.491699 0.000000 2660.660889 0.000000 0.640381 0.000000 0.768058 0.250202 0.250202 0.250202
3819.690186 0.000000 2658.329590 0.000000 0.894511 0.000000 -0.447046 0.300270 0.300270 0.300270
3813.463867 0.000000 2662.371094 0.000000 0.608797 0.000000 0.793326 0.237013 0.237013 0.237013
3794.498535 0.000000 2658.583740 0.000000 0.924695 0.000000 -0.380709 0.268649 0.268649 0.268649
3796.804932 0.000000 2654.833252 0.000000 0.997311 0.000000 -0.073281 0.301283 0.301283 0.301283
3823.339111 0.000000 2655.011719 0.000000 0.970225 0.000000 0.242207 0.295786 0.295786 0.295786
3803.677979 0.000000 2659.779785 0.000000 0.999944 0.000000 0.010561 0.288628 0.288628 0.288628
3819.095459 0.000000 2669.084229 0.000000 0.903131 0.000000 -0.429365 0.308476 0.308476 0.308476
3825.687988 0.000000 2663.718262 0.000000 0.993716 0.000000 0.111935 0.298068 0.298068 0.298068
3828.657715 0.000000 2654.801758 0.000000 0.997659 0.000000 -0.068388 0.284231 0.284231 0.284231
3823.645996 0.000000 2662.463623 0.000000 0.997953 0.000000 -0.063949 0.301174 0.301174 0.301174
3831.794922 0.000000 2667.771729 0.000000 0.802945 0.000000 0.596053 0.287804 0.287804 0.287804
3802.165771 0.000000 2663.023438 0.000000 0.991580 0.000000 -0.129496 0.302475 0.302475 0.302475
3816.647949 0.000000 2656.092285 0.000000 0.808670 0.000000 0.588263 0.252298 0.252298 0.252298
3809.049316 0.000000 2656.015869 0.000000 0.762661 0.000000 0.646799 0.240453 0.240453 0.240453
3810.934814 0.000000 2658.334717 0.000000 0.646724 0.000000 0.762724 0.283432 0.283432 0.283432
3823.883057 0.000000 2659.789307 0.000000 0.335384 0.000000 0.942081 0.277406 0.277406 0.277406
3811.217285 0.000000 2665.604248 0.000000 0.945884 0.000000 -0.324506 0.281227 0.281227 0.281227
3816.756348 0.000000 2660.232178 0.000000 0.993435 0.000000 0.114398 0.250476 0.250476 0.250476
3805.096680 0.000000 2655.161865 0.000000 0.300199 0.000000 0.953876 0.275823 0.275823 0.275823
3833.360596 0.000000 2666.022217 0.000000 0.887972 0.000000 -0.459897 0.309127 0.309127 0.309127
3826.425537 0.000000 2656.919922 0.000000 0.843810 0.000000 0.536642 0.289182 0.289182 0.289182
3799.366211 0.000000 2657.418213 0.000000 0.112611 0.000000 0.993639 0.274175 0.274175 0.274175
3824.943604 0.000000 2666.354004 0.000000 0.911580 0.000000 -0.411122 0.308092 0.308092 0.308092
3801.304688 0.000000 2655.759277 0.000000 0.889127 0.000000 0.457660 0.267509 0.267509 0.267509
3819.072021 0.000000 2665.344238 0.000000 0.533721 0.000000 0.845661 0.282300 0.282300 0.282300
3835.502197 0.000000 2666.762939 0.000000 0.132012 0.000000 0.991248 0.253894 0.253894 0.253894
3803.119873 0.000000 2656.714355 0.000000 0.999979 0.000000 -0.006480 0.299551 0.299551 0.299551
3826.999268 0.000000 2662.108398 0.000000 0.281527 0.000000 0.959553 0.275450 0.275450 0.275450
3806.652344 0.000000 2666.851074 0.000000 0.180748 0.000000 0.983530 0.273523 0.273523 0.273523
3812.749023 0.000000 2664.135010 0.000000 0.947789 0.000000 0.318897 0.293874 0.293874 0.293874
3824.748535 0.000000 2656.177979 0.000000 0.962804 0.000000 -0.270202 0.305225 0.305225 0.305225
3812.560791 0.000000 2668.821289 0.000000 0.926243 0.000000 -0.376928 0.307381 0.307381 0.307381
3811.182373 0.000000 2661.531982 0.000000 0.988712 0.000000 -0.149827 0.289465 0.289465 0.289465
3810.937256 0.000000 2656.550293 0.000000 0.749150 0.000000 0.662401 0.286172 0.286172 0.286172
3802.957520 0.000000 2661.392334 0.000000 0.964966 0.000000 0.262375 0.294930 0.294930 0.294930
3800.779785 0.000000 2659.302246 0.000000 0.217191 0.000000 0.976129 0.274181 0.274181 0.274181
3833.206055 0.000000 2664.392090 0.000000 0.977035 0.000000 -0.213079 0.303972 0.303972 0.303972
3833.112305 0.000000 2661.355957 0.000000 0.932341 0.000000 0.361580 0.284012 0.284012 0.284012
3818.135254 0.000000 2659.265137 0.000000 0.990763 0.000000 0.135604 0.290500 0.290500 0.290500
3828.080566 0.000000 2667.959229 0.000000 0.883664 0.000000 0.468122 0.290573 0.290573 0.290573
3814.707031 0.000000 2663.322998 0.000000 0.864926 0.000000 -0.501899 0.309176 0.309176 0.309176
3822.421387 0.000000 2663.812744 0.000000 0.980312 0.000000 0.197455 0.296353 0.296353 0.296353
3799.674072 0.000000 2660.721680 0.000000 0.676232 0.000000 0.736689 0.284804 0.284804 0.284804
3796.029785 0.000000 2658.692383 0.000000 0.476301 0.000000 0.879282 0.279481 0.279481 0.279481
3813.374268 0.000000 2660.732178 0.000000 0.922920 0.000000 -0.384993 0.307548 0.307548 0.307548
3807.750977 0.000000 2661.348633 0.000000 0.831578 0.000000 -0.555407 0.310541 0.310541 0.310541
3823.286621 0.000000 2656.539062 0.000000 0.839076 0.000000 0.544014 0.289014 0.289014 0.289014
3815.789551 0.000000 2668.703125 0.000000 0.640939 0.000000 0.767592 0.283287 0.283287 0.283287
3822.908691 0.000000 2666.074951 0.000000 0.080999 0.000000 0.996714 0.271549 0.271549 0.271549
3814.826172 0.000000 2661.501709 0.000000 0.777676 0.000000 0.628665 0.287016 0.287016 0.287016
3819.440918 0.000000 2662.454102 0.000000 0.921309 0.000000 0.388831 0.292941 0.292941 0.292941
3830.908203 0.000000 2666.639648 0.000000 0.866701 0.000000 0.498828 0.290026 0.290026 0.290026
5374.390625 0.000000 1354.901123 0.000000 0.803758 0.000000 0.594957 0.249058 0.249058 0.249058
5534.236816 0.000000 1238.701782 0.000000 0.980911 0.000000 -0.194455 0.303415 0.303415 0.303415
5535.732910 0.000000 1238.988647 0.000000 0.059346 0.000000 0.998237 0.273624 0.273624 0.273624
5493.633789 0.000000 1279.713501 0.000000 0.076386 0.000000 0.997078 0.220938 0.220938 0.220938
5431.531250 0.000000 1309.744263 0.000000 0.831752 0.000000 -0.555147 0.301708 0.301708 0.301708
5376.156738 0.000000 1354.040771 0.000000 0.614571 0.000000 0.788862 0.236587 0.236587 0.236587
5410.857422 0.000000 1328.269531 0.000000 0.860343 0.000000 0.509716 0.228037 0.228037 0.228037
5435.100586 0.000000 1309.233398 0.000000 0.829856 0.000000 -0.557977 0.311305 0.311305 0.311305
5432.473633 0.000000 1307.271362 0.000000 0.924155 0.000000 0.382019 0.292514 0.292514 0.292514
5425.394043 0.000000 1324.470337 0.000000 0.768690 0.000000 0.639621 0.219647 0.219647 0.219647
5380.384766 0.000000 1349.913330 0.000000 0.999182 0.000000 -0.040445 0.256233 0.256233 0.256233
5424.587891 0.000000 1319.393921 0.000000 0.788519 0.000000 0.615011 0.269527 0.269527 0.269527
5434.270996 0.000000 1307.474365 0.000000 0.985417 0.000000 -0.170156 0.303266 0.303266 0.303266
5433.206055 0.000000 1308.767090 0.000000 0.999511 0.000000 -0.031254 0.288166 0.288166 0.288166
5422.744141 0.000000 1324.794067 0.000000 0.930924 0.000000 0.365212 0.292860 0.292860 0.292860
5488.205566 0.000000 1355.599365 0.000000 0.866591 0.000000 -0.499018 0.279837 0.279837 0.279837
5487.868652 0.000000 1347.551636 0.000000 0.274668 0.000000 0.961539 0.212146 0.212146 0.212146
5448.614258 0.000000 1312.669434 0.000000 0.994186 0.000000 -0.107680 0.251386 0.251386 0.251386
5446.475098 0.000000 1313.731323 0.000000 0.071176 0.000000 0.997464 0.271361 0.271361 0.271361
5447.231934 0.000000 1312.379883 0.000000 0.886970 0.000000 -0.461827 0.309168 0.309168 0.309168
5523.771973 0.000000 1321.766113 0.000000 0.921889 0.000000 0.387454 0.207782 0.207782 0.207782
5521.436523 0.000000 1323.009644 0.000000 0.775909 0.000000 0.630845 0.274903 0.274903 0.274903
5509.729492 0.000000 1341.169434 0.000000 0.878768 0.000000 0.477249 0.267725 0.267725 0.267725
5508.140625 0.000000 1340.708496 0.000000 0.024944 0.000000 0.999689 0.252838 0.252838 0.252838
5509.041016 0.000000 1342.917114 0.000000 0.073652 0.000000 0.997284 0.271408 0.271408 0.271408
5522.930176 0.000000 1323.003296 0.000000 0.949090 0.000000 -0.315006 0.306120 0.306120 0.306120
5374.270020 0.000000 1360.056396 0.000000 0.991892 0.000000 -0.127083 0.204571 0.204571 0.204571
5372.454590 0.000000 1395.964111 0.000000 0.307695 0.000000 0.951485 0.275973 0.275973 0.275973
5374.038574 0.000000 1379.608276 0.000000 0.350558 0.000000 0.936541 0.264803 0.264803 0.264803
5374.383301 0.000000 1376.791504 0.000000 0.415751 0.000000 0.909478 0.279686 0.279686 0.279686
5378.500488 0.000000 1375.369019 0.000000 0.909687 0.000000 0.415296 0.226404 0.226404 0.226404
5409.210449 0.000000 1400.498291 0.000000 0.568279 0.000000 0.822836 0.193534 0.193534 0.193534
5407.826172 0.000000 1363.747437 0.000000 0.960637 0.000000 0.277806 0.226727 0.226727 0.226727
5376.098633 0.000000 1362.573975 0.000000 0.938038 0.000000 0.346533 0.222243 0.222243 0.222243
5385.641113 0.000000 1408.812866 0.000000 0.930085 0.000000 -0.367346 0.230680 0.230680 0.230680
5418.009766 0.000000 1410.561646 0.000000 0.759666 0.000000 0.650313 0.240921 0.240921 0.240921
5385.063965 0.000000 1386.087036 0.000000 0.955124 0.000000 -0.296206 0.217322 0.217322 0.217322
5399.371094 0.000000 1398.638916 0.000000 0.762425 0.000000 0.647077 0.226364 0.226364 0.226364
5427.863281 0.000000 1379.997681 0.000000 0.978499 0.000000 0.206253 0.204879 0.204879 0.204879
5395.991699 0.000000 1388.852539 0.000000 0.629554 0.000000 0.776957 0.211138 0.211138 0.211138
5376.042480 0.000000 1355.632324 0.000000 0.323751 0.000000 0.946142 0.232862 0.232862 0.232862
5403.678223 0.000000 1360.639160 0.000000 0.832646 0.000000 -0.553806 0.246839 0.246839 0.246839
5376.371582 0.000000 1360.709839 0.000000 0.863075 0.000000 0.505075 0.257778 0.257778 0.257778
5387.256348 0.000000 1408.658325 0.000000 0.184113 0.000000 0.982905 0.258416 0.258416 0.258416
5376.043457 0.000000 1379.876099 0.000000 0.350434 0.000000 0.936588 0.276838 0.276838 0.276838
5405.055664 0.000000 1361.638794 0.000000 0.999555 0.000000 -0.029822 0.300570 0.300570 0.300570
5377.993652 0.000000 1379.075073 0.000000 0.976408 0.000000 -0.215936 0.304157 0.304157 0.304157
5471.453613 0.000000 1372.355103 0.000000 0.860760 0.000000 0.509010 0.200817 0.200817 0.200817
5451.959473 0.000000 1404.115845 0.000000 0.812486 0.000000 -0.582981 0.209948 0.209948 0.209948
5463.890625 0.000000 1374.682739 0.000000 0.826522 0.000000 -0.562905 0.311419 0.311419 0.311419
5442.500488 0.000000 1375.369019 0.000000 0.164066 0.000000 0.986449 0.220867 0.220867 0.220867
5449.203613 0.000000 1391.325806 0.000000 0.824675 0.000000 0.565606 0.265731 0.265731 0.265731
5446.215332 0.000000 1404.562622 0.000000 0.172143 0.000000 0.985072 0.265740 0.265740 0.265740
5449.641113 0.000000 1408.812866 0.000000 0.307822 0.000000 0.951444 0.201489 0.201489 0.201489
5457.256836 0.000000 1390.339844 0.000000 0.931805 0.000000 0.362960 0.253928 0.253928 0.253928
5449.063965 0.000000 1386.087036 0.000000 0.256520 0.000000 0.966539 0.276624 0.276624 0.276624
5475.991211 0.000000 1371.351440 0.000000 0.949308 0.000000 -0.314348 0.302585 0.302585 0.302585
5472.426758 0.000000 1368.062866 0.000000 0.294789 0.000000 0.955562 0.200380 0.200380 0.200380
5446.424805 0.000000 1375.985107 0.000000 0.984008 0.000000 0.178126 0.242570 0.242570 0.242570
5474.857422 0.000000 1384.753906 0.000000 0.565315 0.000000 0.824875 0.209938 0.209938 0.209938
5446.507812 0.000000 1407.716187 0.000000 0.968972 0.000000 0.247170 0.246709 0.246709 0.246709
5449.278320 0.000000 1405.708618 0.000000 0.958543 0.000000 0.284947 0.254953 0.254953 0.254953
5475.200195 0.000000 1368.421997 0.000000 0.903457 0.000000 0.428679 0.291539 0.291539 0.291539
5447.408691 0.000000 1373.462524 0.000000 0.812997 0.000000 -0.582267 0.273436 0.273436 0.273436
5462.077637 0.000000 1372.799683 0.000000 0.003313 0.000000 0.999995 0.219718 0.219718 0.219718
5454.389160 0.000000 1389.009766 0.000000 0.751103 0.000000 0.660185 0.241810 0.241810 0.241810
5444.756836 0.000000 1374.418213 0.000000 0.561874 0.000000 0.827223 0.283073 0.283073 0.283073
5479.465820 0.000000 1365.510742 0.000000 0.453388 0.000000 0.891313 0.248335 0.248335 0.248335
5448.722168 0.000000 1388.144043 0.000000 0.750876 0.000000 0.660443 0.286573 0.286573 0.286573
5455.325195 0.000000 1390.633423 0.000000 0.560527 0.000000 0.828136 0.282497 0.282497 0.282497
5453.340332 0.000000 1395.851807 0.000000 0.429169 0.000000 0.903224 0.270471 0.270471 0.270471
5450.780273 0.000000 1390.408813 0.000000 0.528069 0.000000 0.849201 0.270770 0.270770 0.270770
5476.560547 0.000000 1369.680786 0.000000 0.475537 0.000000 0.879696 0.279465 0.279465 0.279465
5448.280273 0.000000 1389.855957 0.000000 0.379701 0.000000 0.925109 0.278014 0.278014 0.278014
5448.564453 0.000000 1407.356079 0.000000 0.995669 0.000000 -0.092964 0.293101 0.293101 0.293101
5503.416504 0.000000 1362.849976 0.000000 0.986260 0.000000 0.165202 0.296830 0.296830 0.296830
5453.021484 0.000000 1388.254028 0.000000 0.549209 0.000000 0.835685 0.282364 0.282364 0.282364
5477.508789 0.000000 1371.013306 0.000000 0.846612 0.000000 -0.532210 0.304256 0.304256 0.304256
5462.351074 0.000000 1374.365479 0.000000 0.884038 0.000000 -0.467416 0.309289 0.309289 0.309289
5477.106445 0.000000 1368.223022 0.000000 0.986871 0.000000 0.161510 0.296902 0.296902 0.296902
5449.880371 0.000000 1389.143555 0.000000 0.085871 0.000000 0.996306 0.272365 0.272365 0.272365
5465.909180 0.000000 1372.711304 0.000000 0.943980 0.000000 0.330002 0.293577 0.293577 0.293577
5378.396484 0.000000 1413.971558 0.000000 0.745166 0.000000 0.666879 0.203055 0.203055 0.203055
5421.943359 0.000000 1414.464355 0.000000 0.925212 0.000000 0.379451 0.292567 0.292567 0.292567
5426.842773 0.000000 1429.979370 0.000000 0.786527 0.000000 0.617557 0.215169 0.215169 0.215169
5421.434082 0.000000 1441.838623 0.000000 0.326219 0.000000 0.945294 0.276347 0.276347 0.276347
5412.045898 0.000000 1417.384277 0.000000 0.991489 0.000000 -0.130189 0.302494 0.302494 0.302494
5416.015625 0.000000 1419.737915 0.000000 0.812622 0.000000 0.582790 0.282578 0.282578 0.282578
5418.673340 0.000000 1412.253296 0.000000 0.230446 0.000000 0.973085 0.274441 0.274441 0.274441
5418.835938 0.000000 1418.115601 0.000000 0.456367 0.000000 0.889791 0.236970 0.236970 0.236970
5414.824707 0.000000 1417.347290 0.000000 0.035893 0.000000 0.999356 0.270686 0.270686 0.270686
5413.463867 0.000000 1419.714722 0.000000 0.889068 0.000000 0.457776 0.230229 0.230229 0.230229
5423.645996 0.000000 1419.807373 0.000000 0.229119 0.000000 0.973398 0.249569 0.249569 0.249569
5416.647949 0.000000 1413.436035 0.000000 0.860323 0.000000 0.509750 0.289784 0.289784 0.289784
5421.143066 0.000000 1412.411743 0.000000 0.990519 0.000000 0.137376 0.297600 0.297600 0.297600
5424.914551 0.000000 1429.292969 0.000000 0.427933 0.000000 0.903810 0.269479 0.269479 0.269479
5416.756348 0.000000 1417.575928 0.000000 0.978515 0.000000 0.206175 0.296034 0.296034 0.296034
5421.587891 0.000000 1419.881592 0.000000 0.946602 0.000000 0.322405 0.294198 0.294198 0.294198
5423.250488 0.000000 1441.090210 0.000000 0.789553 0.000000 0.613683 0.263333 0.263333 0.263333
5418.257812 0.000000 1414.371826 0.000000 0.931898 0.000000 0.362719 0.292911 0.292911 0.292911
5420.016602 0.000000 1413.858032 0.000000 0.863413 0.000000 -0.504498 0.309208 0.309208 0.309208
5413.372070 0.000000 1416.173950 0.000000 0.547953 0.000000 0.836509 0.281076 0.281076 0.281076
5421.431152 0.000000 1416.161011 0.000000 0.840752 0.000000 -0.541420 0.310927 0.310927 0.310927
5420.442383 0.000000 1418.622192 0.000000 0.196201 0.000000 0.980564 0.275726 0.275726 0.275726
5418.135254 0.000000 1416.608887 0.000000 0.686494 0.000000 0.727136 0.284451 0.284451 0.284451
5421.470215 0.000000 1440.336426 0.000000 0.657481 0.000000 0.753471 0.283703 0.283703 0.283703
5420.188965 0.000000 1417.130493 0.000000 0.980309 0.000000 -0.197468 0.303796 0.303796 0.303796
5415.522949 0.000000 1416.107544 0.000000 0.230378 0.000000 0.973101 0.274440 0.274440 0.274440
5454.873047 0.000000 1420.156494 0.000000 0.738256 0.000000 0.674521 0.200872 0.200872 0.200872
5463.491699 0.000000 1412.740845 0.000000 0.998842 0.000000 -0.048121 0.200329 0.200329 0.200329
5458.283691 0.000000 1413.242065 0.000000 0.991788 0.000000 0.127890 0.204923 0.204923 0.204923
5509.464844 0.000000 1360.406982 0.000000 0.657791 0.000000 0.753201 0.283711 0.283711 0.283711
5532.431641 0.000000 1363.132812 0.000000 0.883100 0.000000 -0.469184 0.309327 0.309327 0.309327
5534.608887 0.000000 1361.164673 0.000000 0.882681 0.000000 0.469972 0.224746 0.224746 0.224746
5533.958984 0.000000 1365.825317 0.000000 0.802267 0.000000 0.596965 0.218565 0.218565 0.218565
5504.371582 0.000000 1360.709839 0.000000 0.950871 0.000000 -0.309586 0.286805 0.286805 0.286805
5534.021484 0.000000 1363.891968 0.000000 0.908729 0.000000 -0.417387 0.277968 0.277968 0.277968
5533.325684 0.000000 1360.099976 0.000000 0.332269 0.000000 0.943185 0.278407 0.278407 0.278407
5533.055664 0.000000 1361.638794 0.000000 0.231642 0.000000 0.972801 0.276568 0.276568 0.276568
5507.916016 0.000000 1360.238037 0.000000 0.857483 0.000000 -0.514513 0.310038 0.310038 0.310038
5509.475098 0.000000 1363.901245 0.000000 0.235208 0.000000 0.971945 0.274535 0.274535 0.274535
4479.487305 0.000000 2572.024658 0.000000 0.914341 0.000000 -0.404944 0.218279 0.218279 0.218279
4472.550781 0.000000 2574.656006 0.000000 0.954334 0.000000 -0.298741 0.230577 0.230577 0.230577
4467.759277 0.000000 2573.161621 0.000000 0.975784 0.000000 -0.218737 0.303923 0.303923 0.303923
4471.822754 0.000000 2573.090088 0.000000 0.858391 0.000000 0.512997 0.289712 0.289712 0.289712
4513.210449 0.000000 2586.670166 0.000000 0.986429 0.000000 0.164189 0.215145 0.215145 0.215145
4535.107910 0.000000 2586.998291 0.000000 0.918825 0.000000 0.394666 0.219609 0.219609 0.219609
4517.098633 0.000000 2584.667969 0.000000 0.943261 0.000000 -0.332052 0.281923 0.281923 0.281923
4513.947754 0.000000 2591.270508 0.000000 0.952726 0.000000 0.303831 0.202482 0.202482 0.202482
4536.315430 0.000000 2578.805908 0.000000 1.000000 0.000000 0.000298 0.221006 0.221006 0.221006
4493.506836 0.000000 2577.611328 0.000000 0.855030 0.000000 -0.518578 0.254074 0.254074 0.254074
4516.620605 0.000000 2588.505371 0.000000 0.793457 0.000000 0.608626 0.231055 0.231055 0.231055
4541.611816 0.000000 2580.556641 0.000000 0.894484 0.000000 0.447101 0.223383 0.223383 0.223383
4480.894531 0.000000 2572.096924 0.000000 0.298926 0.000000 0.954276 0.264930 0.264930 0.264930
4491.406250 0.000000 2574.867676 0.000000 0.999978 0.000000 0.006563 0.276936 0.276936 0.276936
4486.724121 0.000000 2575.304443 0.000000 0.994945 0.000000 0.100423 0.298271 0.298271 0.298271
4482.822754 0.000000 2575.764893 0.000000 0.876509 0.000000 0.481386 0.290747 0.290747 0.290747
4512.544434 0.000000 2589.128418 0.000000 0.870127 0.000000 -0.492828 0.285666 0.285666 0.285666
4543.509766 0.000000 2579.015381 0.000000 0.549225 0.000000 0.835675 0.222520 0.222520 0.222520
4516.952637 0.000000 2582.273682 0.000000 0.973266 0.000000 -0.229680 0.245938 0.245938 0.245938
4516.144531 0.000000 2590.758301 0.000000 0.999560 0.000000 -0.029678 0.265656 0.265656 0.265656
4488.722168 0.000000 2574.315918 0.000000 0.735968 0.000000 0.677017 0.265255 0.265255 0.265255
4484.789062 0.000000 2575.653809 0.000000 0.999871 0.000000 -0.016056 0.273334 0.273334 0.273334
4517.294434 0.000000 2586.752930 0.000000 0.414406 0.000000 0.910092 0.259039 0.259039 0.259039
4531.824219 0.000000 2586.131348 0.000000 0.742358 0.000000 0.670004 0.285978 0.285978 0.285978
4482.875977 0.000000 2574.383545 0.000000 0.916084 0.000000 -0.400987 0.307602 0.307602 0.307602
4588.760254 0.000000 2580.302002 0.000000 0.855610 0.000000 -0.517621 0.286085 0.286085 0.286085
4591.917480 0.000000 2578.578857 0.000000 0.949054 0.000000 0.315114 0.207302 0.207302 0.207302
4589.537598 0.000000 2582.186523 0.000000 0.947666 0.000000 0.319264 0.284730 0.284730 0.284730
4695.890625 0.000000 2504.370117 0.000000 0.943540 0.000000 -0.331259 0.256359 0.256359 0.256359
4693.208496 0.000000 2525.191650 0.000000 0.876513 0.000000 -0.481379 0.216644 0.216644 0.216644
4699.932617 0.000000 2505.582031 0.000000 0.266535 0.000000 0.963825 0.275153 0.275153 0.275153
4697.681152 0.000000 2519.090088 0.000000 0.978129 0.000000 0.207999 0.261417 0.261417 0.261417
4701.422852 0.000000 2523.864258 0.000000 0.859668 0.000000 0.510853 0.223234 0.223234 0.223234
4702.952637 0.000000 2504.824707 0.000000 0.782745 0.000000 0.622342 0.288328 0.288328 0.288328
4700.947754 0.000000 2515.384277 0.000000 0.999981 0.000000 0.006215 0.222634 0.222634 0.222634
4697.283691 0.000000 2506.930176 0.000000 0.503657 0.000000 0.863904 0.244587 0.244587 0.244587
4686.979980 0.000000 2510.152588 0.000000 0.813742 0.000000 -0.581226 0.227041 0.227041 0.227041
4678.395508 0.000000 2515.368164 0.000000 0.975952 0.000000 -0.217986 0.244091 0.244091 0.244091
4705.412109 0.000000 2500.269531 0.000000 0.171393 0.000000 0.985203 0.226272 0.226272 0.226272
4694.077637 0.000000 2502.487061 0.000000 0.058068 0.000000 0.998313 0.271110 0.271110 0.271110
4691.640625 0.000000 2510.624268 0.000000 0.609208 0.000000 0.793010 0.239053 0.239053 0.239053
4692.436035 0.000000 2527.584473 0.000000 0.822716 0.000000 -0.568453 0.310891 0.310891 0.310891
4699.698730 0.000000 2531.811768 0.000000 0.698808 0.000000 0.715310 0.240932 0.240932 0.240932
4698.245605 0.000000 2503.824463 0.000000 0.866802 0.000000 -0.498653 0.291110 0.291110 0.291110
4702.816895 0.000000 2499.750244 0.000000 0.999998 0.000000 0.001829 0.248999 0.248999 0.248999
4691.576660 0.000000 2520.764160 0.000000 0.059944 0.000000 0.998202 0.273522 0.273522 0.273522
4696.887695 0.000000 2526.912598 0.000000 0.861243 0.000000 -0.508194 0.285331 0.285331 0.285331
4700.979980 0.000000 2500.591553 0.000000 0.256895 0.000000 0.966439 0.257604 0.257604 0.257604
4680.722168 0.000000 2517.831543 0.000000 0.919654 0.000000 0.392729 0.292806 0.292806 0.292806
4715.311523 0.000000 2510.460205 0.000000 0.974493 0.000000 0.224417 0.267207 0.267207 0.267207
4694.981445 0.000000 2513.537109 0.000000 0.977948 0.000000 0.208848 0.269614 0.269614 0.269614
4682.780273 0.000000 2520.096436 0.000000 0.949700 0.000000 0.313160 0.291834 0.291834 0.291834
4709.379395 0.000000 2522.199219 0.000000 0.229237 0.000000 0.973371 0.276424 0.276424 0.276424
4720.891113 0.000000 2513.686523 0.000000 0.975905 0.000000 0.218198 0.264562 0.264562 0.264562
4717.839355 0.000000 2511.998291 0.000000 0.991894 0.000000 -0.127065 0.302238 0.302238 0.302238
4697.349609 0.000000 2505.263184 0.000000 0.750636 0.000000 0.660716 0.287486 0.287486 0.287486
4711.989746 0.000000 2511.216309 0.000000 0.703989 0.000000 0.710211 0.266124 0.266124 0.266124
4702.924805 0.000000 2524.617432 0.000000 0.821456 0.000000 -0.570272 0.310499 0.310499 0.310499
4689.817871 0.000000 2504.473633 0.000000 0.875544 0.000000 -0.483138 0.292620 0.292620 0.292620
4701.380859 0.000000 2504.710205 0.000000 0.824972 0.000000 -0.565173 0.310909 0.310909 0.310909
4695.560547 0.000000 2502.838379 0.000000 0.509245 0.000000 0.860622 0.280205 0.280205 0.280205
4692.575195 0.000000 2503.816650 0.000000 0.821630 0.000000 0.570021 0.288984 0.288984 0.288984
4694.404297 0.000000 2510.927734 0.000000 0.903848 0.000000 -0.427853 0.308278 0.308278 0.308278
4699.790527 0.000000 2504.065918 0.000000 0.396875 0.000000 0.917873 0.277794 0.277794 0.277794
4718.744141 0.000000 2510.966064 0.000000 0.226256 0.000000 0.974068 0.274359 0.274359 0.274359
4698.696777 0.000000 2505.058594 0.000000 0.708695 0.000000 0.705515 0.285043 0.285043 0.285043
4623.130859 0.000000 2581.168701 0.000000 0.966472 0.000000 0.256771 0.206681 0.206681 0.206681
4615.979980 0.000000 2583.932129 0.000000 0.908804 0.000000 0.417222 0.226921 0.226921 0.226921
4641.210449 0.000000 2586.670166 0.000000 0.708951 0.000000 0.705258 0.223505 0.223505 0.223505
4649.385742 0.000000 2574.715088 0.000000 0.998871 0.000000 0.047505 0.205527 0.205527 0.205527
4655.868652 0.000000 2590.207764 0.000000 0.908454 0.000000 0.417985 0.290997 0.290997 0.290997
4625.939453 0.000000 2583.592529 0.000000 0.613774 0.000000 0.789482 0.282621 0.282621 0.282621
4625.360840 0.000000 2587.957275 0.000000 0.689389 0.000000 0.724391 0.239238 0.239238 0.239238
4641.910645 0.000000 2584.119629 0.000000 0.752459 0.000000 0.658640 0.286806 0.286806 0.286806
4628.436035 0.000000 2584.068848 0.000000 0.913937 0.000000 -0.405856 0.257305 0.257305 0.257305
4622.401855 0.000000 2583.492676 0.000000 0.921301 0.000000 0.388850 0.261088 0.261088 0.261088
4657.129395 0.000000 2592.202881 0.000000 0.999212 0.000000 0.039687 0.236289 0.236289 0.236289
4627.253418 0.000000 2589.383545 0.000000 0.978117 0.000000 -0.208055 0.293835 0.293835 0.293835
4671.273438 0.000000 2553.187988 0.000000 0.765856 0.000000 0.643012 0.241551 0.241551 0.241551
4669.252441 0.000000 2552.223145 0.000000 0.982538 0.000000 -0.186063 0.284314 0.284314 0.284314
4658.395020 0.000000 2571.813477 0.000000 0.900679 0.000000 0.434486 0.250290 0.250290 0.250290
4647.147461 0.000000 2578.700195 0.000000 0.999842 0.000000 0.017786 0.272860 0.272860 0.272860
4609.843750 0.000000 2588.176514 0.000000 0.473126 0.000000 0.880995 0.257513 0.257513 0.257513
4624.310547 0.000000 2589.392334 0.000000 0.991451 0.000000 0.130479 0.297579 0.297579 0.297579
4612.140625 0.000000 2583.364746 0.000000 0.902276 0.000000 -0.431159 0.297621 0.297621 0.297621
4624.024902 0.000000 2583.215576 0.000000 0.502446 0.000000 0.864609 0.280054 0.280054 0.280054
4614.562500 0.000000 2585.218994 0.000000 0.660946 0.000000 0.750434 0.273349 0.273349 0.273349
4626.634277 0.000000 2587.065430 0.000000 0.811220 0.000000 0.584741 0.289124 0.289124 0.289124
4625.775879 0.000000 2589.370117 0.000000 0.967509 0.000000 0.252835 0.295271 0.295271 0.295271
4640.813477 0.000000 2585.302734 0.000000 0.459900 0.000000 0.887971 0.279945 0.279945 0.279945
4687.197266 0.000000 2553.429688 0.000000 0.012810 0.000000 0.999918 0.205408 0.205408 0.205408
4674.356934 0.000000 2546.695068 0.000000 0.406617 0.000000 0.913599 0.226909 0.226909 0.226909
4680.614258 0.000000 2555.325684 0.000000 0.672037 0.000000 0.740517 0.224043 0.224043 0.224043
4676.602051 0.000000 2544.402588 0.000000 0.952615 0.000000 -0.304178 0.267592 0.267592 0.267592
4684.251465 0.000000 2548.633057 0.000000 0.857304 0.000000 0.514810 0.265532 0.265532 0.265532
4687.854980 0.000000 2548.326660 0.000000 0.529033 0.000000 0.848601 0.280836 0.280836 0.280836
4682.378418 0.000000 2553.658203 0.000000 0.984944 0.000000 0.172872 0.296727 0.296727 0.296727
4685.322266 0.000000 2546.393555 0.000000 0.972514 0.000000 -0.232845 0.304286 0.304286 0.304286
4680.161133 0.000000 2553.918213 0.000000 0.996955 0.000000 -0.077976 0.301491 0.301491 0.301491
"}
object={
	name="cypress_mediterranean_dense_generator_1_1"
	clamp_to_water_level=no
	render_under_water=no
	generated_content=yes
	layer="semidynamic"
	pdxmesh="tree_cypress_mediterranean_01_mesh"
	count=161
	transform="3824.205322 0.000000 2654.739990 0.000000 0.380351 0.000000 -0.924842 0.212255 0.212255 0.212255
3802.979736 0.000000 2640.114014 0.000000 0.671900 0.000000 -0.740642 0.221713 0.221713 0.221713
3806.060547 0.000000 2646.436035 0.000000 0.306597 0.000000 -0.951839 0.324049 0.324049 0.324049
3817.322754 0.000000 2646.556885 0.000000 0.588798 0.000000 -0.808281 0.275787 0.275787 0.275787
3799.371094 0.000000 2641.295166 0.000000 0.609653 0.000000 -0.792668 0.224195 0.224195 0.224195
3803.595215 0.000000 2648.804932 0.000000 0.302850 0.000000 -0.953038 0.286973 0.286973 0.286973
3821.386719 0.000000 2652.988281 0.000000 0.808853 0.000000 -0.588010 0.268744 0.268744 0.268744
3788.375244 0.000000 2652.948975 0.000000 0.182499 0.000000 -0.983206 0.235698 0.235698 0.235698
3811.689941 0.000000 2649.882812 0.000000 0.712991 0.000000 -0.701173 0.314840 0.314840 0.314840
3812.952637 0.000000 2638.758057 0.000000 0.457754 0.000000 -0.889079 0.320919 0.320919 0.320919
3792.382568 0.000000 2654.097656 0.000000 0.621077 0.000000 -0.783749 0.316021 0.316021 0.316021
3811.523193 0.000000 2642.927246 0.000000 0.631137 0.000000 -0.775672 0.316290 0.316290 0.316290
3810.508057 0.000000 2644.846924 0.000000 0.460717 0.000000 -0.887547 0.309245 0.309245 0.309245
3821.836670 0.000000 2650.914062 0.000000 0.535067 0.000000 -0.844809 0.306602 0.306602 0.306602
3815.167725 0.000000 2646.751221 0.000000 0.115752 0.000000 -0.993278 0.271455 0.271455 0.271455
3797.843506 0.000000 2648.565918 0.000000 0.573068 0.000000 -0.819508 0.318345 0.318345 0.318345
3806.288086 0.000000 2652.743652 0.000000 0.757518 0.000000 -0.652814 0.309788 0.309788 0.309788
3809.679932 0.000000 2654.108887 0.000000 0.415335 0.000000 -0.909669 0.321820 0.321820 0.321820
3823.350342 0.000000 2653.024414 0.000000 0.025844 0.000000 -0.999666 0.308607 0.308607 0.308607
3812.742188 0.000000 2651.486328 0.000000 0.253457 0.000000 -0.967347 0.275515 0.275515 0.275515
3816.388184 0.000000 2648.282959 0.000000 0.569717 0.000000 -0.821841 0.318423 0.318423 0.318423
3815.039307 0.000000 2638.442871 0.000000 0.763044 0.000000 -0.646347 0.313422 0.313422 0.313422
3811.619385 0.000000 2640.188232 0.000000 0.247888 0.000000 -0.968789 0.322042 0.322042 0.322042
3814.078125 0.000000 2639.910889 0.000000 0.246409 0.000000 -0.969166 0.325245 0.325245 0.325245
3798.249023 0.000000 2654.648438 0.000000 0.187921 0.000000 -0.982184 0.326390 0.326390 0.326390
3817.033447 0.000000 2639.718018 0.000000 0.123926 0.000000 -0.992291 0.327627 0.327627 0.327627
3811.429199 0.000000 2648.452148 0.000000 0.488680 0.000000 -0.872463 0.320249 0.320249 0.320249
3802.769531 0.000000 2646.954590 0.000000 0.751206 0.000000 -0.660068 0.313201 0.313201 0.313201
3810.453857 0.000000 2639.302490 0.000000 0.332481 0.000000 -0.943110 0.323527 0.323527 0.323527
3815.243408 0.000000 2649.181641 0.000000 0.524458 0.000000 -0.851436 0.319456 0.319456 0.319456
3796.561035 0.000000 2649.046631 0.000000 0.634864 0.000000 -0.772624 0.316863 0.316863 0.316863
3802.122314 0.000000 2665.573975 0.000000 0.708914 0.000000 -0.705295 0.214123 0.214123 0.214123
3799.491943 0.000000 2655.397217 0.000000 0.602168 0.000000 -0.798369 0.317658 0.317658 0.317658
3821.943604 0.000000 2657.120605 0.000000 0.541693 0.000000 -0.840576 0.317721 0.317721 0.317721
3812.045898 0.000000 2660.040527 0.000000 0.794658 0.000000 -0.607057 0.312459 0.312459 0.312459
3816.015625 0.000000 2662.394287 0.000000 0.258927 0.000000 -0.965897 0.272257 0.272257 0.272257
3834.028564 0.000000 2667.864258 0.000000 0.760525 0.000000 -0.649308 0.284220 0.284220 0.284220
3802.987305 0.000000 2654.854492 0.000000 0.118704 0.000000 -0.992930 0.327728 0.327728 0.327728
3812.575195 0.000000 2657.154541 0.000000 0.003092 0.000000 -0.999995 0.327475 0.327475 0.327475
3823.447998 0.000000 2667.451416 0.000000 0.538826 0.000000 -0.842417 0.319132 0.319132 0.319132
3814.824463 0.000000 2660.003418 0.000000 0.641453 0.000000 -0.767163 0.316700 0.316700 0.316700
3809.365723 0.000000 2664.940430 0.000000 0.167719 0.000000 -0.985835 0.318192 0.318192 0.318192
3827.914307 0.000000 2660.553955 0.000000 0.472480 0.000000 -0.881342 0.319390 0.319390 0.319390
3830.385498 0.000000 2658.674561 0.000000 0.803435 0.000000 -0.595393 0.309149 0.309149 0.309149
3830.255859 0.000000 2663.525635 0.000000 0.041670 0.000000 -0.999131 0.329204 0.329204 0.329204
3814.792969 0.000000 2657.577637 0.000000 0.337535 0.000000 -0.941313 0.323424 0.323424 0.323424
3821.143311 0.000000 2655.067871 0.000000 0.394675 0.000000 -0.918821 0.322251 0.322251 0.322251
3821.585205 0.000000 2665.198730 0.000000 0.493084 0.000000 -0.869982 0.320152 0.320152 0.320152
3821.587646 0.000000 2662.537842 0.000000 0.629144 0.000000 -0.777289 0.317004 0.317004 0.317004
3820.016846 0.000000 2656.514160 0.000000 0.227370 0.000000 -0.973808 0.323811 0.323811 0.323811
3817.262451 0.000000 2668.103271 0.000000 0.646788 0.000000 -0.762670 0.315365 0.315365 0.315365
3829.097412 0.000000 2656.551025 0.000000 0.291969 0.000000 -0.956428 0.324341 0.324341 0.324341
3813.372314 0.000000 2658.830078 0.000000 0.137949 0.000000 -0.990439 0.327250 0.327250 0.327250
3828.916016 0.000000 2662.128662 0.000000 0.692764 0.000000 -0.721164 0.315384 0.315384 0.315384
3792.728271 0.000000 2654.772217 0.000000 0.318929 0.000000 -0.947779 0.322167 0.322167 0.322167
3800.512695 0.000000 2662.498535 0.000000 0.127581 0.000000 -0.991828 0.325936 0.325936 0.325936
3820.442139 0.000000 2661.278320 0.000000 0.674413 0.000000 -0.738355 0.315864 0.315864 0.315864
3823.105225 0.000000 2658.326904 0.000000 0.475002 0.000000 -0.879985 0.319781 0.319781 0.319781
3805.325684 0.000000 2659.240723 0.000000 0.408315 0.000000 -0.912841 0.321967 0.321967 0.321967
3825.237305 0.000000 2667.972168 0.000000 0.608426 0.000000 -0.793610 0.317508 0.317508 0.317508
3798.020996 0.000000 2656.085693 0.000000 0.805670 0.000000 -0.592365 0.311230 0.311230 0.311230
3797.555664 0.000000 2658.850586 0.000000 0.441487 0.000000 -0.897268 0.321267 0.321267 0.321267
3828.241943 0.000000 2666.500488 0.000000 0.330118 0.000000 -0.943940 0.319925 0.319925 0.319925
3798.014160 0.000000 2660.299805 0.000000 0.581502 0.000000 -0.813545 0.317436 0.317436 0.317436
3814.002686 0.000000 2656.427246 0.000000 0.784168 0.000000 -0.620549 0.312785 0.312785 0.312785
3808.052002 0.000000 2654.787842 0.000000 0.050282 0.000000 -0.998735 0.329039 0.329039 0.329039
3823.546387 0.000000 2661.113037 0.000000 0.097421 0.000000 -0.995243 0.328136 0.328136 0.328136
5549.434082 0.000000 1215.901123 0.000000 0.642231 0.000000 -0.766511 0.297673 0.297673 0.297673
5537.062500 0.000000 1238.245850 0.000000 0.805556 0.000000 -0.592519 0.267021 0.267021 0.267021
5481.385742 0.000000 1275.574341 0.000000 0.487955 0.000000 -0.872869 0.207391 0.207391 0.207391
5424.541992 0.000000 1321.725830 0.000000 0.373795 0.000000 -0.927511 0.278350 0.278350 0.278350
5410.111328 0.000000 1330.755859 0.000000 0.104809 0.000000 -0.994492 0.300835 0.300835 0.300835
5446.330566 0.000000 1311.237427 0.000000 0.659897 0.000000 -0.751356 0.286862 0.286862 0.286862
5447.699707 0.000000 1314.995483 0.000000 0.479669 0.000000 -0.877450 0.309530 0.309530 0.309530
5534.530273 0.000000 1322.600708 0.000000 0.788600 0.000000 -0.614906 0.216747 0.216747 0.216747
5507.505371 0.000000 1342.566772 0.000000 0.477081 0.000000 -0.878859 0.283760 0.283760 0.283760
5534.609375 0.000000 1324.803223 0.000000 0.696394 0.000000 -0.717660 0.290435 0.290435 0.290435
5375.958008 0.000000 1376.524048 0.000000 0.658892 0.000000 -0.752237 0.315146 0.315146 0.315146
5373.658691 0.000000 1390.940796 0.000000 0.531669 0.000000 -0.846952 0.292883 0.292883 0.292883
5368.315430 0.000000 1392.634033 0.000000 0.019945 0.000000 -0.999801 0.236527 0.236527 0.236527
5367.060547 0.000000 1397.224731 0.000000 0.481529 0.000000 -0.876430 0.297506 0.297506 0.297506
5373.611816 0.000000 1394.384644 0.000000 0.706001 0.000000 -0.708211 0.315030 0.315030 0.315030
5370.631836 0.000000 1390.761475 0.000000 0.550078 0.000000 -0.835113 0.318876 0.318876 0.318876
5375.510742 0.000000 1380.361694 0.000000 0.463152 0.000000 -0.886279 0.287743 0.287743 0.287743
5374.948242 0.000000 1357.779175 0.000000 0.646413 0.000000 -0.762988 0.264439 0.264439 0.264439
5357.836426 0.000000 1408.257812 0.000000 0.493411 0.000000 -0.869797 0.276012 0.276012 0.276012
5374.970703 0.000000 1378.281006 0.000000 0.088221 0.000000 -0.996101 0.305675 0.305675 0.305675
5397.705078 0.000000 1382.492676 0.000000 0.468629 0.000000 -0.883395 0.207517 0.207517 0.207517
5424.541992 0.000000 1378.210205 0.000000 0.296226 0.000000 -0.955118 0.208783 0.208783 0.208783
5404.431641 0.000000 1363.132812 0.000000 0.572143 0.000000 -0.820154 0.317791 0.317791 0.317791
5382.724121 0.000000 1389.132446 0.000000 0.544565 0.000000 -0.838718 0.261018 0.261018 0.261018
5376.936035 0.000000 1378.234497 0.000000 0.398927 0.000000 -0.916983 0.322163 0.322163 0.322163
5376.597656 0.000000 1376.092285 0.000000 0.796757 0.000000 -0.604300 0.293637 0.293637 0.293637
5405.325684 0.000000 1360.099976 0.000000 0.733462 0.000000 -0.679731 0.314274 0.314274 0.314274
5417.205566 0.000000 1412.081299 0.000000 0.174901 0.000000 -0.984586 0.326642 0.326642 0.326642
5477.432617 0.000000 1366.652100 0.000000 0.637823 0.000000 -0.770183 0.316790 0.316790 0.316790
5490.318359 0.000000 1355.830933 0.000000 0.490778 0.000000 -0.871284 0.290439 0.290439 0.290439
5445.119141 0.000000 1372.059204 0.000000 0.790480 0.000000 -0.612488 0.235698 0.235698 0.235698
5502.624512 0.000000 1364.445190 0.000000 0.010158 0.000000 -0.999948 0.268170 0.268170 0.268170
5453.506836 0.000000 1391.439453 0.000000 0.793012 0.000000 -0.609206 0.311260 0.311260 0.311260
5451.406250 0.000000 1388.695801 0.000000 0.722780 0.000000 -0.691078 0.313486 0.313486 0.313486
5446.724121 0.000000 1389.132446 0.000000 0.380989 0.000000 -0.924580 0.266912 0.266912 0.266912
5452.721191 0.000000 1393.949829 0.000000 0.465112 0.000000 -0.885252 0.318807 0.318807 0.318807
5473.412109 0.000000 1370.582153 0.000000 0.239645 0.000000 -0.970861 0.249647 0.249647 0.249647
5458.498535 0.000000 1359.442993 0.000000 0.103082 0.000000 -0.994673 0.285207 0.285207 0.285207
5451.263184 0.000000 1392.187378 0.000000 0.501317 0.000000 -0.865263 0.280260 0.280260 0.280260
5475.217285 0.000000 1366.463501 0.000000 0.107851 0.000000 -0.994167 0.325197 0.325197 0.325197
5474.177734 0.000000 1382.558105 0.000000 0.095213 0.000000 -0.995457 0.277524 0.277524 0.277524
5479.104492 0.000000 1367.518555 0.000000 0.618306 0.000000 -0.785937 0.313673 0.313673 0.313673
5452.773926 0.000000 1389.809082 0.000000 0.567065 0.000000 -0.823673 0.317252 0.317252 0.317252
5476.749023 0.000000 1364.994507 0.000000 0.509440 0.000000 -0.860506 0.281383 0.281383 0.281383
5474.977539 0.000000 1370.124390 0.000000 0.430932 0.000000 -0.902385 0.316152 0.316152 0.316152
5464.874512 0.000000 1373.640137 0.000000 0.205726 0.000000 -0.978610 0.326043 0.326043 0.326043
5416.832520 0.000000 1415.610474 0.000000 0.618580 0.000000 -0.785722 0.317263 0.317263 0.317263
5414.686523 0.000000 1412.415161 0.000000 0.304669 0.000000 -0.952458 0.319736 0.319736 0.319736
5412.575195 0.000000 1414.498413 0.000000 0.494004 0.000000 -0.869460 0.248705 0.248705 0.248705
5419.690430 0.000000 1415.673340 0.000000 0.142846 0.000000 -0.989745 0.327262 0.327262 0.327262
5414.792969 0.000000 1414.921387 0.000000 0.757332 0.000000 -0.653030 0.313590 0.313590 0.313590
5417.963379 0.000000 1419.638672 0.000000 0.059605 0.000000 -0.998222 0.317344 0.317344 0.317344
5530.122559 0.000000 1366.433350 0.000000 0.284888 0.000000 -0.958561 0.221050 0.221050 0.221050
5535.826172 0.000000 1363.747437 0.000000 0.213011 0.000000 -0.977050 0.290821 0.290821 0.290821
5508.047852 0.000000 1363.975098 0.000000 0.752401 0.000000 -0.658706 0.313734 0.313734 0.313734
5506.356934 0.000000 1360.523193 0.000000 0.654136 0.000000 -0.756377 0.315932 0.315932 0.315932
5505.451660 0.000000 1365.017456 0.000000 0.576746 0.000000 -0.816923 0.317579 0.317579 0.317579
5508.035156 0.000000 1361.844727 0.000000 0.334067 0.000000 -0.942549 0.323495 0.323495 0.323495
5504.016113 0.000000 1364.277588 0.000000 0.713426 0.000000 -0.700730 0.314276 0.314276 0.314276
4470.158691 0.000000 2573.856689 0.000000 0.700190 0.000000 -0.713956 0.315186 0.315186 0.315186
4531.213867 0.000000 2588.054199 0.000000 0.792199 0.000000 -0.610263 0.243405 0.243405 0.243405
4530.216309 0.000000 2586.341797 0.000000 0.243716 0.000000 -0.969847 0.325298 0.325298 0.325298
4542.147949 0.000000 2586.751709 0.000000 0.775773 0.000000 -0.631013 0.313042 0.313042 0.313042
4544.009766 0.000000 2583.989502 0.000000 0.347492 0.000000 -0.937683 0.272387 0.272387 0.272387
4573.422852 0.000000 2580.348633 0.000000 0.103278 0.000000 -0.994653 0.232615 0.232615 0.232615
4591.085449 0.000000 2580.625000 0.000000 0.268690 0.000000 -0.963227 0.258177 0.258177 0.258177
4703.758301 0.000000 2515.472168 0.000000 0.378596 0.000000 -0.925562 0.317116 0.317116 0.317116
4704.032227 0.000000 2522.250488 0.000000 0.248988 0.000000 -0.968507 0.208793 0.208793 0.208793
4694.937012 0.000000 2499.739746 0.000000 0.322299 0.000000 -0.946638 0.289882 0.289882 0.289882
4692.094727 0.000000 2500.713379 0.000000 0.360069 0.000000 -0.932926 0.264661 0.264661 0.264661
4697.706543 0.000000 2498.951904 0.000000 0.622401 0.000000 -0.782699 0.293115 0.293115 0.293115
4688.186523 0.000000 2504.463867 0.000000 0.347657 0.000000 -0.937622 0.303550 0.303550 0.303550
4710.469727 0.000000 2511.906494 0.000000 0.320087 0.000000 -0.947388 0.295667 0.295667 0.295667
4695.339844 0.000000 2517.719971 0.000000 0.064671 0.000000 -0.997907 0.255300 0.255300 0.255300
4695.885254 0.000000 2511.092529 0.000000 0.194977 0.000000 -0.980808 0.325737 0.325737 0.325737
4683.263184 0.000000 2521.874756 0.000000 0.188821 0.000000 -0.982012 0.320456 0.320456 0.320456
4718.245605 0.000000 2505.235107 0.000000 0.558799 0.000000 -0.829303 0.307400 0.307400 0.307400
4698.057129 0.000000 2520.775635 0.000000 0.627675 0.000000 -0.778476 0.314714 0.314714 0.314714
4679.546875 0.000000 2516.617432 0.000000 0.299542 0.000000 -0.954083 0.288938 0.288938 0.288938
4692.433105 0.000000 2502.327148 0.000000 0.304078 0.000000 -0.952647 0.322918 0.322918 0.322918
4653.375000 0.000000 2566.718506 0.000000 0.101659 0.000000 -0.994819 0.225678 0.225678 0.225678
4611.510742 0.000000 2588.724854 0.000000 0.537047 0.000000 -0.843552 0.253722 0.253722 0.253722
4627.443848 0.000000 2591.716553 0.000000 0.259670 0.000000 -0.965697 0.269066 0.269066 0.269066
4646.646484 0.000000 2573.954102 0.000000 0.253684 0.000000 -0.967287 0.305064 0.305064 0.305064
4613.729492 0.000000 2583.825684 0.000000 0.529826 0.000000 -0.848106 0.306702 0.306702 0.306702
4635.739258 0.000000 2585.420166 0.000000 0.492571 0.000000 -0.870272 0.318977 0.318977 0.318977
4616.076660 0.000000 2585.850342 0.000000 0.269084 0.000000 -0.963117 0.286813 0.286813 0.286813
4627.070801 0.000000 2585.164795 0.000000 0.133872 0.000000 -0.990999 0.325391 0.325391 0.325391
4690.127930 0.000000 2555.072998 0.000000 0.807649 0.000000 -0.589664 0.225949 0.225949 0.225949
4679.914551 0.000000 2543.633789 0.000000 0.386246 0.000000 -0.922396 0.208003 0.208003 0.208003
4676.047852 0.000000 2550.146973 0.000000 0.281078 0.000000 -0.959685 0.223567 0.223567 0.223567
4683.486816 0.000000 2550.356445 0.000000 0.328053 0.000000 -0.944659 0.224407 0.224407 0.224407
4689.664551 0.000000 2548.452881 0.000000 0.300784 0.000000 -0.953692 0.232109 0.232109 0.232109
4690.442383 0.000000 2556.813477 0.000000 0.665336 0.000000 -0.746544 0.306453 0.306453 0.306453
"}
