﻿law_no_schools = {
	group = lawgroup_education_system
	
	icon = "gfx/interface/icons/law_icons/no_schools.dds"
	
	progressiveness = 0

	disallowing_laws = {
		law_compulsory_primary_school
	}
	
	pop_support = {
		value = 0
	}

	# AI will never abolish institutions entirely
	ai_will_do = {
		always = no
	}

	ai_enact_weight_modifier = { #Petitions
		value = 0
		
		if = {
			limit = { 
				has_journal_entry = je_government_petition
				has_variable = desired_law_var
                scope:law = var:desired_law_var
			}
			add = 750
		}
	}
}

law_religious_schools = {
	group = lawgroup_education_system
	
	icon = "gfx/interface/icons/law_icons/religious_schools.dds"
	
	progressiveness = 25
	
	unlocking_technologies = {
		rationalism
	}

	disallowing_laws = {
		law_total_separation
		law_state_atheism
		law_serfdom
	}

	institution = institution_schools
	institution_modifier = {
		state_conversion_mult = 0.2
		state_education_access_add = 0.1
		interest_group_ig_devout_pol_str_mult = 0.1
	}
	
	possible_political_movements = {
		law_private_schools
		law_public_schools
	}	
	
	pop_support = {
		value = 0
		add = {
			desc = "POP_CLERGYMEN"			
			if = {
				limit = {
					is_pop_type = clergymen
				}
				value = 0.33
			}
		}

		add = {
			desc = "POP_POVERTY"			
			if = {
				limit = { 
					owner = { NOT = { has_law = law_type:law_public_schools } }
				}
				
				# SoL 14 gives 0.1 pop support, 13 -> 0.2, 12 -> 0.3, ... 5 -> 1.0
				value = 15
				subtract = standard_of_living
				multiply = 0.1
				min = 0
				max = 1
			}
		}
	}

	ai_enact_weight_modifier = { #Petitions
		value = 0
		
		if = {
			limit = { 
				has_journal_entry = je_government_petition
				has_variable = desired_law_var
                scope:law = var:desired_law_var
			}
			add = 750
		}
	}
}

law_private_schools = {
	group = lawgroup_education_system
	
	icon = "gfx/interface/icons/law_icons/private_schools.dds"
	
	progressiveness = 25
	
	unlocking_technologies = {
		academia
	}

	disallowing_laws = {
		law_state_religion
	}
	
	institution = institution_schools
	institution_modifier = {
		state_education_access_wealth_add = 0.005
		interest_group_ig_intelligentsia_pol_str_mult = 0.1
	}
	
	possible_political_movements = {
		law_religious_schools
		law_public_schools
	}	
	
	pop_support = {
		value = 0
		add = {
			desc = "POP_WEALTH"			
			# Wealth 20 gives 0.1 pop support, 22 -> 0.2, 24 -> 0.3, ..., 30 -> 0.6
			value = wealth
			subtract = 18
			divide = 2
			multiply = 0.1
			min = 0
			max = 0.6
		}
	}

	ai_enact_weight_modifier = { #Petitions
		value = 0
		
		if = {
			limit = { 
				has_journal_entry = je_government_petition
				has_variable = desired_law_var
                scope:law = var:desired_law_var
			}
			add = 750
		}
	}
}

law_public_schools = {
	group = lawgroup_education_system

	icon = "gfx/interface/icons/law_icons/public_schools.dds"
	
	progressiveness = 50
	
	unlocking_technologies = {
		empiricism
	}

	disallowing_laws = {
		law_state_religion
		law_serfdom
	}
	
	institution = institution_schools
	institution_modifier = {
		state_assimilation_mult = 0.125
		state_education_access_add = 0.1
	}
	
	possible_political_movements = {
		law_private_schools
		law_religious_schools
	}	
	
	pop_support = {
		value = 0
		add = {
			desc = "POP_ACADEMICS"			
			if = {
				limit = {
					is_pop_type = academics
				}
				value = 0.25
			}
		}

		add = {
			desc = "POP_POVERTY"			
			
			# SoL 14 gives 0.1 pop support, 13 -> 0.2, 12 -> 0.3, ... 5 -> 1.0
			value = 15
			subtract = standard_of_living
			multiply = 0.1
			min = 0
			max = 1
		}
	}

	ai_enact_weight_modifier = { #Petitions
		value = 0
		
		if = {
			limit = { 
				has_journal_entry = je_government_petition
				has_variable = desired_law_var
                scope:law = var:desired_law_var
			}
			add = 750
		}
	}
}